1, 1, 7
test,0.4966,0.4966,0.4966,0.4966,0.4966,0.4966,0.4966,0.4966,0.4966,0.4966,0.4966,0.4966,0.4966,0.4966,0.4966,0.4966,0.4966,0.4966,0.4966,0.4966,0.4966,0.4966,0.5134,0.5204,0.5292,0.5153,0.5188,0.5251,0.5184,0.5294,0.5254,0.5281,0.5237,0.5252,0.5307
train,0.58,0.46,0.5,0.5,0.52,0.51,0.41,0.58,0.47,0.42,0.49,0.58,0.46,0.38,0.52,0.57,0.56,0.49,0.52,0.49,0.47,0.48,0.49,0.53,0.63,0.53,0.46,0.51,0.62,0.46,0.49,0.58,0.6,0.48,0.58
time, 29.591520071029663
1, 2, 9
test,0.4966,0.4966,0.4966,0.4966,0.4966,0.4966,0.4966,0.4966,0.4966,0.4966,0.4966,0.4966,0.4966,0.4966,0.4966,0.4966,0.4966,0.5654,0.568,0.4966,0.4737,0.5741,0.5407,0.5591,0.5582,0.5703,0.5701,0.5267,0.4966,0.5575,0.5415,0.5687,0.5483,0.5591,0.5733
train,0.55,0.49,0.44,0.55,0.57,0.53,0.46,0.48,0.54,0.48,0.54,0.49,0.49,0.51,0.49,0.49,0.36,0.62,0.57,0.51,0.56,0.66,0.5,0.52,0.62,0.55,0.59,0.51,0.5,0.5,0.53,0.58,0.52,0.55,0.47
time, 29.644045114517212
1, 3, 11
test,0.5034,0.5034,0.5034,0.5034,0.5034,0.5034,0.5034,0.5034,0.5034,0.5034,0.4966,0.4966,0.4966,0.5034,0.5034,0.5034,0.4966,0.4966,0.4966,0.5034,0.5034,0.5034,0.5034,0.4966,0.5034,0.4966,0.4966,0.4966,0.5034,0.4966,0.4966,0.4966,0.4966,0.4966,0.5034
train,0.47,0.57,0.46,0.48,0.55,0.48,0.58,0.52,0.45,0.5,0.41,0.42,0.46,0.44,0.53,0.5,0.46,0.52,0.56,0.48,0.51,0.49,0.44,0.46,0.5,0.52,0.45,0.59,0.5,0.45,0.51,0.45,0.48,0.49,0.43
time, 31.0425021648407
1, 4, 13
test,0.5034,0.5034,0.5034,0.5034,0.5034,0.5034,0.5034,0.5034,0.5034,0.5034,0.5034,0.5034,0.5034,0.5034,0.5034,0.5034,0.5034,0.5034,0.5034,0.5034,0.5034,0.5034,0.5034,0.5034,0.5034,0.4966,0.4966,0.4966,0.4966,0.5034,0.5034,0.5034,0.5034,0.5034,0.4966
train,0.41,0.64,0.5,0.55,0.58,0.4,0.61,0.43,0.46,0.5,0.58,0.45,0.58,0.4,0.5,0.47,0.47,0.46,0.47,0.47,0.56,0.52,0.59,0.48,0.54,0.54,0.4,0.5,0.44,0.6,0.45,0.59,0.57,0.52,0.52
time, 30.320497035980225
1, 5, 15
test,0.5034,0.5034,0.5034,0.5034,0.5034,0.5034,0.4966,0.5034,0.4966,0.5034,0.5034,0.4966,0.4966,0.5034,0.4966,0.4966,0.5034,0.4966,0.4966,0.5034,0.5034,0.4966,0.4966,0.4966,0.5034,0.5034,0.5034,0.5034,0.4966,0.4966,0.4966,0.5034,0.5034,0.5034,0.5034
train,0.46,0.56,0.54,0.55,0.53,0.49,0.56,0.52,0.53,0.46,0.51,0.48,0.45,0.44,0.51,0.43,0.54,0.5,0.47,0.55,0.45,0.52,0.51,0.5,0.53,0.5,0.41,0.58,0.52,0.45,0.54,0.53,0.54,0.52,0.5
time, 31.350088834762573
1, 6, 17
test,0.5034,0.5034,0.5034,0.5034,0.5034,0.5034,0.5034,0.5034,0.5034,0.5034,0.5034,0.5034,0.5034,0.5034,0.5034,0.5034,0.5034,0.5034,0.4966,0.5034,0.5034,0.5034,0.4966,0.5034,0.5034,0.5034,0.4966,0.5034,0.4966,0.4966,0.4966,0.4966,0.5034,0.5034,0.5034
train,0.55,0.46,0.38,0.45,0.49,0.43,0.54,0.46,0.52,0.52,0.48,0.46,0.51,0.54,0.52,0.43,0.5,0.55,0.51,0.5,0.51,0.47,0.47,0.55,0.59,0.45,0.54,0.57,0.44,0.48,0.49,0.52,0.55,0.48,0.44
time, 32.081454277038574
1, 7, 19
test,0.4966,0.4966,0.4966,0.4966,0.4966,0.4966,0.4966,0.4966,0.4966,0.4966,0.4966,0.4966,0.4966,0.5034,0.5034,0.4966,0.4966,0.5034,0.5034,0.5034,0.5034,0.5034,0.4966,0.4966,0.4966,0.4966,0.5034,0.4966,0.5034,0.5034,0.5034,0.4966,0.5034,0.4966,0.5034
train,0.49,0.51,0.53,0.44,0.46,0.5,0.61,0.49,0.44,0.5,0.51,0.52,0.42,0.45,0.46,0.48,0.58,0.46,0.55,0.44,0.49,0.54,0.58,0.59,0.57,0.46,0.52,0.49,0.42,0.52,0.46,0.56,0.56,0.48,0.46
time, 31.85958695411682
1, 8, 21
test,0.4966,0.4966,0.4966,0.4966,0.4966,0.4966,0.4966,0.4966,0.4966,0.4966,0.4966,0.4966,0.4966,0.5034,0.4966,0.4966,0.4966,0.4966,0.4966,0.4966,0.5034,0.4966,0.4966,0.4966,0.5034,0.5034,0.5034,0.5034,0.4966,0.4966,0.4966,0.4966,0.5034,0.5034,0.4966
train,0.47,0.5,0.57,0.54,0.56,0.47,0.51,0.52,0.55,0.48,0.48,0.52,0.5,0.51,0.58,0.55,0.52,0.4,0.54,0.39,0.48,0.53,0.55,0.44,0.55,0.52,0.54,0.5,0.51,0.53,0.46,0.46,0.52,0.51,0.5
time, 33.4168906211853
1, 9, 23
test,0.4966,0.4966,0.4966,0.4966,0.4966,0.4966,0.4966,0.4966,0.4966,0.4966,0.4966,0.4966,0.4966,0.4966,0.4966,0.4966,0.4966,0.4966,0.4966,0.4966,0.4966,0.4966,0.4966,0.4966,0.4966,0.4966,0.4966,0.5034,0.5034,0.5034,0.5034,0.5034,0.4966,0.4966,0.4966
train,0.48,0.47,0.44,0.46,0.55,0.52,0.59,0.54,0.6,0.54,0.52,0.47,0.45,0.53,0.43,0.48,0.46,0.57,0.44,0.47,0.52,0.59,0.53,0.54,0.55,0.57,0.56,0.54,0.53,0.53,0.48,0.5,0.52,0.45,0.51
time, 33.108487129211426
1, 10, 25
test,0.4966,0.4966,0.4966,0.4966,0.4966,0.4966,0.4966,0.4966,0.4966,0.4966,0.4966,0.4966,0.4966,0.4966,0.4966,0.5034,0.5034,0.5034,0.5034,0.4966,0.4966,0.5034,0.5034,0.5034,0.4966,0.4966,0.4966,0.4966,0.4966,0.4966,0.4966,0.4966,0.4966,0.5034,0.5034
train,0.51,0.51,0.48,0.44,0.52,0.52,0.48,0.52,0.45,0.55,0.54,0.47,0.44,0.46,0.44,0.49,0.56,0.47,0.49,0.49,0.46,0.49,0.46,0.52,0.5,0.54,0.57,0.58,0.51,0.54,0.52,0.5,0.47,0.57,0.56
time, 34.837087631225586
2, 1, 12
test,0.4966,0.4966,0.4966,0.5105,0.4881,0.465,0.4442,0.4906,0.4974,0.4889,0.4952,0.4947,0.4957,0.526,0.527,0.5395,0.5175,0.5097,0.5352,0.5397,0.5607,0.5395,0.538,0.5213,0.606,0.5334,0.5343,0.5788,0.5336,0.529,0.5053,0.5214,0.53,0.4967,0.5058
train,0.5,0.56,0.54,0.6,0.4,0.45,0.43,0.43,0.5,0.46,0.5,0.52,0.53,0.6,0.55,0.48,0.54,0.52,0.44,0.63,0.56,0.58,0.5,0.55,0.55,0.63,0.53,0.6,0.53,0.6,0.51,0.49,0.53,0.57,0.47
time, 28.023752212524414
2, 2, 18
test,0.5034,0.5034,0.5034,0.5034,0.5034,0.5034,0.5071,0.5428,0.5693,0.5313,0.5137,0.543,0.569,0.5703,0.5596,0.5535,0.5507,0.5141,0.5423,0.5348,0.5586,0.5516,0.5603,0.5529,0.5613,0.5556,0.5664,0.567,0.566,0.5632,0.5706,0.5689,0.57,0.5712,0.577
train,0.55,0.43,0.55,0.46,0.52,0.55,0.58,0.58,0.52,0.55,0.51,0.55,0.48,0.57,0.59,0.56,0.49,0.53,0.51,0.49,0.62,0.54,0.55,0.45,0.57,0.55,0.59,0.51,0.6,0.56,0.45,0.53,0.59,0.55,0.61
time, 28.851892709732056
2, 3, 24
test,0.5034,0.5034,0.5034,0.5034,0.5034,0.5034,0.5034,0.5139,0.5034,0.5034,0.5392,0.5034,0.5034,0.5034,0.5034,0.4966,0.4966,0.4966,0.4966,0.5034,0.5258,0.4966,0.4966,0.4966,0.4966,0.4966,0.5346,0.5263,0.5301,0.5329,0.5374,0.5399,0.5404,0.5402,0.5344
train,0.53,0.49,0.52,0.44,0.48,0.6,0.48,0.59,0.42,0.47,0.58,0.54,0.38,0.51,0.56,0.45,0.44,0.48,0.57,0.53,0.49,0.51,0.52,0.53,0.45,0.53,0.59,0.52,0.53,0.57,0.57,0.55,0.57,0.48,0.58
time, 29.82308316230774
2, 4, 30
test,0.5034,0.5034,0.5034,0.5034,0.5034,0.5034,0.5355,0.5355,0.5034,0.5101,0.5253,0.5034,0.5272,0.5034,0.5034,0.5034,0.5034,0.5187,0.5221,0.5034,0.535,0.5255,0.527,0.5034,0.5034,0.5281,0.5265,0.5253,0.5291,0.5291,0.5287,0.528,0.5314,0.5314,0.5269
train,0.55,0.45,0.5,0.52,0.55,0.44,0.54,0.51,0.48,0.48,0.55,0.55,0.55,0.52,0.56,0.4,0.56,0.57,0.53,0.53,0.57,0.56,0.47,0.58,0.42,0.51,0.57,0.56,0.56,0.57,0.55,0.49,0.43,0.49,0.56
time, 30.95321249961853
2, 5, 36
test,0.4966,0.4966,0.4966,0.4966,0.4966,0.4966,0.4966,0.4966,0.5034,0.5034,0.5034,0.5034,0.4966,0.4966,0.4966,0.4966,0.5034,0.5034,0.5034,0.5034,0.4966,0.4966,0.4966,0.4966,0.4966,0.4966,0.4966,0.4966,0.5034,0.4966,0.4966,0.4966,0.4966,0.4966,0.5034
train,0.49,0.42,0.5,0.55,0.44,0.5,0.57,0.54,0.53,0.52,0.49,0.44,0.53,0.57,0.5,0.63,0.52,0.42,0.47,0.51,0.47,0.45,0.54,0.59,0.48,0.6,0.47,0.52,0.49,0.46,0.51,0.52,0.49,0.48,0.56
time, 31.911913633346558
2, 6, 42
test,0.5034,0.5034,0.5034,0.5034,0.5034,0.5034,0.5034,0.5034,0.5034,0.5034,0.5034,0.5034,0.5034,0.4966,0.4966,0.4966,0.4966,0.5034,0.5034,0.5034,0.4966,0.5034,0.4966,0.4966,0.5034,0.5034,0.5034,0.5034,0.5034,0.4966,0.5034,0.5034,0.4966,0.4966,0.5034
train,0.55,0.42,0.58,0.42,0.53,0.54,0.4,0.63,0.57,0.53,0.56,0.52,0.55,0.49,0.49,0.46,0.6,0.38,0.56,0.43,0.52,0.5,0.54,0.65,0.55,0.48,0.55,0.5,0.51,0.51,0.51,0.5,0.53,0.65,0.47
time, 32.80592703819275
2, 7, 48
test,0.5034,0.5034,0.5034,0.5034,0.4966,0.4966,0.5034,0.4966,0.4966,0.4966,0.4966,0.5034,0.4966,0.4966,0.5034,0.4966,0.4966,0.5034,0.4966,0.5034,0.5034,0.4966,0.5034,0.4966,0.4966,0.5034,0.4966,0.5034,0.4966,0.5034,0.5034,0.5034,0.5034,0.5034,0.4966
train,0.49,0.48,0.46,0.5,0.47,0.43,0.55,0.48,0.54,0.55,0.58,0.63,0.51,0.51,0.56,0.55,0.52,0.42,0.41,0.57,0.58,0.56,0.55,0.5,0.46,0.39,0.51,0.5,0.45,0.55,0.55,0.55,0.53,0.46,0.58
time, 33.53587055206299
2, 8, 54
test,0.4966,0.4966,0.4966,0.4966,0.4966,0.4966,0.4966,0.4966,0.4966,0.4966,0.4966,0.4966,0.4966,0.4966,0.5034,0.4966,0.5034,0.5034,0.4966,0.5034,0.5034,0.5034,0.4966,0.4966,0.5034,0.5034,0.5034,0.4966,0.5034,0.5034,0.4966,0.4966,0.4966,0.4966,0.5034
train,0.45,0.44,0.54,0.48,0.51,0.5,0.43,0.49,0.55,0.53,0.57,0.5,0.56,0.49,0.42,0.52,0.58,0.56,0.46,0.57,0.52,0.54,0.5,0.55,0.59,0.37,0.41,0.47,0.56,0.48,0.6,0.48,0.47,0.6,0.52
time, 34.45225119590759
2, 9, 60
test,0.5034,0.5034,0.5034,0.5034,0.5034,0.5034,0.5034,0.5034,0.5034,0.5034,0.5034,0.5034,0.5034,0.5034,0.5034,0.5034,0.5034,0.5034,0.5034,0.5034,0.4966,0.5034,0.4966,0.4966,0.4966,0.4966,0.4966,0.4966,0.4966,0.4966,0.4966,0.4966,0.5034,0.5034,0.4966
train,0.51,0.46,0.53,0.54,0.47,0.45,0.48,0.53,0.52,0.48,0.54,0.47,0.49,0.52,0.47,0.53,0.54,0.58,0.51,0.5,0.51,0.52,0.46,0.43,0.5,0.47,0.53,0.52,0.5,0.45,0.52,0.5,0.51,0.53,0.45
time, 35.12273120880127
2, 10, 66
test,0.5034,0.5034,0.5034,0.5034,0.5034,0.5034,0.4966,0.5034,0.4966,0.4966,0.5034,0.5034,0.4966,0.4966,0.5034,0.5034,0.5034,0.4966,0.5034,0.5034,0.4966,0.5034,0.5034,0.5034,0.5034,0.5034,0.5034,0.5034,0.5034,0.5034,0.4966,0.4966,0.4966,0.4966,0.5034
train,0.49,0.43,0.58,0.51,0.49,0.47,0.49,0.5,0.56,0.5,0.53,0.55,0.41,0.55,0.46,0.5,0.46,0.49,0.55,0.44,0.47,0.46,0.5,0.47,0.57,0.49,0.54,0.51,0.58,0.51,0.53,0.46,0.48,0.51,0.49
time, 35.967519760131836
3, 1, 17
test,0.5348,0.5511,0.4946,0.5017,0.4997,0.4993,0.5108,0.5089,0.5018,0.5006,0.5426,0.5568,0.5982,0.5646,0.5454,0.528,0.5544,0.5937,0.5487,0.555,0.5946,0.5752,0.5382,0.5852,0.6472,0.6164,0.5755,0.5969,0.543,0.6099,0.6475,0.6267,0.604,0.6109,0.6214
train,0.57,0.57,0.57,0.59,0.51,0.52,0.5,0.45,0.55,0.49,0.54,0.46,0.56,0.65,0.51,0.44,0.54,0.54,0.56,0.61,0.7,0.66,0.62,0.64,0.6,0.62,0.58,0.52,0.55,0.63,0.64,0.71,0.65,0.52,0.67
time, 28.16979718208313
3, 2, 29
test,0.5034,0.5034,0.5034,0.5034,0.5391,0.6109,0.6113,0.6104,0.6111,0.6118,0.6117,0.6104,0.6314,0.6307,0.6458,0.6374,0.6407,0.6386,0.6458,0.636,0.648,0.6506,0.6483,0.6549,0.6592,0.6568,0.6598,0.6568,0.6606,0.6595,0.6544,0.6519,0.6533,0.6638,0.6572
train,0.49,0.54,0.49,0.54,0.48,0.6,0.63,0.64,0.67,0.64,0.63,0.66,0.66,0.61,0.7,0.65,0.61,0.59,0.65,0.62,0.71,0.66,0.63,0.63,0.66,0.63,0.68,0.59,0.75,0.72,0.69,0.72,0.64,0.67,0.65
time, 29.059568405151367
3, 3, 41
test,0.5034,0.5034,0.5034,0.5034,0.5034,0.5471,0.4985,0.5238,0.5546,0.5232,0.5512,0.4874,0.5034,0.5034,0.5034,0.5034,0.5034,0.4964,0.5764,0.5226,0.5264,0.5263,0.5598,0.5443,0.5457,0.5548,0.5415,0.4984,0.468,0.5046,0.4694,0.5342,0.5343,0.48,0.4921
train,0.45,0.54,0.53,0.45,0.43,0.51,0.53,0.46,0.45,0.61,0.5,0.47,0.45,0.5,0.49,0.43,0.55,0.57,0.54,0.52,0.53,0.57,0.52,0.62,0.45,0.5,0.58,0.55,0.44,0.45,0.45,0.58,0.48,0.45,0.45
time, 29.6012601852417
3, 4, 53
test,0.5034,0.5034,0.5034,0.5271,0.5034,0.5236,0.5333,0.528,0.5123,0.5216,0.5322,0.5309,0.5314,0.5252,0.5275,0.5303,0.5325,0.5327,0.5321,0.5327,0.5034,0.5328,0.5288,0.5307,0.5248,0.5298,0.5322,0.5325,0.5325,0.5321,0.5319,0.5333,0.5325,0.5324,0.5322
train,0.5,0.48,0.46,0.64,0.48,0.59,0.53,0.55,0.56,0.52,0.57,0.53,0.65,0.5,0.58,0.55,0.46,0.47,0.51,0.59,0.56,0.48,0.48,0.54,0.51,0.57,0.54,0.6,0.54,0.57,0.51,0.47,0.53,0.58,0.55
time, 31.15577459335327
3, 5, 65
test,0.4966,0.4966,0.4966,0.4966,0.4966,0.4966,0.4966,0.4966,0.4966,0.4966,0.4966,0.4966,0.4966,0.4966,0.4966,0.4966,0.5034,0.5034,0.5034,0.4966,0.4966,0.4966,0.5034,0.5034,0.4966,0.5034,0.5034,0.4966,0.5034,0.5034,0.5034,0.5034,0.4966,0.5034,0.5034
train,0.43,0.47,0.54,0.54,0.49,0.46,0.5,0.46,0.46,0.51,0.56,0.58,0.49,0.47,0.52,0.59,0.5,0.5,0.49,0.52,0.53,0.54,0.51,0.54,0.52,0.5,0.6,0.48,0.52,0.54,0.57,0.5,0.47,0.48,0.5
time, 32.142438888549805
3, 6, 77
test,0.5034,0.5034,0.5034,0.5034,0.5034,0.4966,0.5034,0.5034,0.5034,0.5034,0.5034,0.5034,0.5034,0.5034,0.5034,0.5034,0.5034,0.4966,0.4966,0.5034,0.5034,0.4966,0.4966,0.5034,0.5034,0.5034,0.5034,0.5034,0.4966,0.4966,0.5034,0.5034,0.5034,0.5034,0.4966
train,0.44,0.52,0.5,0.49,0.46,0.61,0.45,0.45,0.54,0.48,0.47,0.42,0.42,0.52,0.41,0.5,0.58,0.52,0.51,0.34,0.53,0.53,0.53,0.44,0.5,0.52,0.56,0.55,0.48,0.55,0.44,0.51,0.52,0.49,0.42
time, 32.94301247596741
3, 7, 89
test,0.5034,0.5034,0.5034,0.5034,0.5034,0.5034,0.5034,0.5034,0.5034,0.5034,0.4966,0.5034,0.5034,0.4966,0.5034,0.5034,0.5034,0.4966,0.4966,0.5034,0.5034,0.4966,0.4966,0.4966,0.4966,0.4966,0.5034,0.5034,0.5034,0.5034,0.5034,0.4966,0.4966,0.5034,0.5034
train,0.48,0.55,0.49,0.53,0.51,0.6,0.67,0.54,0.54,0.44,0.48,0.51,0.52,0.52,0.54,0.55,0.51,0.42,0.54,0.49,0.45,0.52,0.46,0.47,0.5,0.49,0.55,0.56,0.51,0.44,0.62,0.47,0.51,0.54,0.44
time, 33.863154888153076
3, 8, 101
test,0.4966,0.4966,0.4966,0.5034,0.4966,0.4966,0.4966,0.4214,0.4966,0.5034,0.5034,0.4966,0.4966,0.5034,0.4966,0.5034,0.4966,0.4912,0.4966,0.4966,0.5034,0.4966,0.4966,0.4966,0.4966,0.4966,0.4966,0.5034,0.5034,0.5034,0.4966,0.4966,0.4966,0.4966,0.4966
train,0.54,0.53,0.55,0.57,0.48,0.47,0.67,0.45,0.51,0.47,0.56,0.47,0.48,0.43,0.5,0.48,0.52,0.52,0.49,0.55,0.54,0.53,0.59,0.56,0.56,0.55,0.47,0.52,0.5,0.52,0.59,0.45,0.52,0.45,0.52
time, 34.61458730697632
3, 9, 113
test,0.4966,0.4966,0.4966,0.5034,0.4966,0.4966,0.4966,0.5034,0.5034,0.5034,0.5034,0.4966,0.4966,0.5034,0.5034,0.5034,0.4966,0.4966,0.4966,0.5034,0.5034,0.4966,0.4966,0.5034,0.5034,0.4966,0.5034,0.5034,0.5034,0.4966,0.4966,0.4966,0.4966,0.4966,0.4966
train,0.44,0.46,0.56,0.58,0.48,0.61,0.55,0.5,0.46,0.51,0.57,0.42,0.49,0.6,0.5,0.55,0.46,0.5,0.56,0.55,0.46,0.46,0.52,0.49,0.49,0.44,0.54,0.5,0.53,0.45,0.49,0.46,0.52,0.58,0.59
time, 35.59935522079468
3, 10, 125
test,0.5034,0.5034,0.5034,0.5034,0.5034,0.5034,0.4966,0.5034,0.5034,0.5034,0.5034,0.5034,0.4966,0.5034,0.4966,0.4966,0.5034,0.4966,0.5034,0.4966,0.4966,0.5034,0.5034,0.5034,0.5034,0.5034,0.5034,0.4966,0.5034,0.4966,0.5034,0.5034,0.5034,0.5034,0.5034
train,0.53,0.41,0.49,0.54,0.56,0.53,0.44,0.54,0.49,0.46,0.55,0.47,0.51,0.45,0.42,0.57,0.5,0.35,0.44,0.42,0.49,0.55,0.55,0.54,0.5,0.58,0.52,0.54,0.47,0.48,0.48,0.59,0.49,0.46,0.51
time, 36.40923810005188
4, 1, 22
test,0.5034,0.5396,0.5044,0.5013,0.4884,0.5455,0.5312,0.5704,0.5559,0.5603,0.5648,0.5636,0.5848,0.5784,0.5383,0.5195,0.5888,0.6179,0.6009,0.6204,0.6315,0.6179,0.5889,0.6101,0.6,0.5999,0.577,0.608,0.6174,0.6203,0.6175,0.6203,0.5955,0.6104,0.6207
train,0.39,0.5,0.42,0.44,0.48,0.58,0.51,0.57,0.51,0.55,0.54,0.61,0.6,0.56,0.57,0.56,0.56,0.61,0.64,0.62,0.66,0.73,0.55,0.59,0.52,0.5,0.55,0.71,0.6,0.64,0.61,0.65,0.61,0.59,0.52
time, 28.13192129135132
4, 2, 42
test,0.4966,0.4966,0.4966,0.4966,0.4855,0.5667,0.5728,0.5246,0.5526,0.5523,0.5598,0.5674,0.5614,0.5602,0.5646,0.5651,0.5634,0.5659,0.5667,0.567,0.57,0.5689,0.5698,0.5714,0.5711,0.608,0.5845,0.596,0.5998,0.6082,0.6095,0.6025,0.6086,0.608,0.6105
train,0.56,0.43,0.5,0.44,0.52,0.53,0.62,0.51,0.52,0.53,0.51,0.58,0.57,0.56,0.53,0.65,0.55,0.58,0.59,0.64,0.64,0.64,0.56,0.61,0.61,0.52,0.71,0.59,0.54,0.6,0.53,0.6,0.59,0.73,0.64
time, 29.042402029037476
4, 3, 62
test,0.4966,0.4966,0.4966,0.4966,0.4966,0.4966,0.4966,0.4376,0.4966,0.5206,0.5162,0.4956,0.5125,0.5145,0.4966,0.4966,0.5313,0.5204,0.5162,0.5175,0.5258,0.5911,0.6184,0.6193,0.6702,0.6719,0.6629,0.6634,0.6616,0.6326,0.628,0.6429,0.6327,0.6385,0.6404
train,0.44,0.5,0.42,0.51,0.52,0.45,0.45,0.38,0.55,0.55,0.5,0.53,0.52,0.53,0.51,0.45,0.52,0.5,0.45,0.49,0.54,0.56,0.64,0.58,0.59,0.68,0.68,0.69,0.67,0.61,0.63,0.72,0.67,0.62,0.64
time, 30.164613485336304
4, 4, 82
test,0.5034,0.5354,0.5029,0.5051,0.5034,0.5034,0.5034,0.4966,0.4966,0.5034,0.5034,0.5414,0.4966,0.4966,0.4966,0.4966,0.4966,0.4966,0.4966,0.5574,0.5292,0.4966,0.5706,0.5248,0.5611,0.5021,0.57,0.5293,0.4866,0.6126,0.5438,0.5735,0.6242,0.6943,0.7001
train,0.41,0.54,0.42,0.47,0.46,0.57,0.47,0.41,0.47,0.55,0.51,0.58,0.48,0.44,0.49,0.52,0.51,0.43,0.49,0.65,0.53,0.47,0.56,0.61,0.54,0.39,0.58,0.51,0.51,0.58,0.54,0.6,0.67,0.63,0.71
time, 31.25491452217102
4, 5, 102
test,0.5034,0.5034,0.5034,0.473,0.5034,0.4668,0.5221,0.5653,0.5742,0.5703,0.5736,0.5698,0.5742,0.5694,0.6744,0.6533,0.6616,0.6658,0.6673,0.6646,0.67,0.6568,0.6676,0.6638,0.6719,0.6715,0.6663,0.6696,0.6664,0.6699,0.6792,0.6958,0.6762,0.6873,0.7021
train,0.53,0.48,0.49,0.53,0.43,0.43,0.58,0.61,0.64,0.54,0.67,0.54,0.62,0.54,0.69,0.69,0.66,0.56,0.74,0.68,0.66,0.63,0.76,0.6,0.68,0.61,0.63,0.63,0.55,0.66,0.7,0.72,0.71,0.65,0.62
time, 32.10673427581787
4, 6, 122
test,0.5034,0.5034,0.5034,0.5034,0.5034,0.5034,0.5034,0.5634,0.5785,0.5721,0.5626,0.6163,0.6041,0.6275,0.6327,0.6314,0.6459,0.7143,0.7388,0.7462,0.7416,0.7544,0.751,0.7521,0.7488,0.751,0.7552,0.7581,0.7542,0.7575,0.7522,0.7566,0.7589,0.7598,0.7612
train,0.5,0.44,0.57,0.51,0.49,0.55,0.54,0.55,0.6,0.6,0.57,0.62,0.6,0.64,0.66,0.62,0.67,0.62,0.75,0.81,0.73,0.73,0.78,0.79,0.75,0.73,0.77,0.73,0.76,0.76,0.72,0.74,0.74,0.77,0.74
time, 33.066187381744385
4, 7, 142
test,0.5034,0.5034,0.5034,0.5034,0.5034,0.5034,0.4908,0.556,0.5721,0.5551,0.6413,0.6532,0.6693,0.679,0.6733,0.6769,0.6809,0.7025,0.723,0.7245,0.7224,0.7193,0.7216,0.7177,0.7236,0.722,0.7162,0.722,0.7148,0.716,0.7122,0.7225,0.7572,0.76,0.7524
train,0.42,0.45,0.51,0.5,0.41,0.49,0.51,0.5,0.58,0.51,0.62,0.65,0.63,0.66,0.71,0.67,0.7,0.68,0.69,0.69,0.73,0.72,0.69,0.75,0.71,0.71,0.72,0.69,0.75,0.62,0.72,0.67,0.81,0.73,0.79
time, 34.05082559585571
4, 8, 162
test,0.4966,0.4966,0.4966,0.4966,0.4966,0.4966,0.4966,0.4966,0.4966,0.4966,0.4966,0.4966,0.5034,0.4966,0.4966,0.4966,0.4966,0.5034,0.5034,0.5034,0.5034,0.4966,0.5034,0.5034,0.5034,0.5034,0.4966,0.5034,0.5034,0.5034,0.5034,0.5034,0.5034,0.4966,0.4966
train,0.48,0.54,0.41,0.47,0.46,0.57,0.51,0.47,0.5,0.48,0.56,0.51,0.52,0.48,0.42,0.42,0.55,0.42,0.52,0.45,0.44,0.48,0.39,0.46,0.43,0.53,0.48,0.5,0.54,0.47,0.35,0.46,0.48,0.54,0.53
time, 34.6021032333374
4, 9, 182
test,0.4966,0.4966,0.4966,0.4966,0.4966,0.5034,0.4966,0.5034,0.5034,0.5034,0.5034,0.5034,0.5034,0.5034,0.5034,0.4966,0.4966,0.5034,0.4966,0.4966,0.4966,0.5034,0.4966,0.4966,0.4966,0.5034,0.4966,0.4966,0.4966,0.5034,0.5034,0.4966,0.5034,0.5034,0.5034
train,0.42,0.51,0.59,0.53,0.53,0.53,0.5,0.42,0.51,0.5,0.53,0.38,0.47,0.52,0.46,0.5,0.56,0.55,0.56,0.49,0.47,0.57,0.48,0.53,0.57,0.4,0.56,0.47,0.54,0.48,0.43,0.54,0.5,0.49,0.46
time, 35.49933862686157
4, 10, 202
test,0.5034,0.5034,0.5034,0.5034,0.5034,0.5034,0.5034,0.5034,0.5034,0.5034,0.4966,0.4966,0.4966,0.4966,0.5034,0.5034,0.5034,0.5034,0.5034,0.5034,0.5034,0.5034,0.5034,0.4966,0.4966,0.4966,0.4966,0.4966,0.5034,0.5034,0.5034,0.4966,0.4966,0.4966,0.4966
train,0.48,0.57,0.54,0.51,0.55,0.49,0.49,0.59,0.49,0.45,0.56,0.58,0.49,0.48,0.48,0.49,0.46,0.46,0.54,0.47,0.54,0.48,0.48,0.55,0.47,0.61,0.55,0.51,0.61,0.45,0.57,0.46,0.52,0.49,0.58
time, 36.53296399116516
5, 1, 27
test,0.5034,0.4642,0.4913,0.4976,0.4815,0.514,0.4616,0.471,0.5006,0.517,0.5039,0.424,0.5292,0.4932,0.4689,0.5625,0.4789,0.5079,0.5402,0.5063,0.4977,0.5259,0.5522,0.5401,0.572,0.5444,0.544,0.5486,0.5958,0.5994,0.4726,0.6271,0.606,0.6016,0.527
train,0.4,0.46,0.59,0.46,0.51,0.51,0.37,0.44,0.5,0.59,0.51,0.4,0.49,0.5,0.6,0.6,0.53,0.62,0.54,0.55,0.48,0.54,0.57,0.6,0.5,0.59,0.53,0.53,0.53,0.57,0.49,0.55,0.68,0.54,0.59
time, 28.235124349594116
5, 2, 57
test,0.4966,0.5871,0.5541,0.5221,0.5672,0.604,0.5951,0.5741,0.5944,0.5908,0.6057,0.6087,0.6127,0.607,0.604,0.6144,0.6091,0.6154,0.6171,0.5573,0.6171,0.6504,0.6153,0.6467,0.651,0.6613,0.6814,0.6645,0.6954,0.6901,0.6868,0.6791,0.699,0.6896,0.6947
train,0.48,0.76,0.58,0.56,0.52,0.67,0.63,0.53,0.63,0.55,0.63,0.56,0.62,0.61,0.65,0.59,0.6,0.59,0.54,0.56,0.64,0.65,0.51,0.63,0.66,0.62,0.62,0.67,0.64,0.79,0.69,0.67,0.72,0.66,0.68
time, 29.133591413497925
5, 3, 87
test,0.5034,0.5034,0.5034,0.5064,0.559,0.541,0.5547,0.5667,0.5435,0.5539,0.5618,0.6462,0.6258,0.6508,0.5724,0.5856,0.635,0.6437,0.6934,0.6897,0.6887,0.6713,0.6967,0.6826,0.6828,0.675,0.6729,0.678,0.6765,0.6755,0.6677,0.674,0.679,0.6738,0.6787
train,0.51,0.46,0.58,0.53,0.57,0.58,0.57,0.49,0.47,0.6,0.57,0.59,0.61,0.66,0.53,0.58,0.58,0.75,0.72,0.64,0.81,0.67,0.72,0.65,0.71,0.72,0.67,0.74,0.76,0.71,0.71,0.63,0.68,0.69,0.69
time, 30.229640007019043
5, 4, 117
test,0.4966,0.4966,0.4966,0.4966,0.4966,0.497,0.5326,0.5676,0.5635,0.5344,0.5271,0.5051,0.5803,0.5045,0.5072,0.5882,0.5887,0.5911,0.5983,0.5929,0.6197,0.6543,0.6727,0.6863,0.6988,0.6931,0.6962,0.7063,0.7002,0.7048,0.7053,0.7069,0.7093,0.7093,0.7066
train,0.46,0.44,0.5,0.47,0.56,0.45,0.55,0.55,0.57,0.51,0.5,0.51,0.61,0.55,0.53,0.53,0.63,0.51,0.47,0.6,0.56,0.7,0.74,0.67,0.74,0.75,0.62,0.67,0.61,0.76,0.73,0.65,0.79,0.75,0.71
time, 31.249861001968384
5, 5, 147
test,0.5034,0.5034,0.5034,0.5034,0.5034,0.5034,0.5034,0.5162,0.5333,0.5228,0.5469,0.5699,0.5742,0.5698,0.5736,0.5842,0.5869,0.5625,0.5901,0.5947,0.6008,0.5993,0.6061,0.6057,0.6077,0.6055,0.6074,0.6057,0.6084,0.6095,0.6128,0.6093,0.6066,0.608,0.6124
train,0.39,0.49,0.58,0.52,0.5,0.48,0.46,0.44,0.51,0.57,0.5,0.51,0.51,0.54,0.54,0.63,0.67,0.57,0.65,0.6,0.62,0.54,0.69,0.6,0.64,0.61,0.65,0.52,0.6,0.67,0.59,0.59,0.53,0.62,0.59
time, 32.26903247833252
5, 6, 177
test,0.4966,0.4966,0.4966,0.4966,0.5034,0.4966,0.4966,0.4966,0.4966,0.5034,0.5034,0.5034,0.4966,0.4966,0.5034,0.5034,0.4966,0.5034,0.5034,0.5034,0.4966,0.4966,0.5034,0.4966,0.5034,0.4966,0.5034,0.5034,0.4966,0.5034,0.5034,0.5034,0.5034,0.5034,0.4966
train,0.41,0.48,0.4,0.52,0.53,0.52,0.4,0.43,0.51,0.47,0.56,0.51,0.57,0.52,0.55,0.59,0.47,0.52,0.52,0.48,0.5,0.57,0.53,0.54,0.39,0.49,0.62,0.51,0.43,0.51,0.5,0.47,0.48,0.57,0.52
time, 32.66572284698486
5, 7, 207
test,0.5034,0.5034,0.5034,0.5034,0.5034,0.4966,0.4966,0.5034,0.5034,0.5034,0.4966,0.5326,0.5034,0.4966,0.4617,0.6221,0.547,0.5453,0.5364,0.5812,0.6695,0.6789,0.6901,0.6988,0.6978,0.7021,0.7007,0.6962,0.7015,0.704,0.7026,0.7052,0.7048,0.7047,0.7042
train,0.45,0.5,0.55,0.5,0.48,0.52,0.47,0.52,0.5,0.44,0.53,0.46,0.38,0.54,0.44,0.6,0.54,0.53,0.64,0.56,0.63,0.69,0.68,0.72,0.62,0.78,0.74,0.7,0.57,0.76,0.73,0.68,0.69,0.71,0.8
time, 34.32650971412659
5, 8, 237
test,0.4966,0.4966,0.4966,0.4966,0.4966,0.4966,0.4966,0.4966,0.4966,0.4966,0.4966,0.5034,0.5034,0.5034,0.5034,0.5034,0.5034,0.4966,0.4966,0.4966,0.5034,0.5034,0.4966,0.4966,0.5034,0.5034,0.4966,0.5034,0.5034,0.5034,0.5034,0.5034,0.5034,0.4966,0.5034
train,0.55,0.54,0.46,0.55,0.5,0.53,0.52,0.4,0.53,0.46,0.44,0.55,0.5,0.51,0.44,0.45,0.44,0.56,0.45,0.58,0.45,0.46,0.46,0.47,0.56,0.47,0.44,0.56,0.59,0.6,0.53,0.53,0.45,0.49,0.5
time, 35.06185483932495
5, 9, 267
test,0.5034,0.5034,0.5034,0.5034,0.5034,0.4966,0.5034,0.4966,0.4953,0.6323,0.6435,0.6429,0.647,0.6439,0.6414,0.6393,0.6463,0.6467,0.6581,0.6453,0.652,0.6845,0.6864,0.6849,0.6757,0.6826,0.682,0.676,0.6798,0.6858,0.686,0.6842,0.6855,0.669,0.6783
train,0.53,0.45,0.54,0.52,0.46,0.52,0.5,0.48,0.52,0.65,0.61,0.61,0.68,0.66,0.59,0.7,0.68,0.7,0.59,0.71,0.68,0.69,0.72,0.73,0.54,0.59,0.63,0.73,0.69,0.63,0.69,0.67,0.69,0.68,0.7
time, 35.93784141540527
5, 10, 297
test,0.5034,0.5034,0.5034,0.5034,0.5034,0.5034,0.4966,0.5305,0.5752,0.6714,0.758,0.7626,0.7702,0.7678,0.7615,0.7707,0.7626,0.768,0.7689,0.7706,0.7739,0.7709,0.7738,0.7716,0.7783,0.779,0.7783,0.778,0.7777,0.7786,0.7786,0.8004,0.7758,0.7946,0.802
train,0.5,0.41,0.47,0.54,0.51,0.48,0.51,0.49,0.63,0.74,0.77,0.77,0.77,0.7,0.78,0.76,0.76,0.8,0.8,0.78,0.76,0.81,0.74,0.8,0.79,0.74,0.73,0.75,0.74,0.75,0.81,0.78,0.78,0.78,0.83
time, 36.87085199356079
6, 1, 32
test,0.5232,0.5019,0.4721,0.464,0.4814,0.5132,0.5014,0.5071,0.5577,0.5622,0.543,0.553,0.5753,0.5335,0.5869,0.5901,0.5937,0.5927,0.5692,0.5891,0.6552,0.6468,0.5982,0.6904,0.6807,0.7187,0.6754,0.6087,0.6962,0.7146,0.6265,0.6547,0.6583,0.6997,0.6836
train,0.55,0.52,0.46,0.43,0.53,0.47,0.64,0.48,0.6,0.62,0.5,0.51,0.58,0.58,0.58,0.57,0.61,0.67,0.53,0.6,0.58,0.63,0.57,0.73,0.63,0.71,0.6,0.68,0.69,0.69,0.57,0.62,0.68,0.66,0.72
time, 28.0985107421875
6, 2, 74
test,0.5034,0.5034,0.5034,0.5034,0.5034,0.5034,0.554,0.587,0.6033,0.6051,0.6024,0.5986,0.6037,0.612,0.6135,0.6105,0.5997,0.6166,0.6007,0.6132,0.61,0.6115,0.613,0.6083,0.6181,0.6145,0.614,0.6146,0.6153,0.6241,0.6293,0.6332,0.6376,0.6286,0.6332
train,0.41,0.53,0.47,0.45,0.42,0.5,0.58,0.59,0.58,0.67,0.61,0.59,0.59,0.62,0.53,0.61,0.56,0.61,0.63,0.62,0.63,0.63,0.65,0.62,0.67,0.62,0.61,0.56,0.58,0.66,0.58,0.65,0.66,0.59,0.67
time, 29.297022819519043
6, 3, 116
test,0.5034,0.5034,0.5034,0.5034,0.5034,0.5034,0.5034,0.5776,0.5372,0.5945,0.6005,0.6116,0.6059,0.6405,0.6933,0.7072,0.7238,0.7259,0.7329,0.7283,0.7302,0.7304,0.7358,0.7428,0.735,0.7342,0.7409,0.7551,0.754,0.7534,0.7553,0.7531,0.7545,0.7464,0.7571
train,0.55,0.54,0.48,0.51,0.53,0.51,0.51,0.58,0.58,0.57,0.65,0.62,0.61,0.69,0.64,0.69,0.67,0.75,0.74,0.69,0.72,0.74,0.78,0.74,0.73,0.79,0.76,0.76,0.8,0.84,0.78,0.72,0.71,0.81,0.78
time, 30.17708706855774
6, 4, 158
test,0.4966,0.4966,0.4966,0.5516,0.5812,0.605,0.627,0.6678,0.6755,0.6989,0.7017,0.7078,0.7094,0.7128,0.7377,0.7433,0.759,0.7463,0.7522,0.7578,0.7502,0.7617,0.7649,0.7683,0.7632,0.7609,0.7609,0.7608,0.768,0.7656,0.7712,0.77,0.777,0.7814,0.77
train,0.45,0.5,0.52,0.49,0.63,0.76,0.57,0.67,0.68,0.61,0.77,0.69,0.68,0.68,0.77,0.74,0.73,0.66,0.67,0.84,0.79,0.81,0.74,0.73,0.79,0.82,0.72,0.72,0.68,0.74,0.75,0.75,0.69,0.8,0.76
time, 31.416451692581177
6, 5, 200
test,0.4966,0.4966,0.4966,0.5034,0.536,0.5743,0.5226,0.5359,0.5673,0.6145,0.6241,0.6252,0.6237,0.7353,0.7602,0.7537,0.7572,0.7755,0.7802,0.7836,0.7785,0.7812,0.7828,0.7894,0.7902,0.7895,0.7942,0.7916,0.795,0.8172,0.8145,0.7959,0.797,0.7927,0.821
train,0.55,0.51,0.54,0.46,0.56,0.6,0.49,0.53,0.53,0.59,0.71,0.69,0.6,0.74,0.77,0.83,0.77,0.8,0.72,0.77,0.75,0.75,0.75,0.76,0.79,0.82,0.83,0.86,0.85,0.8,0.79,0.75,0.8,0.8,0.81
time, 32.11422777175903
6, 6, 242
test,0.5034,0.5034,0.5034,0.5034,0.5034,0.5434,0.5301,0.5695,0.6228,0.6874,0.6804,0.6875,0.6697,0.6494,0.6902,0.6822,0.6854,0.6865,0.6879,0.6791,0.6723,0.6647,0.685,0.6811,0.6856,0.6923,0.6895,0.6912,0.6905,0.6878,0.6931,0.6965,0.6974,0.7026,0.7009
train,0.46,0.5,0.46,0.5,0.49,0.58,0.56,0.55,0.61,0.62,0.75,0.64,0.64,0.62,0.72,0.61,0.69,0.72,0.7,0.7,0.72,0.7,0.74,0.74,0.7,0.62,0.75,0.75,0.72,0.71,0.67,0.69,0.72,0.74,0.63
time, 33.236238956451416
6, 7, 284
test,0.5034,0.4966,0.4966,0.4966,0.4966,0.4966,0.4966,0.4966,0.4966,0.5034,0.5034,0.5034,0.5034,0.5034,0.5034,0.5034,0.5034,0.4966,0.4966,0.4966,0.4966,0.4966,0.4966,0.4966,0.4966,0.4966,0.5034,0.5034,0.5034,0.4966,0.4966,0.4966,0.5034,0.5034,0.5034
train,0.55,0.43,0.42,0.52,0.54,0.46,0.51,0.55,0.49,0.58,0.6,0.47,0.51,0.57,0.49,0.57,0.51,0.53,0.44,0.51,0.55,0.53,0.44,0.44,0.43,0.55,0.55,0.48,0.43,0.61,0.46,0.55,0.48,0.58,0.47
time, 34.34090805053711
6, 8, 326
test,0.5034,0.5034,0.5034,0.4966,0.517,0.6338,0.7366,0.7828,0.7963,0.8706,0.8776,0.8814,0.9135,0.9456,0.9217,0.9514,0.948,0.9491,0.9519,0.9535,0.953,0.953,0.9551,0.9571,0.947,0.9565,0.9577,0.9538,0.936,0.9585,0.9584,0.9595,0.9602,0.9476,0.9551
train,0.49,0.5,0.53,0.56,0.46,0.59,0.72,0.78,0.83,0.85,0.87,0.89,0.84,0.87,0.88,0.95,0.94,0.91,0.94,0.97,0.92,0.97,0.99,0.98,0.96,0.98,0.94,0.96,0.91,0.97,0.95,0.98,0.93,0.91,0.97
time, 35.0168731212616
6, 9, 368
test,0.4966,0.4966,0.4966,0.4966,0.5034,0.5034,0.4966,0.4966,0.5034,0.5034,0.5034,0.5034,0.5034,0.5034,0.4966,0.4966,0.4966,0.4966,0.4966,0.4966,0.5034,0.4966,0.4966,0.4966,0.5034,0.4966,0.4966,0.4966,0.4966,0.4966,0.4966,0.5034,0.4966,0.5034,0.4966
train,0.46,0.54,0.51,0.48,0.56,0.46,0.51,0.49,0.56,0.46,0.59,0.55,0.49,0.43,0.38,0.57,0.56,0.56,0.57,0.48,0.57,0.55,0.48,0.4,0.46,0.56,0.44,0.62,0.55,0.52,0.54,0.48,0.53,0.54,0.49
time, 35.95910882949829
6, 10, 410
test,0.4966,0.5034,0.4966,0.5034,0.4966,0.4966,0.5034,0.5034,0.5034,0.5034,0.5034,0.5034,0.5034,0.5034,0.5034,0.5034,0.5034,0.5034,0.5034,0.4966,0.5034,0.5034,0.4966,0.4966,0.4966,0.4966,0.5034,0.4966,0.4966,0.4966,0.4966,0.4966,0.5034,0.5034,0.4966
train,0.48,0.47,0.5,0.44,0.52,0.52,0.57,0.52,0.49,0.45,0.46,0.49,0.48,0.46,0.49,0.5,0.5,0.48,0.38,0.48,0.44,0.53,0.55,0.43,0.52,0.48,0.46,0.42,0.53,0.52,0.48,0.53,0.45,0.49,0.52
time, 36.97813963890076
7, 1, 37
test,0.5556,0.5907,0.5406,0.5897,0.6386,0.6372,0.5854,0.578,0.5775,0.5882,0.5923,0.595,0.6199,0.5931,0.5985,0.6037,0.6001,0.6091,0.6034,0.6049,0.603,0.604,0.6034,0.5898,0.5943,0.5982,0.6055,0.6043,0.5995,0.5924,0.6004,0.5944,0.6084,0.6083,0.6091
train,0.56,0.58,0.59,0.54,0.74,0.66,0.53,0.58,0.53,0.61,0.56,0.6,0.64,0.52,0.52,0.6,0.6,0.55,0.59,0.6,0.6,0.6,0.61,0.63,0.75,0.63,0.67,0.53,0.57,0.59,0.61,0.57,0.68,0.64,0.6
time, 28.254904747009277
7, 2, 93
test,0.4966,0.4966,0.4615,0.5865,0.5449,0.5414,0.598,0.5958,0.5452,0.5784,0.5641,0.5826,0.5583,0.5821,0.5576,0.5617,0.5587,0.5891,0.5692,0.5832,0.592,0.5841,0.6058,0.614,0.6143,0.6204,0.6144,0.6097,0.6244,0.6018,0.6095,0.6177,0.6238,0.6203,0.6238
train,0.57,0.51,0.45,0.62,0.57,0.58,0.55,0.67,0.54,0.55,0.52,0.58,0.54,0.62,0.52,0.65,0.58,0.57,0.49,0.63,0.5,0.64,0.58,0.58,0.48,0.64,0.57,0.62,0.64,0.57,0.7,0.67,0.69,0.55,0.72
time, 29.1799259185791
7, 3, 149
test,0.5034,0.5114,0.5595,0.5798,0.5781,0.6604,0.6462,0.6484,0.6314,0.6814,0.7005,0.725,0.7349,0.7447,0.7517,0.7497,0.7501,0.7606,0.7672,0.7994,0.7949,0.8287,0.8404,0.8393,0.8401,0.839,0.8491,0.8363,0.8483,0.853,0.8515,0.8541,0.8592,0.863,0.8639
train,0.56,0.46,0.54,0.51,0.55,0.7,0.66,0.58,0.66,0.59,0.7,0.76,0.81,0.77,0.69,0.8,0.72,0.75,0.78,0.71,0.84,0.83,0.8,0.83,0.84,0.83,0.86,0.83,0.92,0.86,0.91,0.87,0.91,0.84,0.86
time, 29.79146146774292
7, 4, 205
test,0.4966,0.4966,0.5543,0.5729,0.5877,0.6044,0.6113,0.6507,0.6734,0.6684,0.6668,0.679,0.6745,0.6938,0.6896,0.7033,0.7302,0.7727,0.7809,0.8056,0.8081,0.8178,0.8276,0.8376,0.8365,0.8424,0.8509,0.8528,0.8598,0.8732,0.8731,0.8766,0.876,0.8785,0.8879
train,0.43,0.52,0.6,0.56,0.64,0.66,0.62,0.68,0.69,0.66,0.67,0.73,0.77,0.71,0.67,0.7,0.83,0.8,0.81,0.8,0.83,0.84,0.88,0.86,0.84,0.91,0.83,0.92,0.9,0.83,0.88,0.9,0.91,0.89,0.95
time, 31.37023115158081
7, 5, 261
test,0.4966,0.4966,0.4966,0.4894,0.5904,0.621,0.6241,0.6176,0.6454,0.7151,0.7384,0.7223,0.7638,0.7776,0.7925,0.7837,0.8053,0.8161,0.8191,0.8193,0.8201,0.8218,0.8151,0.8252,0.826,0.8259,0.8182,0.849,0.866,0.8708,0.8722,0.8725,0.8721,0.8748,0.8735
train,0.46,0.4,0.54,0.47,0.64,0.57,0.68,0.56,0.69,0.72,0.66,0.67,0.74,0.76,0.79,0.81,0.85,0.77,0.81,0.81,0.86,0.82,0.81,0.84,0.84,0.84,0.77,0.79,0.88,0.86,0.87,0.87,0.86,0.91,0.89
time, 32.42904782295227
7, 6, 317
test,0.4966,0.4966,0.4966,0.5034,0.5034,0.5034,0.7016,0.7087,0.7902,0.8126,0.8406,0.8485,0.8494,0.8531,0.8525,0.8563,0.8552,0.8555,0.8535,0.8584,0.8568,0.8584,0.8565,0.8575,0.8575,0.8589,0.8609,0.8595,0.8551,0.8614,0.8537,0.8604,0.8591,0.8569,0.8633
train,0.54,0.46,0.49,0.46,0.43,0.5,0.63,0.72,0.77,0.88,0.82,0.83,0.89,0.88,0.88,0.87,0.93,0.89,0.83,0.89,0.9,0.87,0.93,0.84,0.83,0.91,0.93,0.87,0.85,0.85,0.83,0.84,0.82,0.81,0.87
time, 32.89430475234985
7, 7, 373
test,0.4966,0.4966,0.4966,0.5034,0.5034,0.5415,0.5422,0.6766,0.6902,0.7817,0.7773,0.8329,0.8224,0.8593,0.8548,0.8725,0.8686,0.8781,0.8842,0.8909,0.8914,0.8938,0.8936,0.8981,0.8947,0.9002,0.8923,0.8976,0.897,0.9021,0.9006,0.8996,0.9053,0.9049,0.9039
train,0.54,0.56,0.46,0.47,0.54,0.54,0.67,0.75,0.8,0.84,0.81,0.79,0.84,0.83,0.85,0.85,0.9,0.86,0.88,0.86,0.94,0.85,0.84,0.91,0.94,0.88,0.91,0.89,0.97,0.9,0.87,0.87,0.87,0.9,0.93
time, 34.20347476005554
7, 8, 429
test,0.5034,0.5034,0.5034,0.5034,0.5034,0.6724,0.7466,0.8144,0.831,0.8402,0.8376,0.8407,0.8463,0.8461,0.8363,0.8398,0.8472,0.8432,0.8473,0.8446,0.8471,0.8434,0.8443,0.8492,0.8489,0.8518,0.8492,0.8459,0.8492,0.8417,0.8381,0.862,0.8537,0.862,0.8583
train,0.52,0.4,0.46,0.46,0.51,0.69,0.73,0.82,0.84,0.8,0.76,0.9,0.9,0.86,0.86,0.87,0.88,0.79,0.91,0.9,0.81,0.79,0.92,0.92,0.84,0.8,0.89,0.84,0.86,0.81,0.8,0.88,0.87,0.88,0.83
time, 34.64431881904602
7, 9, 485
test,0.4966,0.4966,0.4966,0.5034,0.5034,0.4966,0.4966,0.5034,0.5034,0.4966,0.5041,0.6068,0.6775,0.6888,0.6914,0.6986,0.7004,0.7038,0.7008,0.7107,0.72,0.7209,0.8109,0.7671,0.8271,0.8538,0.7769,0.854,0.8399,0.8407,0.8658,0.8599,0.8608,0.8536,0.8678
train,0.53,0.49,0.43,0.6,0.45,0.47,0.45,0.54,0.46,0.56,0.56,0.62,0.7,0.67,0.61,0.76,0.66,0.7,0.73,0.69,0.67,0.68,0.83,0.79,0.84,0.85,0.77,0.82,0.74,0.87,0.83,0.89,0.93,0.83,0.86
time, 36.27789759635925
7, 10, 541
test,0.4966,0.4966,0.4966,0.4966,0.5034,0.5034,0.5034,0.5034,0.5034,0.4966,0.5034,0.5034,0.6811,0.7318,0.731,0.7315,0.7334,0.7554,0.7526,0.7531,0.7531,0.7553,0.7544,0.7538,0.7522,0.7556,0.7536,0.7512,0.7545,0.755,0.7553,0.7577,0.7569,0.7565,0.7558
train,0.55,0.54,0.47,0.46,0.5,0.42,0.53,0.5,0.47,0.51,0.56,0.49,0.72,0.71,0.64,0.71,0.71,0.75,0.73,0.68,0.79,0.71,0.78,0.73,0.71,0.76,0.75,0.74,0.73,0.75,0.75,0.79,0.73,0.76,0.78
time, 37.38736438751221
8, 1, 42
test,0.5034,0.4786,0.4838,0.5069,0.5387,0.5324,0.478,0.526,0.4803,0.4574,0.4482,0.5349,0.4437,0.5084,0.5354,0.5501,0.5784,0.5875,0.6592,0.6062,0.5859,0.597,0.5914,0.6335,0.6684,0.6868,0.6636,0.599,0.6616,0.7054,0.6659,0.6675,0.6271,0.6435,0.6466
train,0.54,0.49,0.5,0.45,0.56,0.54,0.53,0.54,0.52,0.5,0.5,0.6,0.46,0.57,0.53,0.57,0.58,0.61,0.65,0.65,0.53,0.54,0.57,0.7,0.67,0.73,0.67,0.68,0.67,0.65,0.67,0.57,0.68,0.63,0.62
time, 28.225160837173462
8, 2, 114
test,0.5034,0.5034,0.5286,0.5182,0.5195,0.5355,0.518,0.5188,0.588,0.5864,0.6211,0.6489,0.6313,0.6309,0.6314,0.6461,0.6465,0.6472,0.6493,0.6467,0.6506,0.6478,0.651,0.6485,0.6449,0.6482,0.6594,0.6706,0.6711,0.6911,0.6787,0.7117,0.6963,0.7029,0.7058
train,0.61,0.44,0.57,0.5,0.56,0.53,0.55,0.59,0.62,0.67,0.69,0.77,0.58,0.64,0.66,0.7,0.68,0.63,0.73,0.63,0.64,0.53,0.66,0.67,0.61,0.74,0.72,0.68,0.69,0.66,0.73,0.71,0.67,0.71,0.71
time, 29.3484525680542
8, 3, 186
test,0.5034,0.5034,0.5034,0.6018,0.6651,0.6966,0.6882,0.7043,0.7065,0.7055,0.7208,0.7326,0.7361,0.741,0.76,0.7705,0.7729,0.7806,0.7959,0.8107,0.8173,0.8226,0.8298,0.8302,0.8398,0.8416,0.8427,0.8469,0.8449,0.8507,0.855,0.8553,0.8571,0.8738,0.8813
train,0.53,0.51,0.59,0.61,0.67,0.67,0.68,0.72,0.71,0.74,0.71,0.74,0.76,0.78,0.79,0.71,0.8,0.75,0.75,0.81,0.84,0.83,0.85,0.84,0.89,0.78,0.89,0.75,0.82,0.89,0.87,0.89,0.83,0.87,0.91
time, 30.638925790786743
8, 4, 258
test,0.5034,0.5034,0.5249,0.5135,0.5953,0.6278,0.5803,0.631,0.6658,0.7077,0.6673,0.684,0.7683,0.765,0.7871,0.782,0.7736,0.7892,0.7843,0.7952,0.8131,0.8258,0.8458,0.8733,0.878,0.887,0.896,0.9184,0.9165,0.9407,0.9434,0.9054,0.9464,0.9407,0.9426
train,0.5,0.56,0.51,0.47,0.59,0.6,0.53,0.6,0.76,0.72,0.71,0.67,0.75,0.78,0.81,0.74,0.74,0.81,0.79,0.73,0.83,0.82,0.83,0.85,0.87,0.88,0.92,0.92,0.89,0.92,0.92,0.91,0.95,0.98,0.94
time, 31.922763109207153
8, 5, 330
test,0.5034,0.5034,0.5912,0.4966,0.6516,0.6884,0.7634,0.7706,0.8202,0.8285,0.8314,0.8367,0.8488,0.8653,0.8717,0.8745,0.8799,0.8846,0.8998,0.8994,0.9021,0.9053,0.9066,0.9054,0.9076,0.9113,0.9148,0.9226,0.921,0.9269,0.93,0.9274,0.9283,0.9292,0.9358
train,0.51,0.54,0.56,0.56,0.71,0.67,0.75,0.78,0.89,0.82,0.8,0.83,0.87,0.81,0.87,0.8,0.86,0.91,0.9,0.92,0.92,0.92,0.88,0.87,0.9,0.91,0.92,0.91,0.91,0.94,0.93,0.9,0.95,0.93,0.92
time, 32.79491639137268
8, 6, 402
test,0.4966,0.4966,0.5034,0.5034,0.5327,0.5275,0.5343,0.5464,0.6423,0.6258,0.6263,0.6397,0.7047,0.7154,0.7656,0.779,0.7819,0.7924,0.7881,0.8124,0.8239,0.839,0.8551,0.8507,0.8708,0.9018,0.9122,0.9095,0.9188,0.9265,0.9292,0.9271,0.9331,0.9364,0.9342
train,0.51,0.51,0.52,0.54,0.42,0.47,0.6,0.58,0.64,0.62,0.65,0.58,0.73,0.73,0.72,0.8,0.77,0.81,0.77,0.76,0.8,0.73,0.87,0.87,0.84,0.87,0.94,0.92,0.94,0.94,0.91,0.91,0.92,0.93,0.95
time, 33.821109771728516
8, 7, 474
test,0.5034,0.5034,0.5034,0.5034,0.5149,0.4966,0.5865,0.6933,0.7588,0.7649,0.7705,0.7723,0.77,0.768,0.7728,0.776,0.7775,0.7808,0.7838,0.7834,0.7917,0.7906,0.794,0.7959,0.8023,0.8035,0.8033,0.7353,0.8024,0.8081,0.8119,0.8129,0.8121,0.8103,0.8128
train,0.54,0.62,0.45,0.51,0.55,0.52,0.66,0.69,0.71,0.76,0.81,0.8,0.79,0.82,0.83,0.76,0.8,0.79,0.78,0.83,0.74,0.8,0.79,0.74,0.83,0.8,0.84,0.79,0.85,0.77,0.87,0.81,0.81,0.83,0.86
time, 34.09998321533203
8, 8, 546
test,0.5034,0.5034,0.5034,0.5034,0.6561,0.7114,0.7156,0.7451,0.7262,0.6929,0.7049,0.7555,0.7023,0.7186,0.7723,0.735,0.7407,0.7458,0.7554,0.8198,0.8167,0.8307,0.7713,0.7815,0.8066,0.8299,0.8114,0.8429,0.8455,0.8513,0.7713,0.8407,0.851,0.8593,0.8586
train,0.52,0.63,0.53,0.5,0.67,0.67,0.71,0.78,0.66,0.68,0.67,0.74,0.63,0.65,0.73,0.74,0.73,0.73,0.72,0.84,0.83,0.9,0.82,0.83,0.8,0.77,0.85,0.84,0.81,0.82,0.83,0.82,0.84,0.84,0.82
time, 35.47633671760559
8, 9, 618
test,0.4966,0.4966,0.5034,0.4966,0.4966,0.4966,0.4966,0.7093,0.7608,0.7908,0.7995,0.8004,0.7961,0.8047,0.8131,0.8081,0.8195,0.8149,0.8179,0.8205,0.8201,0.8208,0.7936,0.814,0.8241,0.8152,0.8268,0.815,0.8265,0.8297,0.8288,0.8313,0.8307,0.833,0.8284
train,0.54,0.51,0.53,0.58,0.57,0.47,0.51,0.75,0.73,0.82,0.75,0.72,0.83,0.8,0.83,0.78,0.8,0.79,0.88,0.85,0.76,0.8,0.87,0.77,0.78,0.82,0.81,0.83,0.85,0.86,0.76,0.84,0.88,0.82,0.82
time, 36.7592499256134
8, 10, 690
test,0.5034,0.4966,0.5034,0.4966,0.4966,0.5034,0.4966,0.5034,0.4966,0.4966,0.7038,0.76,0.7724,0.7832,0.7612,0.7879,0.8181,0.8069,0.8168,0.8094,0.8032,0.8207,0.8233,0.818,0.8224,0.819,0.8171,0.8208,0.8211,0.819,0.8223,0.8238,0.8246,0.8267,0.8221
train,0.52,0.54,0.57,0.45,0.55,0.43,0.53,0.53,0.46,0.53,0.72,0.72,0.75,0.77,0.76,0.75,0.82,0.78,0.83,0.83,0.87,0.84,0.75,0.82,0.85,0.82,0.79,0.81,0.89,0.83,0.78,0.87,0.77,0.81,0.87
time, 38.02939486503601
9, 1, 47
test,0.4609,0.5461,0.5158,0.53,0.5277,0.5844,0.5589,0.554,0.55,0.5298,0.5306,0.4997,0.4947,0.4982,0.5005,0.4947,0.4947,0.4947,0.4947,0.4947,0.4947,0.4947,0.4947,0.4947,0.4947,0.4947,0.4947,0.4947,0.5025,0.4947,0.4947,0.4947,0.4947,0.4947,0.4947
train,0.53,0.53,0.58,0.5,0.59,0.59,0.6,0.57,0.64,0.58,0.6,0.52,0.52,0.57,0.5,0.47,0.49,0.51,0.49,0.43,0.46,0.55,0.59,0.55,0.48,0.58,0.45,0.5,0.55,0.49,0.5,0.46,0.56,0.42,0.46
time, 28.257220029830933
9, 2, 137
test,0.5034,0.5376,0.5334,0.5783,0.5004,0.583,0.6086,0.6148,0.6275,0.6503,0.6394,0.6435,0.6506,0.6429,0.6489,0.6512,0.6527,0.6534,0.6558,0.6549,0.6551,0.656,0.6576,0.6682,0.6571,0.6652,0.6582,0.6603,0.6602,0.673,0.6756,0.6698,0.6806,0.6848,0.6842
train,0.44,0.57,0.6,0.62,0.53,0.62,0.6,0.63,0.63,0.72,0.61,0.6,0.6,0.61,0.52,0.66,0.72,0.68,0.69,0.62,0.7,0.62,0.68,0.69,0.65,0.63,0.75,0.57,0.6,0.66,0.68,0.75,0.65,0.7,0.66
time, 29.27115750312805
9, 3, 227
test,0.5034,0.5156,0.4902,0.5372,0.6626,0.6415,0.6234,0.6481,0.6846,0.6983,0.7034,0.6897,0.7027,0.7066,0.7152,0.7172,0.7189,0.7266,0.7435,0.7331,0.7455,0.7548,0.745,0.7374,0.7535,0.7589,0.7439,0.7519,0.7612,0.7699,0.7555,0.7552,0.752,0.7657,0.7664
train,0.58,0.51,0.43,0.5,0.74,0.7,0.62,0.62,0.67,0.7,0.75,0.62,0.77,0.67,0.68,0.75,0.74,0.75,0.75,0.77,0.74,0.7,0.66,0.76,0.75,0.84,0.73,0.82,0.72,0.73,0.79,0.72,0.72,0.77,0.79
time, 30.682687997817993
9, 4, 317
test,0.4966,0.4966,0.4966,0.5914,0.5199,0.6454,0.6795,0.6546,0.6913,0.7259,0.681,0.712,0.6471,0.7092,0.7308,0.7393,0.7432,0.7499,0.754,0.7596,0.764,0.7421,0.7425,0.7492,0.7737,0.7887,0.7784,0.7869,0.7998,0.7748,0.7735,0.7623,0.7696,0.7931,0.8063
train,0.44,0.49,0.39,0.62,0.56,0.7,0.7,0.68,0.77,0.83,0.66,0.72,0.67,0.72,0.69,0.76,0.77,0.76,0.73,0.77,0.79,0.79,0.78,0.79,0.8,0.83,0.8,0.78,0.86,0.8,0.75,0.73,0.73,0.84,0.77
time, 31.81901526451111
9, 5, 407
test,0.5034,0.5034,0.5034,0.509,0.6154,0.6743,0.7401,0.78,0.7924,0.8122,0.8513,0.8709,0.87,0.884,0.8927,0.9016,0.9032,0.9117,0.9243,0.927,0.9299,0.9311,0.9395,0.9356,0.9455,0.9425,0.9498,0.9531,0.9452,0.957,0.9549,0.9511,0.9557,0.9537,0.9562
train,0.45,0.47,0.54,0.54,0.67,0.71,0.78,0.75,0.81,0.82,0.87,0.84,0.88,0.88,0.87,0.88,0.9,0.92,0.95,0.95,0.89,0.96,0.92,0.93,0.93,0.97,0.93,0.98,0.93,0.99,0.92,0.95,0.98,0.96,0.95
time, 33.01931309700012
9, 6, 497
test,0.5034,0.5034,0.5034,0.5714,0.5734,0.7197,0.7771,0.7907,0.8053,0.8221,0.8346,0.8434,0.8408,0.8525,0.8488,0.853,0.8583,0.8607,0.8555,0.8621,0.8584,0.8621,0.8616,0.8876,0.9091,0.9096,0.9135,0.9174,0.9151,0.9172,0.9211,0.9226,0.9237,0.9219,0.9259
train,0.49,0.56,0.62,0.46,0.57,0.67,0.8,0.9,0.79,0.85,0.82,0.89,0.81,0.88,0.84,0.83,0.89,0.83,0.85,0.95,0.88,0.87,0.89,0.9,0.91,0.91,0.96,0.9,0.97,0.94,0.9,0.92,0.88,0.91,0.92
time, 34.254157304763794
9, 7, 587
test,0.4966,0.4966,0.5034,0.5034,0.6266,0.7441,0.7718,0.8132,0.8231,0.8224,0.8238,0.8329,0.8307,0.8333,0.8369,0.8397,0.8425,0.8494,0.8532,0.8536,0.8504,0.8573,0.8514,0.856,0.861,0.8621,0.8636,0.8665,0.8672,0.8914,0.8939,0.9015,0.8967,0.8963,0.9018
train,0.46,0.55,0.59,0.5,0.69,0.69,0.78,0.81,0.84,0.78,0.78,0.86,0.73,0.82,0.8,0.83,0.82,0.85,0.84,0.85,0.84,0.86,0.79,0.84,0.85,0.85,0.93,0.91,0.86,0.89,0.89,0.95,0.89,0.86,0.91
time, 35.030494928359985
9, 8, 677
test,0.4966,0.4966,0.4966,0.4966,0.4966,0.4966,0.4966,0.4966,0.4966,0.4966,0.4966,0.4966,0.5034,0.5034,0.5034,0.5034,0.4966,0.5034,0.5034,0.5034,0.4966,0.4966,0.4966,0.4966,0.5034,0.5034,0.4966,0.4966,0.4966,0.4966,0.5034,0.5034,0.5034,0.4966,0.5034
train,0.48,0.5,0.46,0.38,0.6,0.59,0.49,0.46,0.59,0.43,0.57,0.57,0.49,0.45,0.55,0.6,0.54,0.52,0.54,0.54,0.48,0.64,0.54,0.53,0.56,0.48,0.42,0.56,0.59,0.43,0.47,0.47,0.51,0.55,0.48
time, 35.886070728302
9, 9, 767
test,0.4966,0.5034,0.5034,0.5034,0.5034,0.5101,0.732,0.7831,0.8364,0.8476,0.8603,0.8549,0.8712,0.8724,0.8797,0.8816,0.8992,0.918,0.9516,0.9453,0.9613,0.9545,0.9627,0.9527,0.958,0.9646,0.9623,0.9681,0.9652,0.9738,0.9719,0.9706,0.9749,0.9758,0.9799
train,0.43,0.53,0.56,0.52,0.49,0.6,0.74,0.77,0.89,0.87,0.87,0.79,0.86,0.84,0.85,0.84,0.9,0.93,0.95,0.95,0.94,0.97,0.93,0.91,0.97,0.96,0.93,0.98,0.98,0.98,0.98,0.95,1.0,0.95,0.98
time, 37.095704317092896
9, 10, 857
test,0.5034,0.4966,0.5034,0.4966,0.4966,0.4966,0.5612,0.6042,0.6557,0.6514,0.6585,0.672,0.6765,0.6733,0.6769,0.679,0.6746,0.6789,0.6823,0.6889,0.6885,0.6829,0.6907,0.6876,0.6914,0.6869,0.6864,0.6873,0.6877,0.6884,0.6999,0.6996,0.7056,0.7078,0.7105
train,0.49,0.5,0.53,0.45,0.4,0.51,0.5,0.62,0.7,0.63,0.6,0.62,0.68,0.67,0.63,0.65,0.64,0.75,0.71,0.69,0.61,0.66,0.72,0.62,0.58,0.77,0.68,0.63,0.66,0.79,0.66,0.66,0.7,0.75,0.67
time, 38.53643846511841
10, 1, 52
test,0.4894,0.4685,0.5555,0.5284,0.5836,0.497,0.4938,0.5777,0.5338,0.5672,0.5878,0.5865,0.6062,0.5306,0.6043,0.6034,0.5949,0.5615,0.5797,0.6101,0.5753,0.5852,0.6415,0.6491,0.641,0.6104,0.6419,0.6418,0.6103,0.6096,0.6093,0.62,0.614,0.605,0.6082
train,0.58,0.41,0.58,0.54,0.64,0.5,0.47,0.58,0.49,0.55,0.58,0.57,0.58,0.53,0.61,0.56,0.62,0.57,0.56,0.61,0.57,0.49,0.66,0.61,0.56,0.6,0.66,0.61,0.63,0.66,0.58,0.65,0.68,0.62,0.53
time, 28.318124771118164
10, 2, 162
test,0.5034,0.5034,0.5231,0.5357,0.6234,0.5939,0.6817,0.7047,0.691,0.6992,0.6837,0.6796,0.6894,0.6895,0.6913,0.6916,0.6993,0.7002,0.7126,0.7267,0.7324,0.7378,0.7448,0.761,0.7509,0.7654,0.7634,0.767,0.7747,0.7697,0.7742,0.7708,0.7704,0.7785,0.7758
train,0.51,0.52,0.55,0.58,0.52,0.65,0.61,0.74,0.66,0.65,0.77,0.73,0.69,0.61,0.65,0.66,0.66,0.63,0.71,0.68,0.69,0.75,0.79,0.74,0.8,0.78,0.83,0.74,0.8,0.81,0.77,0.78,0.77,0.72,0.79
time, 29.320879697799683
10, 3, 272
test,0.5034,0.5034,0.5034,0.5675,0.7031,0.6893,0.6995,0.6477,0.637,0.6608,0.6643,0.6798,0.6819,0.7048,0.6924,0.7033,0.681,0.7085,0.7533,0.7655,0.7766,0.7931,0.8027,0.7926,0.8104,0.8117,0.8101,0.8091,0.8174,0.8201,0.8248,0.8248,0.8269,0.8312,0.8367
train,0.45,0.47,0.54,0.55,0.75,0.68,0.75,0.67,0.75,0.69,0.7,0.67,0.7,0.66,0.7,0.67,0.64,0.71,0.76,0.79,0.74,0.83,0.81,0.86,0.8,0.82,0.78,0.83,0.81,0.84,0.75,0.8,0.8,0.77,0.82
time, 30.81180238723755
10, 4, 382
test,0.5034,0.5034,0.5034,0.5219,0.6096,0.6092,0.6281,0.6514,0.6591,0.7253,0.7349,0.7429,0.7476,0.7551,0.7337,0.7629,0.7833,0.7737,0.795,0.7778,0.804,0.8091,0.8094,0.8111,0.8104,0.8112,0.8109,0.8146,0.8138,0.813,0.8123,0.8161,0.8148,0.8182,0.8177
train,0.43,0.51,0.52,0.55,0.64,0.5,0.65,0.69,0.64,0.71,0.75,0.69,0.76,0.69,0.78,0.77,0.77,0.7,0.71,0.76,0.83,0.81,0.71,0.74,0.77,0.85,0.77,0.89,0.85,0.87,0.8,0.77,0.8,0.8,0.85
time, 32.155173540115356
10, 5, 492
test,0.5034,0.4966,0.5337,0.5796,0.6464,0.6762,0.7528,0.797,0.8228,0.8445,0.8493,0.8594,0.8681,0.8726,0.8821,0.9093,0.914,0.924,0.9253,0.9232,0.9225,0.9298,0.9262,0.9329,0.9367,0.9319,0.9294,0.9372,0.9376,0.9366,0.9415,0.9437,0.945,0.9474,0.9465
train,0.44,0.5,0.63,0.61,0.63,0.65,0.75,0.78,0.84,0.84,0.84,0.81,0.9,0.94,0.92,0.92,0.97,0.91,0.92,0.91,0.94,0.9,0.86,0.95,0.94,0.93,0.94,0.96,0.94,0.96,0.95,0.92,0.93,0.96,0.96
time, 33.282506465911865
10, 6, 602
test,0.5034,0.5034,0.5034,0.5472,0.61,0.6935,0.715,0.8097,0.8145,0.8258,0.8317,0.8306,0.8346,0.8368,0.8622,0.8647,0.8603,0.8732,0.8872,0.885,0.9127,0.9163,0.9166,0.9301,0.9278,0.9413,0.9486,0.9423,0.9493,0.9421,0.96,0.9591,0.9613,0.9621,0.9816
train,0.52,0.42,0.45,0.62,0.64,0.7,0.68,0.81,0.78,0.92,0.81,0.79,0.88,0.87,0.8,0.84,0.86,0.86,0.9,0.85,0.88,0.91,0.94,0.94,0.96,0.95,0.96,0.95,0.97,0.93,0.94,0.95,0.94,0.94,0.98
time, 34.31739258766174
10, 7, 712
test,0.5034,0.4966,0.5034,0.561,0.4966,0.6105,0.6123,0.6227,0.6627,0.6788,0.7362,0.7503,0.8022,0.8334,0.8446,0.8427,0.8512,0.8512,0.8616,0.8707,0.8847,0.8851,0.8896,0.906,0.9174,0.9122,0.921,0.9172,0.9307,0.936,0.9391,0.9391,0.9443,0.943,0.9479
train,0.38,0.51,0.49,0.67,0.4,0.65,0.72,0.64,0.64,0.7,0.68,0.8,0.78,0.77,0.83,0.84,0.83,0.85,0.81,0.91,0.89,0.86,0.92,0.89,0.86,0.92,0.97,0.87,0.91,0.9,0.92,0.93,0.91,0.95,0.95
time, 35.20696544647217
10, 8, 822
test,0.5034,0.5034,0.4966,0.4966,0.5034,0.5147,0.4966,0.6649,0.7182,0.8673,0.8726,0.8653,0.8959,0.9024,0.9115,0.9145,0.8961,0.9169,0.9143,0.9222,0.9233,0.9223,0.9392,0.9422,0.9335,0.9545,0.9554,0.963,0.9622,0.9691,0.9644,0.9702,0.9738,0.9773,0.9792
train,0.5,0.46,0.57,0.36,0.45,0.53,0.45,0.66,0.72,0.81,0.92,0.81,0.87,0.88,0.86,0.93,0.88,0.96,0.92,0.89,0.89,0.93,0.94,0.91,0.91,1.0,0.94,0.98,0.94,0.93,0.94,0.97,0.97,0.98,0.99
time, 36.400869607925415
10, 9, 932
test,0.5034,0.5034,0.5034,0.4966,0.5593,0.604,0.6673,0.6823,0.7337,0.7839,0.8025,0.808,0.8175,0.8219,0.8274,0.8337,0.8255,0.8447,0.8512,0.8553,0.8699,0.8684,0.8736,0.8776,0.8768,0.8799,0.879,0.9423,0.9398,0.9457,0.9463,0.944,0.9424,0.944,0.9497
train,0.43,0.46,0.5,0.48,0.53,0.63,0.67,0.68,0.7,0.78,0.87,0.81,0.87,0.84,0.86,0.83,0.85,0.84,0.85,0.93,0.93,0.83,0.85,0.89,0.94,0.88,0.9,0.92,0.97,0.95,0.96,0.94,0.94,0.99,0.97
time, 37.41635227203369
10, 10, 1042
test,0.5034,0.4966,0.4966,0.5034,0.4966,0.4966,0.4966,0.4966,0.4966,0.4966,0.4966,0.5034,0.5034,0.4966,0.5034,0.5034,0.5034,0.4966,0.5034,0.5034,0.5034,0.5034,0.5034,0.5034,0.5034,0.4966,0.5034,0.5034,0.5034,0.5034,0.4966,0.4966,0.5034,0.5034,0.5034
train,0.48,0.42,0.53,0.48,0.5,0.58,0.55,0.45,0.46,0.53,0.48,0.47,0.48,0.54,0.42,0.49,0.48,0.43,0.59,0.52,0.51,0.54,0.53,0.5,0.46,0.33,0.42,0.53,0.46,0.45,0.58,0.56,0.52,0.57,0.48
time, 38.69652247428894
