1, 1, 7
test,0.5034,0.5034,0.5034,0.5034,0.5034,0.5034,0.5034,0.5034,0.5034,0.5034,0.5034,0.5441,0.4614,0.4966,0.5195,0.4966,0.4571,0.4691,0.5034,0.4966,0.4966,0.4966,0.5034,0.5034,0.5034,0.467,0.5034,0.5034,0.5034,0.5034,0.5034,0.5034,0.5034,0.5034,0.5034
train,0.47,0.42,0.53,0.46,0.5,0.57,0.54,0.47,0.48,0.48,0.5,0.52,0.49,0.49,0.48,0.5,0.41,0.46,0.54,0.52,0.57,0.48,0.35,0.53,0.55,0.47,0.52,0.39,0.46,0.53,0.58,0.55,0.49,0.49,0.56
time, 29.57660484313965
1, 2, 9
test,0.5034,0.5034,0.5034,0.5034,0.5034,0.5034,0.5034,0.5034,0.5034,0.5034,0.5034,0.5034,0.5034,0.5034,0.5034,0.5034,0.4966,0.5034,0.5034,0.4966,0.4966,0.5034,0.5034,0.4966,0.5034,0.4966,0.5034,0.5034,0.4966,0.5034,0.5034,0.4966,0.4966,0.4966,0.4966
train,0.43,0.56,0.54,0.51,0.47,0.42,0.52,0.51,0.52,0.51,0.49,0.5,0.54,0.51,0.46,0.49,0.44,0.57,0.46,0.41,0.59,0.52,0.56,0.48,0.43,0.48,0.48,0.52,0.38,0.44,0.53,0.48,0.47,0.56,0.49
time, 30.396371841430664
1, 3, 11
test,0.5034,0.5034,0.5034,0.5034,0.5034,0.5034,0.5034,0.5034,0.5034,0.5034,0.5034,0.5034,0.5034,0.5034,0.5034,0.5034,0.5034,0.5034,0.5034,0.5034,0.5034,0.5034,0.5034,0.5034,0.4966,0.4966,0.4966,0.4966,0.4966,0.4966,0.4966,0.4966,0.4966,0.4966,0.4966
train,0.43,0.5,0.46,0.5,0.47,0.54,0.56,0.51,0.52,0.54,0.38,0.52,0.49,0.51,0.5,0.49,0.58,0.51,0.44,0.55,0.49,0.58,0.5,0.53,0.44,0.5,0.58,0.54,0.49,0.41,0.51,0.54,0.6,0.5,0.46
time, 30.113954305648804
1, 4, 13
test,0.4966,0.4966,0.4966,0.4966,0.4966,0.4966,0.4966,0.4966,0.4966,0.4966,0.4966,0.4966,0.4966,0.4966,0.4966,0.4966,0.4966,0.4966,0.4966,0.4966,0.5034,0.4966,0.5034,0.5034,0.4966,0.4966,0.4966,0.4966,0.4966,0.4966,0.5034,0.5034,0.5034,0.4966,0.4966
train,0.51,0.45,0.5,0.43,0.52,0.45,0.5,0.55,0.56,0.51,0.51,0.52,0.51,0.49,0.57,0.46,0.56,0.43,0.5,0.49,0.53,0.56,0.44,0.52,0.52,0.49,0.47,0.47,0.49,0.57,0.46,0.37,0.53,0.47,0.5
time, 31.122752904891968
1, 5, 15
test,0.4966,0.4966,0.4966,0.4966,0.4966,0.4966,0.4966,0.4966,0.4966,0.4966,0.4966,0.4966,0.4966,0.4966,0.4966,0.4966,0.4966,0.5034,0.4966,0.5034,0.5034,0.5034,0.5034,0.5034,0.5034,0.5034,0.5034,0.5034,0.5034,0.4966,0.4966,0.5034,0.4966,0.4966,0.4966
train,0.49,0.47,0.48,0.54,0.5,0.5,0.48,0.5,0.54,0.53,0.57,0.49,0.49,0.45,0.49,0.44,0.56,0.43,0.56,0.53,0.54,0.53,0.5,0.49,0.4,0.47,0.52,0.49,0.47,0.45,0.49,0.53,0.44,0.49,0.51
time, 32.214362382888794
1, 6, 17
test,0.4966,0.4966,0.4966,0.4966,0.4966,0.4966,0.4966,0.4966,0.4966,0.4966,0.4966,0.4966,0.4966,0.4966,0.4966,0.4966,0.4966,0.4966,0.4966,0.5034,0.4966,0.5034,0.4966,0.5034,0.4966,0.4966,0.5034,0.4966,0.5034,0.5034,0.4966,0.5034,0.5034,0.4966,0.4966
train,0.39,0.54,0.46,0.51,0.5,0.45,0.46,0.56,0.55,0.46,0.5,0.5,0.51,0.49,0.55,0.58,0.62,0.46,0.51,0.5,0.52,0.5,0.54,0.42,0.44,0.54,0.43,0.57,0.47,0.52,0.52,0.58,0.54,0.53,0.43
time, 32.82474422454834
1, 7, 19
test,0.4966,0.4966,0.4966,0.4966,0.4966,0.4966,0.5034,0.4966,0.4966,0.4966,0.4966,0.5034,0.4966,0.5034,0.5034,0.4966,0.5034,0.5034,0.5034,0.5034,0.4966,0.4966,0.4966,0.4966,0.4966,0.4966,0.4966,0.5034,0.5034,0.5034,0.4966,0.4966,0.4966,0.4966,0.5034
train,0.46,0.54,0.45,0.52,0.52,0.47,0.57,0.53,0.54,0.47,0.52,0.47,0.54,0.51,0.48,0.48,0.48,0.47,0.47,0.4,0.49,0.53,0.49,0.48,0.48,0.44,0.52,0.51,0.49,0.48,0.5,0.55,0.45,0.5,0.51
time, 33.263181924819946
1, 8, 21
test,0.4966,0.4966,0.4966,0.4966,0.4966,0.4966,0.4966,0.4966,0.5034,0.4966,0.4966,0.4966,0.4966,0.5034,0.5034,0.5034,0.4966,0.4966,0.5034,0.5034,0.5034,0.5034,0.5034,0.5034,0.4966,0.5034,0.5034,0.5034,0.5034,0.4966,0.4966,0.4966,0.5034,0.4966,0.4966
train,0.51,0.49,0.43,0.53,0.52,0.44,0.55,0.53,0.46,0.48,0.48,0.48,0.51,0.45,0.43,0.49,0.37,0.53,0.52,0.45,0.5,0.47,0.49,0.62,0.54,0.51,0.58,0.5,0.52,0.42,0.51,0.53,0.43,0.51,0.55
time, 33.35713768005371
1, 9, 23
test,0.5034,0.5034,0.4966,0.5034,0.5034,0.4966,0.5034,0.4966,0.5034,0.5034,0.5034,0.4966,0.4966,0.4966,0.4966,0.4966,0.5034,0.5034,0.4966,0.5034,0.5034,0.5034,0.4966,0.4966,0.5034,0.5034,0.5034,0.5034,0.5034,0.5034,0.5034,0.4966,0.4966,0.4966,0.4966
train,0.49,0.46,0.56,0.46,0.51,0.46,0.48,0.6,0.48,0.53,0.42,0.48,0.51,0.47,0.42,0.51,0.49,0.55,0.5,0.51,0.37,0.49,0.37,0.48,0.54,0.41,0.46,0.56,0.53,0.55,0.48,0.46,0.56,0.43,0.45
time, 33.03503751754761
1, 10, 25
test,0.4966,0.4966,0.4966,0.4966,0.4966,0.4966,0.4966,0.4966,0.4966,0.4966,0.4966,0.4966,0.4966,0.4966,0.4966,0.4966,0.4966,0.4966,0.4966,0.4966,0.4966,0.4966,0.4966,0.4966,0.4966,0.4966,0.5034,0.4966,0.4966,0.4966,0.5034,0.5034,0.5034,0.4966,0.4966
train,0.49,0.53,0.5,0.5,0.46,0.56,0.43,0.52,0.55,0.58,0.52,0.47,0.55,0.53,0.47,0.52,0.44,0.58,0.51,0.52,0.56,0.55,0.46,0.55,0.54,0.53,0.43,0.6,0.45,0.52,0.49,0.48,0.43,0.4,0.41
time, 33.3729727268219
2, 1, 12
test,0.5034,0.5034,0.5034,0.5034,0.5532,0.5499,0.4714,0.472,0.4738,0.4703,0.4705,0.4696,0.4966,0.4981,0.4923,0.4719,0.4714,0.4789,0.472,0.4702,0.4718,0.4781,0.4729,0.4958,0.4706,0.4927,0.5568,0.534,0.5266,0.5333,0.4911,0.4952,0.4986,0.501,0.5355
train,0.55,0.44,0.47,0.48,0.63,0.55,0.45,0.52,0.39,0.51,0.42,0.47,0.49,0.43,0.46,0.43,0.5,0.52,0.46,0.33,0.5,0.54,0.45,0.39,0.48,0.51,0.51,0.62,0.65,0.46,0.44,0.5,0.51,0.46,0.47
time, 28.048216342926025
2, 2, 18
test,0.4966,0.4966,0.4966,0.4966,0.4966,0.4966,0.5053,0.5151,0.4966,0.551,0.5338,0.5034,0.5281,0.4966,0.4975,0.4966,0.5034,0.4966,0.4966,0.4966,0.5765,0.4909,0.5338,0.5034,0.4966,0.5232,0.534,0.537,0.5034,0.5034,0.5034,0.4966,0.4966,0.4966,0.5765
train,0.54,0.52,0.47,0.49,0.49,0.46,0.45,0.44,0.41,0.55,0.45,0.46,0.49,0.53,0.41,0.51,0.56,0.55,0.54,0.43,0.56,0.36,0.47,0.55,0.52,0.59,0.51,0.5,0.45,0.48,0.46,0.46,0.56,0.49,0.55
time, 28.956889867782593
2, 3, 24
test,0.4966,0.4966,0.4966,0.4966,0.4966,0.4966,0.4966,0.4966,0.4966,0.4966,0.4966,0.4966,0.4966,0.4966,0.4966,0.4966,0.4966,0.4966,0.4966,0.4966,0.4966,0.4966,0.5034,0.4966,0.4966,0.4966,0.4966,0.4966,0.4966,0.4966,0.4966,0.5034,0.5034,0.5034,0.5034
train,0.55,0.53,0.52,0.38,0.49,0.46,0.43,0.47,0.46,0.38,0.58,0.63,0.47,0.53,0.52,0.59,0.55,0.42,0.48,0.44,0.54,0.54,0.47,0.45,0.46,0.4,0.56,0.46,0.6,0.5,0.6,0.48,0.56,0.55,0.51
time, 29.763343572616577
2, 4, 30
test,0.5034,0.5034,0.5034,0.5034,0.5034,0.5034,0.5034,0.5034,0.5034,0.5034,0.5034,0.4966,0.5034,0.5034,0.5034,0.5034,0.5034,0.5034,0.4966,0.4966,0.4966,0.4966,0.4966,0.4966,0.4966,0.4966,0.4966,0.5034,0.5034,0.5034,0.5034,0.5034,0.5034,0.5034,0.5034
train,0.49,0.46,0.48,0.53,0.47,0.55,0.46,0.4,0.36,0.55,0.54,0.45,0.43,0.55,0.51,0.48,0.46,0.48,0.52,0.57,0.5,0.54,0.48,0.5,0.49,0.5,0.46,0.48,0.65,0.51,0.49,0.51,0.45,0.45,0.48
time, 31.065163135528564
2, 5, 36
test,0.5034,0.5034,0.5034,0.5034,0.5034,0.5034,0.5034,0.5034,0.5034,0.5034,0.4966,0.4966,0.4966,0.4966,0.4966,0.5034,0.4966,0.4966,0.4966,0.5034,0.5034,0.5034,0.5034,0.5034,0.5034,0.5034,0.5034,0.5034,0.5034,0.5034,0.5034,0.5034,0.5034,0.5034,0.5034
train,0.55,0.44,0.41,0.48,0.52,0.61,0.49,0.49,0.5,0.55,0.48,0.52,0.5,0.48,0.47,0.48,0.54,0.55,0.45,0.48,0.49,0.48,0.44,0.45,0.53,0.41,0.48,0.51,0.48,0.53,0.45,0.49,0.45,0.54,0.51
time, 32.05701756477356
2, 6, 42
test,0.5034,0.5034,0.5034,0.5034,0.5034,0.4966,0.5034,0.5034,0.5034,0.5034,0.4966,0.4966,0.4966,0.4966,0.5034,0.4966,0.4966,0.4966,0.4966,0.4966,0.5034,0.5034,0.5034,0.4966,0.4966,0.5034,0.5034,0.4966,0.4966,0.4966,0.5034,0.5034,0.5034,0.5034,0.5034
train,0.52,0.48,0.46,0.53,0.44,0.46,0.46,0.5,0.42,0.57,0.46,0.47,0.5,0.42,0.44,0.49,0.54,0.55,0.46,0.55,0.54,0.47,0.49,0.55,0.57,0.43,0.58,0.56,0.47,0.42,0.53,0.53,0.47,0.54,0.51
time, 32.986004114151
2, 7, 48
test,0.4966,0.4966,0.4966,0.4966,0.4966,0.4966,0.4966,0.4966,0.4966,0.4966,0.4966,0.4966,0.5034,0.5034,0.5034,0.4966,0.5034,0.5034,0.5034,0.5034,0.4966,0.5034,0.5034,0.5034,0.5034,0.5034,0.5034,0.4966,0.5034,0.4966,0.4966,0.5034,0.4966,0.4966,0.4966
train,0.53,0.51,0.52,0.55,0.51,0.45,0.56,0.48,0.51,0.5,0.54,0.46,0.55,0.47,0.49,0.45,0.45,0.48,0.5,0.45,0.48,0.43,0.57,0.53,0.54,0.46,0.46,0.53,0.49,0.56,0.56,0.48,0.54,0.51,0.54
time, 33.69844126701355
2, 8, 54
test,0.5034,0.5034,0.5034,0.5034,0.4966,0.4966,0.4966,0.5034,0.5034,0.5034,0.5034,0.5034,0.5034,0.4966,0.4966,0.5034,0.5034,0.5034,0.4966,0.4966,0.5034,0.5348,0.5034,0.538,0.5399,0.5406,0.5401,0.5411,0.5408,0.5404,0.5406,0.5409,0.5404,0.5415,0.5413
train,0.42,0.42,0.46,0.54,0.53,0.54,0.44,0.48,0.49,0.53,0.42,0.55,0.54,0.5,0.49,0.53,0.47,0.45,0.54,0.51,0.59,0.54,0.46,0.58,0.59,0.62,0.46,0.48,0.54,0.54,0.53,0.58,0.51,0.63,0.49
time, 34.4033727645874
2, 9, 60
test,0.5034,0.5034,0.5034,0.5034,0.5034,0.5034,0.5034,0.5034,0.5034,0.5034,0.5034,0.5034,0.5034,0.5034,0.5034,0.5034,0.5034,0.5034,0.5034,0.4966,0.5034,0.4966,0.5034,0.5034,0.4966,0.4966,0.4966,0.4966,0.4966,0.5034,0.5034,0.5034,0.4966,0.5034,0.5034
train,0.5,0.46,0.54,0.52,0.49,0.59,0.49,0.46,0.52,0.45,0.47,0.55,0.42,0.55,0.52,0.49,0.49,0.57,0.55,0.58,0.5,0.46,0.42,0.5,0.48,0.5,0.59,0.54,0.45,0.51,0.51,0.42,0.44,0.55,0.48
time, 35.174771308898926
2, 10, 66
test,0.4966,0.4966,0.4966,0.4966,0.4966,0.4966,0.4966,0.4966,0.4966,0.4966,0.5034,0.5034,0.5034,0.5034,0.4966,0.5034,0.5034,0.5034,0.5034,0.5034,0.4966,0.4966,0.5034,0.5034,0.4966,0.5034,0.5034,0.5034,0.5034,0.5034,0.5034,0.4966,0.4966,0.4966,0.4966
train,0.49,0.46,0.51,0.45,0.43,0.46,0.52,0.59,0.48,0.48,0.45,0.46,0.54,0.47,0.41,0.43,0.47,0.52,0.54,0.59,0.56,0.6,0.51,0.53,0.47,0.59,0.54,0.5,0.5,0.55,0.47,0.51,0.48,0.45,0.47
time, 36.00054717063904
3, 1, 17
test,0.5034,0.5034,0.5034,0.5034,0.5034,0.5034,0.5034,0.5034,0.5034,0.5034,0.5034,0.5034,0.5034,0.5034,0.5034,0.5034,0.5034,0.5034,0.4964,0.5344,0.5317,0.5034,0.5034,0.5034,0.5034,0.5034,0.5034,0.517,0.5007,0.5079,0.5093,0.5188,0.512,0.5195,0.5203
train,0.44,0.52,0.56,0.5,0.45,0.54,0.53,0.5,0.43,0.55,0.55,0.52,0.49,0.53,0.54,0.57,0.4,0.45,0.53,0.48,0.51,0.49,0.51,0.59,0.49,0.48,0.52,0.49,0.48,0.47,0.59,0.54,0.51,0.5,0.53
time, 27.993460655212402
3, 2, 29
test,0.5034,0.5034,0.5034,0.5034,0.5034,0.5034,0.5034,0.5034,0.5034,0.5034,0.5034,0.5082,0.5707,0.5656,0.568,0.5511,0.5555,0.5695,0.5649,0.5658,0.5711,0.53,0.543,0.5255,0.5362,0.5603,0.5569,0.564,0.5526,0.5677,0.5691,0.5635,0.5642,0.5678,0.5682
train,0.5,0.48,0.52,0.49,0.58,0.54,0.58,0.47,0.51,0.54,0.42,0.47,0.66,0.51,0.59,0.52,0.47,0.56,0.63,0.51,0.53,0.54,0.51,0.54,0.53,0.54,0.45,0.53,0.59,0.6,0.58,0.54,0.63,0.54,0.6
time, 28.869216203689575
3, 3, 41
test,0.4966,0.4966,0.5034,0.5034,0.5034,0.5034,0.5034,0.5034,0.5034,0.5034,0.5034,0.5034,0.5034,0.5034,0.4966,0.4966,0.5034,0.4966,0.4966,0.5034,0.5034,0.4966,0.5034,0.4966,0.4966,0.4966,0.4966,0.4966,0.4966,0.4966,0.4966,0.5034,0.5034,0.5034,0.5034
train,0.42,0.48,0.45,0.49,0.46,0.59,0.59,0.47,0.62,0.46,0.43,0.5,0.56,0.46,0.5,0.43,0.49,0.48,0.54,0.44,0.49,0.5,0.46,0.54,0.5,0.51,0.49,0.47,0.54,0.42,0.49,0.43,0.46,0.56,0.46
time, 29.976964950561523
3, 4, 53
test,0.4966,0.4966,0.4966,0.4966,0.5726,0.5593,0.544,0.5635,0.5614,0.5575,0.4966,0.5656,0.5755,0.5793,0.5763,0.5812,0.5798,0.5954,0.5983,0.6033,0.6083,0.6139,0.6188,0.6393,0.6528,0.6316,0.6688,0.6975,0.7011,0.6961,0.7062,0.6933,0.7089,0.7097,0.6951
train,0.48,0.51,0.48,0.46,0.56,0.6,0.55,0.58,0.57,0.56,0.42,0.56,0.55,0.53,0.55,0.61,0.58,0.54,0.61,0.57,0.66,0.58,0.63,0.63,0.67,0.63,0.61,0.71,0.74,0.74,0.7,0.62,0.7,0.62,0.69
time, 31.08857536315918
3, 5, 65
test,0.4966,0.4966,0.4966,0.4966,0.4966,0.4966,0.4966,0.4966,0.4966,0.4966,0.5034,0.4966,0.5034,0.5034,0.5034,0.4966,0.4966,0.4966,0.4966,0.4966,0.5034,0.4966,0.5034,0.5034,0.5034,0.5034,0.4966,0.5034,0.5034,0.5034,0.5034,0.5034,0.5034,0.4966,0.4966
train,0.51,0.6,0.4,0.56,0.5,0.46,0.44,0.51,0.51,0.45,0.45,0.61,0.53,0.5,0.52,0.5,0.6,0.56,0.43,0.47,0.39,0.5,0.44,0.58,0.6,0.62,0.49,0.44,0.57,0.49,0.56,0.46,0.48,0.58,0.44
time, 32.09337592124939
3, 6, 77
test,0.4966,0.4966,0.4966,0.4966,0.4966,0.4966,0.5034,0.5034,0.4966,0.4966,0.5396,0.5455,0.5453,0.545,0.5352,0.5359,0.5409,0.5394,0.5422,0.5419,0.5415,0.5425,0.5415,0.5426,0.5425,0.5427,0.5424,0.5426,0.5424,0.5425,0.5426,0.5407,0.5413,0.5423,0.5423
train,0.44,0.45,0.45,0.55,0.46,0.57,0.52,0.46,0.48,0.59,0.53,0.49,0.51,0.63,0.59,0.53,0.56,0.59,0.46,0.52,0.53,0.56,0.44,0.55,0.58,0.54,0.53,0.52,0.52,0.54,0.49,0.5,0.56,0.43,0.51
time, 33.02661871910095
3, 7, 89
test,0.5034,0.5034,0.5034,0.5034,0.5034,0.5034,0.5034,0.5034,0.5034,0.5034,0.5034,0.5034,0.5034,0.5034,0.5034,0.5034,0.5034,0.5034,0.4966,0.5034,0.4966,0.4966,0.5034,0.5034,0.5034,0.5034,0.5034,0.5034,0.4966,0.4966,0.4966,0.4966,0.4966,0.4966,0.5034
train,0.51,0.47,0.44,0.55,0.5,0.5,0.56,0.49,0.52,0.38,0.5,0.42,0.48,0.53,0.45,0.44,0.49,0.57,0.49,0.47,0.47,0.52,0.54,0.52,0.48,0.5,0.53,0.44,0.49,0.51,0.6,0.5,0.44,0.57,0.39
time, 33.69719839096069
3, 8, 101
test,0.4966,0.4966,0.4966,0.4966,0.4966,0.4966,0.4966,0.4966,0.4966,0.4966,0.5034,0.5034,0.5034,0.5034,0.5034,0.5034,0.5034,0.5034,0.5034,0.5034,0.5034,0.5034,0.5034,0.5034,0.5034,0.5034,0.5034,0.4966,0.4966,0.4966,0.4966,0.4966,0.4966,0.5034,0.4966
train,0.52,0.53,0.41,0.44,0.43,0.46,0.55,0.54,0.39,0.48,0.54,0.5,0.48,0.54,0.53,0.48,0.49,0.57,0.46,0.46,0.48,0.48,0.51,0.54,0.48,0.46,0.41,0.54,0.41,0.58,0.51,0.52,0.47,0.48,0.45
time, 34.590296506881714
3, 9, 113
test,0.5034,0.5034,0.4966,0.4966,0.5034,0.5034,0.4966,0.5034,0.5034,0.5034,0.4966,0.5034,0.5034,0.4966,0.4966,0.5034,0.4966,0.4966,0.4966,0.4966,0.4966,0.4966,0.4966,0.5034,0.4966,0.5034,0.4966,0.4966,0.5034,0.4966,0.4966,0.4966,0.4966,0.4966,0.5034
train,0.47,0.44,0.45,0.41,0.51,0.54,0.45,0.5,0.49,0.45,0.41,0.54,0.44,0.48,0.44,0.56,0.45,0.55,0.59,0.57,0.5,0.49,0.49,0.53,0.61,0.57,0.53,0.49,0.52,0.5,0.49,0.49,0.54,0.58,0.45
time, 35.57127809524536
3, 10, 125
test,0.5034,0.5034,0.5034,0.5034,0.4966,0.4966,0.4966,0.4966,0.4966,0.5034,0.4966,0.4966,0.4966,0.5034,0.4966,0.4966,0.4966,0.4966,0.4966,0.5034,0.4966,0.5034,0.5034,0.5034,0.5034,0.5034,0.5034,0.4966,0.5034,0.5034,0.5034,0.4966,0.4966,0.5034,0.5034
train,0.64,0.52,0.49,0.5,0.48,0.47,0.46,0.55,0.43,0.46,0.56,0.54,0.42,0.58,0.56,0.5,0.52,0.61,0.53,0.47,0.5,0.59,0.55,0.49,0.48,0.62,0.49,0.48,0.55,0.51,0.42,0.49,0.57,0.52,0.59
time, 36.27423715591431
4, 1, 22
test,0.4733,0.5441,0.4922,0.5402,0.5106,0.5034,0.5034,0.5612,0.5398,0.5034,0.4966,0.4966,0.5034,0.4966,0.4966,0.5034,0.5034,0.5034,0.4966,0.4966,0.4966,0.4966,0.5034,0.5034,0.5034,0.5034,0.4966,0.4966,0.5034,0.5034,0.5034,0.5034,0.4966,0.4966,0.5034
train,0.5,0.53,0.47,0.53,0.56,0.63,0.54,0.52,0.55,0.45,0.61,0.57,0.53,0.55,0.52,0.49,0.55,0.58,0.48,0.52,0.48,0.46,0.49,0.48,0.56,0.56,0.54,0.44,0.52,0.4,0.49,0.43,0.46,0.44,0.52
time, 28.106273651123047
4, 2, 42
test,0.5034,0.5034,0.5034,0.4522,0.5558,0.4468,0.5171,0.5264,0.5422,0.5258,0.5578,0.5215,0.5723,0.5868,0.5922,0.5925,0.5921,0.5959,0.599,0.6104,0.6015,0.5853,0.5985,0.6113,0.5576,0.605,0.6093,0.6058,0.6049,0.6113,0.6056,0.6092,0.6067,0.5994,0.5805
train,0.46,0.55,0.4,0.36,0.62,0.4,0.56,0.5,0.44,0.46,0.46,0.54,0.56,0.58,0.63,0.49,0.55,0.59,0.58,0.59,0.59,0.5,0.55,0.67,0.47,0.63,0.62,0.63,0.59,0.55,0.6,0.59,0.64,0.58,0.62
time, 28.972872018814087
4, 3, 62
test,0.5034,0.5034,0.5378,0.5851,0.6155,0.5516,0.5619,0.5657,0.5633,0.6091,0.6027,0.6926,0.6626,0.7031,0.7282,0.7439,0.7352,0.7409,0.7524,0.7574,0.7632,0.7626,0.7622,0.7697,0.7677,0.7596,0.7648,0.7676,0.7661,0.7614,0.7706,0.7683,0.7702,0.7701,0.7725
train,0.63,0.56,0.49,0.63,0.56,0.5,0.54,0.64,0.49,0.58,0.59,0.65,0.61,0.7,0.73,0.7,0.62,0.74,0.73,0.84,0.67,0.79,0.76,0.77,0.77,0.77,0.74,0.79,0.85,0.76,0.65,0.75,0.76,0.8,0.79
time, 30.096446990966797
4, 4, 82
test,0.5034,0.5034,0.5034,0.5725,0.5616,0.6803,0.6044,0.6897,0.675,0.6881,0.691,0.6881,0.6924,0.6945,0.6955,0.6966,0.6966,0.7002,0.6965,0.7048,0.7047,0.7082,0.7098,0.7103,0.7116,0.709,0.7087,0.7109,0.7096,0.7109,0.7109,0.7115,0.7115,0.7092,0.7087
train,0.48,0.52,0.49,0.55,0.54,0.71,0.65,0.69,0.69,0.8,0.71,0.74,0.72,0.69,0.81,0.72,0.71,0.75,0.71,0.72,0.74,0.71,0.73,0.64,0.65,0.72,0.71,0.69,0.69,0.64,0.73,0.71,0.74,0.76,0.76
time, 31.203691244125366
4, 5, 102
test,0.4966,0.4966,0.4966,0.4966,0.4966,0.4966,0.4966,0.4966,0.4966,0.5034,0.4966,0.5034,0.5034,0.5034,0.4966,0.4966,0.4966,0.4966,0.4966,0.4966,0.4966,0.5034,0.4966,0.4966,0.5034,0.5034,0.4966,0.4966,0.4966,0.4966,0.4966,0.4966,0.5034,0.5034,0.5034
train,0.45,0.5,0.45,0.44,0.48,0.47,0.55,0.42,0.5,0.47,0.51,0.47,0.41,0.5,0.45,0.46,0.56,0.47,0.55,0.42,0.55,0.43,0.5,0.48,0.52,0.54,0.46,0.52,0.54,0.58,0.58,0.43,0.45,0.46,0.48
time, 32.05958366394043
4, 6, 122
test,0.4966,0.4966,0.4966,0.4966,0.4966,0.5034,0.5034,0.5034,0.4966,0.55,0.5734,0.5747,0.5761,0.5798,0.5783,0.583,0.5844,0.5868,0.5827,0.5866,0.592,0.5987,0.624,0.6282,0.6193,0.6244,0.6258,0.6361,0.6363,0.6346,0.639,0.6389,0.6396,0.6404,0.6409
train,0.51,0.57,0.5,0.57,0.48,0.52,0.51,0.5,0.45,0.61,0.49,0.56,0.55,0.62,0.6,0.61,0.63,0.66,0.64,0.61,0.59,0.52,0.66,0.57,0.63,0.67,0.63,0.61,0.73,0.65,0.67,0.63,0.63,0.65,0.64
time, 32.93220138549805
4, 7, 142
test,0.5034,0.5034,0.4966,0.4966,0.4966,0.5034,0.5684,0.5632,0.5589,0.5653,0.5704,0.572,0.5714,0.5722,0.5724,0.5724,0.5712,0.5723,0.5718,0.5721,0.5731,0.5724,0.5714,0.5724,0.5728,0.573,0.5721,0.5731,0.573,0.5723,0.5716,0.5724,0.5729,0.5726,0.572
train,0.39,0.61,0.47,0.48,0.46,0.45,0.57,0.52,0.54,0.54,0.62,0.55,0.58,0.51,0.61,0.61,0.53,0.48,0.59,0.54,0.55,0.49,0.52,0.64,0.56,0.54,0.59,0.57,0.6,0.64,0.62,0.56,0.64,0.53,0.52
time, 33.932910680770874
4, 8, 162
test,0.5034,0.5034,0.5034,0.5034,0.5034,0.5034,0.5034,0.5034,0.5034,0.5034,0.5034,0.4966,0.5034,0.4966,0.4966,0.4966,0.4966,0.5034,0.5034,0.4966,0.5034,0.4966,0.5034,0.4966,0.5034,0.4966,0.4966,0.4966,0.4966,0.5034,0.4966,0.4966,0.5034,0.5034,0.4966
train,0.57,0.44,0.54,0.46,0.46,0.52,0.57,0.54,0.53,0.42,0.46,0.44,0.49,0.6,0.56,0.62,0.51,0.47,0.59,0.51,0.51,0.54,0.47,0.48,0.5,0.49,0.53,0.53,0.52,0.44,0.49,0.49,0.46,0.51,0.52
time, 34.76260542869568
4, 9, 182
test,0.4966,0.5034,0.4966,0.5034,0.5034,0.4966,0.4966,0.4966,0.4966,0.4966,0.4966,0.5034,0.4966,0.4966,0.4966,0.4966,0.5034,0.5034,0.5034,0.5034,0.5034,0.4966,0.4966,0.5034,0.5034,0.5034,0.5034,0.5034,0.4966,0.5034,0.5034,0.5034,0.5034,0.4966,0.5034
train,0.55,0.45,0.53,0.44,0.46,0.49,0.51,0.52,0.53,0.62,0.45,0.53,0.51,0.49,0.53,0.53,0.4,0.52,0.52,0.53,0.54,0.52,0.48,0.45,0.44,0.54,0.54,0.49,0.57,0.48,0.46,0.44,0.49,0.46,0.52
time, 35.549787521362305
4, 10, 202
test,0.5034,0.5034,0.5034,0.4966,0.4966,0.5034,0.4966,0.4966,0.5034,0.536,0.59,0.4966,0.629,0.645,0.6441,0.6445,0.6428,0.6609,0.6462,0.6623,0.6721,0.6759,0.6749,0.6804,0.6821,0.6814,0.685,0.677,0.6863,0.6916,0.6912,0.6923,0.689,0.6941,0.6564
train,0.55,0.45,0.57,0.54,0.42,0.46,0.43,0.41,0.51,0.56,0.56,0.41,0.71,0.67,0.59,0.62,0.56,0.57,0.66,0.67,0.75,0.65,0.59,0.7,0.76,0.69,0.63,0.68,0.65,0.69,0.68,0.7,0.72,0.74,0.67
time, 36.43278431892395
5, 1, 27
test,0.4883,0.5636,0.5354,0.5439,0.541,0.5647,0.5485,0.5515,0.5781,0.5834,0.605,0.6174,0.6205,0.6354,0.6179,0.6442,0.6612,0.6418,0.6567,0.65,0.6451,0.6502,0.6247,0.6269,0.6432,0.6384,0.6339,0.6445,0.6452,0.6504,0.6387,0.6368,0.6458,0.6337,0.6379
train,0.48,0.54,0.5,0.66,0.56,0.51,0.55,0.63,0.63,0.58,0.55,0.61,0.69,0.56,0.56,0.63,0.6,0.58,0.67,0.66,0.73,0.59,0.67,0.62,0.7,0.62,0.59,0.65,0.61,0.64,0.62,0.69,0.68,0.68,0.64
time, 28.162116050720215
5, 2, 57
test,0.5034,0.5358,0.4402,0.4793,0.4746,0.447,0.5005,0.4945,0.5269,0.5369,0.5312,0.5419,0.5514,0.4947,0.5543,0.5989,0.6128,0.6009,0.6088,0.6144,0.6179,0.6178,0.6156,0.6146,0.6215,0.6208,0.6211,0.6209,0.6223,0.6219,0.6226,0.6247,0.6216,0.6233,0.6227
train,0.45,0.53,0.41,0.44,0.46,0.42,0.38,0.49,0.5,0.53,0.49,0.57,0.53,0.47,0.61,0.73,0.66,0.61,0.53,0.67,0.5,0.68,0.63,0.62,0.61,0.53,0.57,0.61,0.69,0.64,0.6,0.58,0.58,0.53,0.66
time, 29.073670387268066
5, 3, 87
test,0.5034,0.5034,0.5034,0.497,0.6161,0.5489,0.5678,0.5752,0.5751,0.5737,0.5941,0.6142,0.6221,0.6181,0.6417,0.6429,0.6469,0.6594,0.6701,0.7121,0.6893,0.6888,0.7058,0.6977,0.7004,0.7005,0.7121,0.7135,0.7531,0.7728,0.7708,0.7787,0.7884,0.7837,0.7816
train,0.54,0.49,0.5,0.51,0.62,0.61,0.61,0.62,0.66,0.59,0.57,0.6,0.68,0.64,0.66,0.62,0.64,0.73,0.73,0.7,0.71,0.64,0.7,0.69,0.66,0.68,0.72,0.67,0.66,0.8,0.79,0.83,0.81,0.77,0.8
time, 30.43453621864319
5, 4, 117
test,0.4966,0.4966,0.4966,0.564,0.4966,0.5034,0.5756,0.5034,0.5559,0.5867,0.5611,0.5613,0.6231,0.5866,0.607,0.6007,0.633,0.6421,0.6263,0.6507,0.6521,0.6461,0.6474,0.6692,0.6792,0.6712,0.6845,0.6855,0.6755,0.727,0.6943,0.7301,0.7252,0.7423,0.7519
train,0.4,0.46,0.58,0.49,0.46,0.48,0.58,0.39,0.6,0.57,0.49,0.63,0.56,0.61,0.55,0.61,0.63,0.63,0.69,0.69,0.65,0.62,0.6,0.66,0.69,0.69,0.71,0.68,0.65,0.73,0.72,0.74,0.7,0.76,0.77
time, 31.428017377853394
5, 5, 147
test,0.4966,0.5797,0.4724,0.5948,0.6318,0.613,0.598,0.7202,0.7132,0.7513,0.7289,0.7868,0.8096,0.8051,0.8016,0.8162,0.8143,0.8138,0.809,0.8163,0.8123,0.8138,0.8121,0.8123,0.8107,0.809,0.8059,0.8058,0.8113,0.812,0.8072,0.8123,0.8113,0.8054,0.8136
train,0.55,0.53,0.47,0.54,0.67,0.58,0.55,0.68,0.78,0.76,0.72,0.76,0.82,0.78,0.82,0.83,0.82,0.82,0.84,0.78,0.8,0.82,0.72,0.8,0.86,0.76,0.83,0.84,0.83,0.8,0.87,0.76,0.79,0.8,0.82
time, 32.34565353393555
5, 6, 177
test,0.5034,0.5034,0.5034,0.5034,0.5034,0.5034,0.4966,0.5034,0.5034,0.5034,0.4966,0.5034,0.5034,0.5034,0.5034,0.5034,0.5034,0.4966,0.5034,0.4966,0.4966,0.5034,0.5034,0.5034,0.5034,0.4966,0.4966,0.4966,0.4966,0.4966,0.4966,0.4966,0.5034,0.5034,0.5034
train,0.6,0.49,0.53,0.48,0.5,0.41,0.59,0.45,0.5,0.47,0.49,0.51,0.57,0.56,0.52,0.55,0.46,0.5,0.46,0.47,0.53,0.41,0.51,0.45,0.53,0.51,0.6,0.49,0.53,0.55,0.54,0.49,0.52,0.55,0.47
time, 33.388957023620605
5, 7, 207
test,0.4966,0.4966,0.4966,0.4966,0.4966,0.4966,0.5034,0.5034,0.5034,0.5034,0.5034,0.5034,0.4966,0.5034,0.5034,0.5034,0.5034,0.4966,0.4966,0.4966,0.5034,0.4966,0.4966,0.5034,0.5034,0.4966,0.4966,0.4966,0.5034,0.5034,0.4966,0.4966,0.5034,0.4966,0.4966
train,0.45,0.41,0.56,0.59,0.59,0.44,0.55,0.51,0.55,0.56,0.57,0.53,0.41,0.47,0.49,0.5,0.61,0.42,0.54,0.51,0.49,0.5,0.49,0.48,0.44,0.5,0.41,0.52,0.44,0.47,0.51,0.45,0.53,0.49,0.47
time, 34.433658838272095
5, 8, 237
test,0.4966,0.4966,0.4966,0.4966,0.4966,0.4966,0.4966,0.4966,0.4966,0.5034,0.5034,0.5034,0.5034,0.5034,0.5034,0.5034,0.5034,0.5034,0.5034,0.5034,0.4966,0.4966,0.5034,0.4966,0.4966,0.5034,0.4966,0.4966,0.4966,0.5034,0.5034,0.5034,0.4966,0.5034,0.5034
train,0.59,0.52,0.58,0.49,0.47,0.45,0.53,0.53,0.43,0.57,0.58,0.46,0.46,0.57,0.45,0.62,0.46,0.56,0.54,0.45,0.5,0.42,0.49,0.52,0.46,0.52,0.55,0.46,0.46,0.48,0.51,0.5,0.53,0.48,0.53
time, 35.05526614189148
5, 9, 267
test,0.4966,0.4966,0.4966,0.4966,0.4966,0.4966,0.6477,0.6618,0.6426,0.6686,0.6492,0.7084,0.7187,0.7183,0.7197,0.7271,0.7319,0.7319,0.7343,0.7321,0.7378,0.7362,0.7122,0.7386,0.7379,0.7132,0.7334,0.7375,0.7393,0.7376,0.7396,0.7152,0.74,0.7155,0.7413
train,0.54,0.46,0.49,0.47,0.51,0.54,0.6,0.67,0.65,0.61,0.7,0.77,0.75,0.8,0.71,0.72,0.7,0.76,0.73,0.75,0.66,0.71,0.67,0.7,0.74,0.63,0.77,0.71,0.77,0.7,0.8,0.73,0.7,0.78,0.73
time, 35.82791805267334
5, 10, 297
test,0.5034,0.5034,0.5034,0.5034,0.4966,0.559,0.614,0.672,0.6851,0.693,0.7068,0.7301,0.7323,0.7348,0.7563,0.7433,0.7389,0.7359,0.7521,0.7728,0.8058,0.8105,0.8142,0.8139,0.7962,0.811,0.8184,0.8183,0.8162,0.8156,0.8157,0.8217,0.8219,0.8271,0.8213
train,0.45,0.51,0.43,0.55,0.46,0.69,0.58,0.72,0.68,0.74,0.7,0.67,0.72,0.8,0.74,0.76,0.78,0.79,0.78,0.78,0.83,0.81,0.85,0.8,0.84,0.8,0.81,0.84,0.85,0.87,0.82,0.76,0.86,0.84,0.79
time, 36.952901124954224
6, 1, 32
test,0.4966,0.508,0.457,0.5588,0.5455,0.5049,0.5116,0.534,0.5683,0.545,0.6244,0.5846,0.6118,0.618,0.6095,0.5968,0.5687,0.6085,0.5609,0.5959,0.5667,0.5945,0.5932,0.6028,0.5895,0.5927,0.6256,0.5752,0.6092,0.6103,0.5828,0.6169,0.5825,0.6164,0.5666
train,0.46,0.47,0.43,0.51,0.59,0.47,0.48,0.54,0.7,0.59,0.67,0.63,0.58,0.58,0.66,0.61,0.58,0.6,0.5,0.6,0.63,0.63,0.58,0.61,0.65,0.57,0.55,0.6,0.65,0.56,0.55,0.6,0.61,0.69,0.49
time, 28.0341055393219
6, 2, 74
test,0.5034,0.5034,0.549,0.5032,0.5198,0.5021,0.5144,0.5559,0.5368,0.554,0.5929,0.6047,0.598,0.6069,0.6866,0.6745,0.6893,0.7113,0.6701,0.6857,0.6946,0.6993,0.694,0.6645,0.6613,0.6604,0.6697,0.669,0.6562,0.6629,0.6714,0.673,0.6779,0.673,0.6713
train,0.52,0.46,0.52,0.5,0.49,0.5,0.56,0.54,0.57,0.53,0.55,0.6,0.57,0.59,0.79,0.73,0.63,0.74,0.62,0.66,0.68,0.7,0.66,0.64,0.72,0.69,0.64,0.72,0.58,0.68,0.72,0.62,0.75,0.68,0.7
time, 29.06745982170105
6, 3, 116
test,0.4966,0.4966,0.4966,0.5439,0.565,0.5624,0.5591,0.5758,0.5849,0.5793,0.587,0.5849,0.5844,0.5988,0.5987,0.6011,0.6228,0.6407,0.6405,0.6451,0.645,0.7224,0.718,0.7185,0.7154,0.7155,0.7058,0.7066,0.7037,0.702,0.6958,0.7017,0.7041,0.7007,0.7126
train,0.39,0.53,0.51,0.52,0.62,0.69,0.62,0.53,0.65,0.55,0.64,0.58,0.58,0.63,0.6,0.55,0.61,0.61,0.58,0.66,0.58,0.66,0.68,0.74,0.73,0.71,0.72,0.69,0.68,0.71,0.69,0.7,0.72,0.69,0.76
time, 30.25616693496704
6, 4, 158
test,0.4966,0.4966,0.4966,0.4966,0.4966,0.4966,0.5982,0.4827,0.576,0.5591,0.6039,0.6103,0.616,0.634,0.6373,0.6441,0.6589,0.66,0.6652,0.6615,0.6628,0.6573,0.6629,0.6689,0.67,0.6705,0.676,0.671,0.6881,0.6835,0.697,0.6952,0.6916,0.6975,0.6986
train,0.55,0.59,0.54,0.52,0.54,0.59,0.6,0.51,0.53,0.51,0.61,0.61,0.51,0.65,0.63,0.65,0.69,0.66,0.71,0.72,0.63,0.71,0.59,0.66,0.7,0.69,0.71,0.67,0.62,0.67,0.68,0.8,0.64,0.62,0.62
time, 31.401239156723022
6, 5, 200
test,0.4966,0.4966,0.4966,0.4966,0.4966,0.5034,0.5034,0.5034,0.5034,0.5034,0.5034,0.5034,0.4966,0.5034,0.4966,0.4966,0.4966,0.5034,0.5034,0.5034,0.4966,0.4966,0.5034,0.5034,0.5034,0.4966,0.4966,0.4966,0.4966,0.4966,0.4966,0.4966,0.4966,0.4966,0.4966
train,0.61,0.48,0.49,0.42,0.44,0.42,0.56,0.49,0.48,0.53,0.52,0.6,0.39,0.56,0.56,0.57,0.53,0.49,0.49,0.55,0.66,0.48,0.47,0.51,0.46,0.57,0.41,0.51,0.55,0.5,0.63,0.45,0.51,0.52,0.49
time, 32.33034420013428
6, 6, 242
test,0.4966,0.4966,0.4966,0.5034,0.5034,0.5414,0.5712,0.5695,0.6279,0.62,0.6722,0.6759,0.6829,0.6337,0.6464,0.6341,0.6481,0.6348,0.6362,0.6371,0.636,0.6581,0.6798,0.722,0.6882,0.7441,0.7659,0.7439,0.7527,0.7272,0.7711,0.7993,0.8024,0.7943,0.8176
train,0.44,0.5,0.46,0.44,0.56,0.58,0.55,0.53,0.6,0.68,0.73,0.69,0.68,0.69,0.59,0.6,0.65,0.64,0.65,0.63,0.73,0.6,0.68,0.68,0.72,0.65,0.83,0.72,0.77,0.7,0.88,0.76,0.76,0.81,0.84
time, 33.31205892562866
6, 7, 284
test,0.5034,0.5034,0.4966,0.5348,0.6029,0.6174,0.6882,0.6907,0.6716,0.7035,0.6914,0.718,0.7423,0.7438,0.7576,0.7431,0.7616,0.7577,0.7172,0.7359,0.7517,0.7365,0.7416,0.7366,0.7495,0.7427,0.7449,0.7354,0.751,0.7285,0.7323,0.745,0.7443,0.7138,0.6823
train,0.51,0.56,0.47,0.53,0.67,0.54,0.67,0.71,0.67,0.67,0.77,0.7,0.79,0.7,0.85,0.76,0.81,0.77,0.71,0.77,0.82,0.77,0.73,0.79,0.61,0.79,0.71,0.69,0.76,0.71,0.68,0.72,0.68,0.66,0.74
time, 34.29363393783569
6, 8, 326
test,0.5034,0.5034,0.4966,0.4966,0.5034,0.4966,0.4966,0.4966,0.6501,0.7214,0.7458,0.6685,0.7122,0.7341,0.7229,0.6952,0.7069,0.7475,0.7094,0.7352,0.7229,0.6857,0.7351,0.7461,0.7328,0.7427,0.7439,0.7407,0.6993,0.727,0.7452,0.718,0.7215,0.7382,0.727
train,0.48,0.47,0.47,0.59,0.52,0.5,0.46,0.59,0.62,0.71,0.76,0.7,0.73,0.78,0.77,0.7,0.74,0.72,0.76,0.79,0.81,0.7,0.78,0.8,0.74,0.77,0.78,0.7,0.69,0.78,0.75,0.73,0.69,0.82,0.74
time, 35.21431112289429
6, 9, 368
test,0.4966,0.4966,0.4966,0.5034,0.5034,0.4966,0.5034,0.5034,0.6788,0.6204,0.7184,0.7105,0.718,0.7148,0.7289,0.7325,0.7224,0.7267,0.7294,0.7287,0.7335,0.7303,0.7304,0.737,0.7352,0.7365,0.7361,0.7374,0.743,0.7401,0.7344,0.7348,0.7425,0.7436,0.7976
train,0.53,0.51,0.47,0.58,0.55,0.44,0.56,0.53,0.66,0.58,0.7,0.74,0.86,0.69,0.83,0.66,0.7,0.75,0.75,0.66,0.72,0.76,0.73,0.69,0.77,0.69,0.86,0.71,0.69,0.73,0.7,0.73,0.77,0.71,0.82
time, 35.96013021469116
6, 10, 410
test,0.5034,0.5034,0.5034,0.5034,0.5034,0.4966,0.4966,0.4966,0.5034,0.4966,0.4966,0.4966,0.5034,0.5034,0.5034,0.4966,0.4966,0.4966,0.5034,0.5034,0.4966,0.4966,0.5034,0.5034,0.4966,0.4966,0.5034,0.4966,0.5034,0.5034,0.5034,0.4966,0.5034,0.5034,0.5034
train,0.46,0.55,0.44,0.53,0.55,0.54,0.44,0.57,0.43,0.49,0.44,0.58,0.49,0.49,0.5,0.5,0.47,0.51,0.48,0.49,0.42,0.56,0.51,0.54,0.62,0.6,0.51,0.54,0.58,0.52,0.52,0.52,0.56,0.58,0.59
time, 37.01594591140747
7, 1, 37
test,0.541,0.4266,0.5058,0.5963,0.5481,0.6,0.524,0.5568,0.5458,0.6488,0.6404,0.6445,0.6769,0.5462,0.6164,0.6498,0.6505,0.6337,0.6626,0.6669,0.6569,0.649,0.6221,0.6687,0.6813,0.6675,0.6816,0.6497,0.6786,0.6782,0.6423,0.6792,0.6847,0.6757,0.6716
train,0.52,0.49,0.43,0.61,0.59,0.69,0.58,0.59,0.53,0.71,0.71,0.71,0.65,0.56,0.56,0.59,0.67,0.63,0.65,0.69,0.67,0.72,0.69,0.62,0.73,0.7,0.69,0.58,0.72,0.74,0.58,0.62,0.68,0.63,0.6
time, 28.211225271224976
7, 2, 93
test,0.4966,0.4966,0.5782,0.5535,0.5622,0.537,0.5493,0.5476,0.5093,0.5239,0.6009,0.613,0.5975,0.6036,0.6298,0.6383,0.6463,0.6614,0.6693,0.6877,0.7082,0.7115,0.7133,0.7183,0.7176,0.7239,0.7281,0.7335,0.7497,0.7492,0.7519,0.7554,0.766,0.7722,0.7667
train,0.65,0.52,0.61,0.53,0.52,0.49,0.58,0.56,0.55,0.39,0.53,0.58,0.67,0.63,0.67,0.6,0.68,0.73,0.71,0.67,0.73,0.7,0.67,0.65,0.7,0.78,0.73,0.71,0.77,0.76,0.72,0.72,0.81,0.81,0.77
time, 29.31401824951172
7, 3, 149
test,0.4966,0.4966,0.5373,0.5338,0.5643,0.6751,0.6644,0.6033,0.6006,0.623,0.6472,0.6505,0.6652,0.6917,0.7097,0.7262,0.7221,0.7386,0.75,0.7689,0.7868,0.7824,0.7838,0.7942,0.799,0.801,0.8015,0.7983,0.8024,0.8039,0.8053,0.8133,0.8194,0.8216,0.8291
train,0.62,0.51,0.56,0.53,0.54,0.65,0.65,0.65,0.71,0.64,0.55,0.7,0.59,0.7,0.69,0.67,0.73,0.69,0.72,0.84,0.78,0.78,0.78,0.85,0.79,0.83,0.76,0.79,0.78,0.81,0.86,0.87,0.81,0.86,0.81
time, 30.386592388153076
7, 4, 205
test,0.5034,0.5034,0.4966,0.5199,0.5125,0.5514,0.5597,0.5659,0.7108,0.6931,0.6963,0.7041,0.7109,0.7207,0.7141,0.7131,0.7254,0.7168,0.7235,0.729,0.7209,0.7285,0.7375,0.7709,0.802,0.7941,0.7972,0.7968,0.8018,0.7977,0.7967,0.8042,0.8035,0.8084,0.8201
train,0.51,0.48,0.54,0.53,0.53,0.48,0.57,0.53,0.76,0.63,0.73,0.7,0.75,0.7,0.73,0.81,0.79,0.6,0.71,0.8,0.77,0.72,0.77,0.83,0.8,0.8,0.86,0.79,0.78,0.75,0.75,0.86,0.85,0.83,0.8
time, 31.44938826560974
7, 5, 261
test,0.5034,0.5034,0.5034,0.5353,0.4966,0.5319,0.5656,0.5751,0.6417,0.7044,0.6661,0.7306,0.6956,0.7084,0.7247,0.72,0.7531,0.7709,0.7742,0.7953,0.8023,0.8089,0.8132,0.8164,0.8232,0.8264,0.8323,0.8368,0.8463,0.8534,0.857,0.8618,0.8702,0.8548,0.877
train,0.51,0.48,0.55,0.49,0.51,0.4,0.47,0.56,0.67,0.71,0.61,0.71,0.7,0.73,0.72,0.73,0.68,0.75,0.81,0.8,0.81,0.8,0.76,0.8,0.81,0.8,0.86,0.81,0.9,0.78,0.91,0.86,0.86,0.88,0.86
time, 32.514596939086914
7, 6, 317
test,0.5034,0.5034,0.5034,0.4966,0.522,0.5034,0.4966,0.6178,0.642,0.7068,0.716,0.7572,0.7619,0.7632,0.7647,0.7639,0.7669,0.7649,0.7653,0.7706,0.77,0.787,0.7758,0.7999,0.8021,0.8089,0.8082,0.8474,0.8488,0.8542,0.8605,0.8643,0.8606,0.8643,0.8641
train,0.57,0.51,0.52,0.47,0.6,0.51,0.56,0.65,0.59,0.8,0.68,0.74,0.75,0.84,0.77,0.74,0.75,0.82,0.81,0.79,0.78,0.79,0.8,0.82,0.84,0.74,0.84,0.82,0.85,0.77,0.83,0.89,0.9,0.86,0.89
time, 33.492024183273315
7, 7, 373
test,0.5034,0.5034,0.5034,0.5034,0.5034,0.4966,0.4966,0.5034,0.4966,0.5034,0.4966,0.4966,0.5034,0.5034,0.5034,0.5034,0.5034,0.4966,0.5034,0.4966,0.5034,0.4966,0.5034,0.5034,0.4966,0.5034,0.4966,0.4966,0.4966,0.5034,0.4966,0.4966,0.5034,0.4966,0.5034
train,0.52,0.47,0.45,0.47,0.42,0.56,0.5,0.36,0.5,0.51,0.65,0.47,0.45,0.52,0.55,0.55,0.52,0.47,0.59,0.54,0.44,0.47,0.5,0.44,0.47,0.5,0.47,0.48,0.47,0.48,0.49,0.56,0.5,0.58,0.5
time, 34.36088442802429
7, 8, 429
test,0.4966,0.4966,0.5034,0.4966,0.6116,0.6538,0.6592,0.6713,0.6655,0.6923,0.7989,0.801,0.8346,0.8144,0.7833,0.8205,0.8588,0.8524,0.8501,0.8447,0.869,0.8715,0.8671,0.8591,0.8747,0.8613,0.8569,0.8763,0.8739,0.8763,0.8764,0.8767,0.8804,0.877,0.8761
train,0.54,0.52,0.5,0.56,0.59,0.6,0.59,0.69,0.68,0.69,0.76,0.69,0.81,0.83,0.77,0.77,0.83,0.74,0.83,0.82,0.88,0.9,0.88,0.85,0.88,0.8,0.87,0.87,0.81,0.88,0.87,0.86,0.87,0.88,0.9
time, 35.17236876487732
7, 9, 485
test,0.5034,0.5034,0.4966,0.5034,0.5034,0.5034,0.5425,0.4966,0.6779,0.6933,0.7024,0.7058,0.7067,0.7067,0.7078,0.7068,0.7018,0.7077,0.7066,0.7077,0.7083,0.7089,0.7085,0.7085,0.707,0.7087,0.7077,0.7101,0.7091,0.7082,0.7095,0.7098,0.7079,0.7091,0.7081
train,0.48,0.5,0.49,0.46,0.42,0.45,0.49,0.41,0.69,0.75,0.67,0.7,0.75,0.65,0.64,0.67,0.66,0.78,0.67,0.74,0.66,0.72,0.73,0.74,0.65,0.69,0.73,0.73,0.71,0.74,0.75,0.7,0.74,0.69,0.74
time, 36.12015390396118
7, 10, 541
test,0.4966,0.4966,0.4966,0.4966,0.5034,0.5034,0.6784,0.6751,0.6957,0.702,0.7059,0.7009,0.7103,0.711,0.7132,0.7183,0.7211,0.7214,0.7246,0.7259,0.7146,0.7154,0.8428,0.8566,0.8545,0.8545,0.8501,0.8677,0.8669,0.8581,0.8611,0.8583,0.8709,0.874,0.8772
train,0.53,0.6,0.57,0.48,0.5,0.5,0.67,0.68,0.71,0.61,0.66,0.71,0.69,0.64,0.67,0.63,0.69,0.67,0.73,0.69,0.73,0.72,0.88,0.82,0.81,0.84,0.85,0.81,0.77,0.85,0.85,0.86,0.86,0.92,0.8
time, 36.57073712348938
8, 1, 42
test,0.4966,0.4961,0.5532,0.5534,0.5249,0.5541,0.5673,0.5757,0.5749,0.5723,0.5753,0.57,0.5781,0.5735,0.5836,0.5769,0.5735,0.5809,0.5916,0.5799,0.5945,0.5788,0.5947,0.6024,0.6007,0.6017,0.5975,0.5996,0.6037,0.5997,0.6055,0.6424,0.6557,0.6739,0.6608
train,0.49,0.4,0.51,0.56,0.55,0.62,0.62,0.59,0.61,0.48,0.56,0.59,0.58,0.6,0.53,0.67,0.55,0.54,0.51,0.58,0.67,0.54,0.62,0.57,0.6,0.63,0.61,0.65,0.52,0.61,0.59,0.63,0.63,0.62,0.62
time, 27.57715129852295
8, 2, 114
test,0.5034,0.5034,0.4812,0.5852,0.5896,0.5984,0.612,0.6362,0.6311,0.6649,0.6776,0.6711,0.6678,0.6845,0.6915,0.6919,0.6923,0.7018,0.7057,0.7078,0.7112,0.7152,0.7219,0.7236,0.7303,0.739,0.7439,0.7469,0.75,0.7528,0.7566,0.7593,0.7583,0.7586,0.7538
train,0.54,0.49,0.58,0.5,0.66,0.7,0.67,0.63,0.61,0.61,0.69,0.6,0.64,0.73,0.74,0.63,0.76,0.74,0.74,0.82,0.73,0.74,0.73,0.73,0.77,0.67,0.77,0.79,0.75,0.74,0.73,0.85,0.73,0.77,0.8
time, 28.890201568603516
8, 3, 186
test,0.4966,0.4966,0.5844,0.5609,0.659,0.6471,0.6487,0.6763,0.6932,0.6996,0.7328,0.7513,0.7579,0.7754,0.7591,0.7684,0.7785,0.7823,0.7689,0.7868,0.7886,0.7869,0.7864,0.7897,0.7885,0.7866,0.7733,0.7898,0.7891,0.7827,0.7807,0.7686,0.7726,0.7767,0.7772
train,0.47,0.53,0.58,0.57,0.62,0.57,0.62,0.75,0.68,0.7,0.73,0.75,0.69,0.7,0.83,0.72,0.82,0.79,0.73,0.71,0.77,0.77,0.81,0.73,0.77,0.79,0.79,0.81,0.77,0.79,0.76,0.81,0.84,0.85,0.77
time, 30.587881565093994
8, 4, 258
test,0.5034,0.5533,0.5034,0.5699,0.5712,0.6267,0.603,0.6448,0.6509,0.742,0.7828,0.7768,0.7813,0.7868,0.8126,0.8284,0.8319,0.8323,0.8309,0.8327,0.8211,0.8377,0.8306,0.8365,0.8391,0.8387,0.838,0.8374,0.837,0.8394,0.8398,0.839,0.8399,0.8392,0.8382
train,0.52,0.65,0.46,0.59,0.58,0.6,0.57,0.66,0.64,0.81,0.81,0.74,0.76,0.85,0.84,0.83,0.85,0.89,0.88,0.84,0.77,0.85,0.86,0.88,0.8,0.73,0.84,0.85,0.87,0.77,0.85,0.82,0.87,0.75,0.8
time, 31.80113387107849
8, 5, 330
test,0.5034,0.5034,0.4966,0.4966,0.5581,0.6382,0.5763,0.6414,0.6496,0.6889,0.669,0.7184,0.705,0.7589,0.7647,0.7679,0.7846,0.7948,0.7971,0.8196,0.7954,0.8229,0.8291,0.8356,0.8445,0.8472,0.8436,0.8175,0.8503,0.8618,0.8625,0.8627,0.8633,0.863,0.8697
train,0.52,0.51,0.58,0.51,0.56,0.64,0.62,0.64,0.62,0.67,0.71,0.78,0.74,0.72,0.73,0.73,0.73,0.81,0.78,0.88,0.8,0.75,0.85,0.82,0.84,0.85,0.85,0.75,0.83,0.91,0.85,0.86,0.84,0.83,0.89
time, 32.19386553764343
8, 6, 402
test,0.5034,0.5034,0.4831,0.5417,0.6223,0.6541,0.7287,0.7927,0.8369,0.8478,0.8654,0.8702,0.8728,0.8745,0.8769,0.8765,0.8793,0.8767,0.8784,0.881,0.8814,0.8816,0.8815,0.8877,0.8823,0.8821,0.8907,0.8878,0.8877,0.8868,0.8917,0.8947,0.8942,0.8937,0.8934
train,0.41,0.45,0.42,0.54,0.6,0.63,0.8,0.8,0.79,0.88,0.8,0.86,0.88,0.91,0.83,0.91,0.89,0.88,0.91,0.93,0.91,0.88,0.86,0.9,0.87,0.88,0.86,0.91,0.92,0.9,0.83,0.9,0.88,0.93,0.88
time, 33.5295889377594
8, 7, 474
test,0.4966,0.4966,0.4966,0.5636,0.5034,0.6202,0.6101,0.6707,0.7167,0.7633,0.7721,0.7715,0.7711,0.7727,0.7776,0.7829,0.7858,0.7943,0.7899,0.8197,0.8159,0.8215,0.8315,0.8457,0.8473,0.8559,0.8619,0.8559,0.8625,0.8654,0.8719,0.8808,0.8829,0.8895,0.888
train,0.52,0.58,0.47,0.6,0.49,0.72,0.6,0.61,0.79,0.76,0.78,0.76,0.77,0.78,0.74,0.71,0.86,0.84,0.84,0.8,0.79,0.86,0.84,0.8,0.85,0.86,0.89,0.89,0.89,0.9,0.95,0.86,0.91,0.93,0.91
time, 34.73675298690796
8, 8, 546
test,0.4966,0.4966,0.4966,0.4966,0.4966,0.5034,0.4966,0.5034,0.4966,0.5034,0.4966,0.4966,0.5034,0.5566,0.5034,0.6832,0.7172,0.7215,0.7268,0.723,0.7248,0.7323,0.7366,0.7371,0.7425,0.7455,0.7823,0.8168,0.8206,0.8225,0.8281,0.8243,0.8284,0.8155,0.8361
train,0.55,0.63,0.45,0.55,0.52,0.5,0.43,0.42,0.43,0.52,0.57,0.54,0.42,0.62,0.45,0.67,0.65,0.72,0.66,0.71,0.75,0.77,0.75,0.82,0.72,0.77,0.8,0.86,0.84,0.8,0.9,0.83,0.81,0.87,0.85
time, 35.545562982559204
8, 9, 618
test,0.5034,0.5034,0.5034,0.5034,0.5034,0.5034,0.4966,0.5034,0.5363,0.6952,0.7589,0.7576,0.7594,0.7627,0.7762,0.7958,0.8056,0.8127,0.8182,0.8209,0.8233,0.824,0.8147,0.8239,0.8334,0.8281,0.8278,0.8366,0.8412,0.8419,0.8452,0.8505,0.8534,0.8527,0.8538
train,0.53,0.56,0.57,0.54,0.5,0.51,0.46,0.47,0.62,0.69,0.8,0.76,0.73,0.74,0.77,0.86,0.89,0.81,0.77,0.8,0.75,0.8,0.81,0.85,0.87,0.83,0.85,0.89,0.87,0.87,0.83,0.85,0.86,0.85,0.83
time, 36.686049938201904
8, 10, 690
test,0.5034,0.5034,0.4966,0.4966,0.5034,0.5788,0.6454,0.6589,0.6739,0.679,0.7451,0.7591,0.7795,0.7871,0.8189,0.8151,0.8515,0.829,0.8724,0.8602,0.8789,0.8604,0.8787,0.8718,0.8938,0.8944,0.889,0.8863,0.8859,0.8938,0.8865,0.9008,0.898,0.9038,0.8996
train,0.45,0.47,0.48,0.48,0.51,0.55,0.69,0.65,0.59,0.67,0.74,0.78,0.81,0.84,0.86,0.81,0.88,0.76,0.88,0.81,0.92,0.91,0.9,0.9,0.86,0.9,0.85,0.96,0.89,0.88,0.86,0.89,0.94,0.93,0.89
time, 37.477100133895874
9, 1, 47
test,0.5272,0.5299,0.521,0.4824,0.5112,0.5293,0.5302,0.5487,0.5685,0.5676,0.6242,0.6261,0.6157,0.6165,0.6357,0.6457,0.653,0.626,0.6237,0.615,0.6186,0.5961,0.6074,0.5988,0.6039,0.604,0.6089,0.6124,0.6224,0.6231,0.6233,0.607,0.6099,0.6322,0.608
train,0.5,0.51,0.55,0.41,0.56,0.51,0.63,0.5,0.58,0.55,0.65,0.63,0.62,0.5,0.58,0.65,0.66,0.66,0.6,0.68,0.62,0.63,0.59,0.61,0.56,0.55,0.56,0.6,0.61,0.63,0.59,0.58,0.68,0.68,0.64
time, 28.224620580673218
9, 2, 137
test,0.5034,0.5034,0.5642,0.4778,0.4923,0.4966,0.4966,0.5929,0.6451,0.6421,0.6296,0.6655,0.6572,0.6796,0.6803,0.7169,0.6928,0.726,0.7309,0.6967,0.6982,0.725,0.7391,0.7313,0.7308,0.7356,0.7307,0.7467,0.7389,0.7379,0.7472,0.7284,0.7436,0.7422,0.7405
train,0.51,0.45,0.55,0.45,0.54,0.49,0.53,0.66,0.71,0.69,0.64,0.65,0.53,0.71,0.71,0.73,0.68,0.7,0.75,0.71,0.74,0.62,0.7,0.75,0.73,0.75,0.75,0.76,0.76,0.69,0.71,0.82,0.69,0.77,0.71
time, 29.373326301574707
9, 3, 227
test,0.4966,0.5055,0.5034,0.5212,0.6614,0.6847,0.697,0.7045,0.709,0.6981,0.7051,0.7067,0.7119,0.738,0.7253,0.7584,0.7255,0.7273,0.7287,0.7678,0.7924,0.8132,0.8156,0.8291,0.8457,0.8539,0.8587,0.8668,0.8637,0.865,0.879,0.8744,0.8732,0.8745,0.8826
train,0.55,0.54,0.62,0.59,0.65,0.72,0.72,0.65,0.69,0.64,0.59,0.77,0.63,0.74,0.67,0.75,0.76,0.67,0.71,0.77,0.79,0.83,0.84,0.85,0.85,0.86,0.9,0.93,0.84,0.86,0.8,0.86,0.89,0.86,0.89
time, 30.82848048210144
9, 4, 317
test,0.4966,0.4966,0.5034,0.5034,0.5776,0.5368,0.5852,0.5808,0.5911,0.6028,0.6429,0.6691,0.6754,0.699,0.6998,0.7197,0.7252,0.7029,0.7721,0.7742,0.7865,0.7822,0.7917,0.807,0.8312,0.8391,0.8368,0.8553,0.8669,0.8706,0.8753,0.877,0.8798,0.881,0.8934
train,0.47,0.49,0.5,0.52,0.65,0.55,0.58,0.53,0.52,0.66,0.61,0.7,0.67,0.72,0.64,0.75,0.69,0.68,0.74,0.82,0.79,0.79,0.78,0.77,0.83,0.83,0.79,0.84,0.87,0.87,0.85,0.9,0.88,0.91,0.87
time, 31.985018491744995
9, 5, 407
test,0.5221,0.4966,0.556,0.5865,0.5779,0.6642,0.6679,0.7366,0.7305,0.7408,0.7201,0.7418,0.7389,0.7393,0.7388,0.7359,0.7312,0.7428,0.7371,0.7479,0.7378,0.7328,0.7338,0.7502,0.7714,0.7799,0.779,0.781,0.7743,0.777,0.7797,0.7781,0.781,0.7802,0.7817
train,0.63,0.47,0.61,0.55,0.65,0.58,0.57,0.71,0.66,0.79,0.69,0.81,0.76,0.71,0.69,0.77,0.76,0.74,0.79,0.76,0.74,0.78,0.76,0.73,0.73,0.77,0.78,0.81,0.77,0.78,0.76,0.77,0.74,0.77,0.84
time, 33.08686280250549
9, 6, 497
test,0.4966,0.4966,0.4966,0.559,0.5637,0.5238,0.6876,0.6575,0.706,0.7207,0.759,0.7594,0.8014,0.8059,0.8103,0.8191,0.8189,0.825,0.8234,0.8254,0.8301,0.8285,0.8264,0.8327,0.8387,0.8406,0.8376,0.8394,0.8305,0.848,0.8455,0.8392,0.8467,0.8495,0.8503
train,0.65,0.49,0.53,0.56,0.59,0.57,0.68,0.69,0.73,0.85,0.74,0.74,0.88,0.73,0.83,0.83,0.83,0.8,0.83,0.82,0.76,0.83,0.84,0.8,0.87,0.82,0.84,0.86,0.84,0.89,0.85,0.84,0.85,0.89,0.89
time, 34.08448576927185
9, 7, 587
test,0.4966,0.4966,0.5034,0.5279,0.5034,0.5359,0.5929,0.628,0.6788,0.8112,0.8854,0.8975,0.903,0.9077,0.9135,0.9141,0.9224,0.9192,0.9259,0.9275,0.9328,0.9348,0.9332,0.9392,0.9365,0.9454,0.9424,0.9445,0.952,0.9548,0.9642,0.9724,0.9748,0.9736,0.9782
train,0.47,0.54,0.52,0.56,0.46,0.54,0.65,0.68,0.7,0.85,0.91,0.84,0.93,0.86,0.93,0.93,0.84,0.88,0.96,0.97,0.91,0.96,0.94,0.93,0.96,0.97,0.97,0.96,0.96,0.94,0.97,0.99,0.97,0.99,0.98
time, 34.94322609901428
9, 8, 677
test,0.5034,0.5034,0.4966,0.5034,0.5034,0.6311,0.7216,0.7349,0.7464,0.758,0.7674,0.7704,0.7803,0.7808,0.7816,0.7892,0.7944,0.7972,0.8006,0.7974,0.7978,0.8045,0.8035,0.8031,0.8067,0.8105,0.8123,0.8185,0.8176,0.8198,0.8148,0.8183,0.8194,0.819,0.8525
train,0.45,0.47,0.51,0.45,0.52,0.59,0.67,0.79,0.8,0.85,0.72,0.8,0.82,0.73,0.8,0.75,0.78,0.77,0.8,0.83,0.86,0.83,0.81,0.81,0.8,0.82,0.84,0.86,0.84,0.8,0.85,0.79,0.82,0.83,0.88
time, 35.93066120147705
9, 9, 767
test,0.5034,0.5034,0.5034,0.5034,0.5034,0.6505,0.7684,0.7953,0.8027,0.809,0.8157,0.8198,0.8249,0.8276,0.8344,0.8428,0.851,0.8577,0.8547,0.8663,0.8656,0.892,0.8944,0.8908,0.9011,0.8965,0.8949,0.9078,0.9075,0.9084,0.9037,0.8973,0.8969,0.9075,0.9095
train,0.5,0.52,0.59,0.57,0.49,0.66,0.73,0.79,0.73,0.9,0.83,0.81,0.78,0.76,0.9,0.89,0.86,0.9,0.8,0.86,0.91,0.86,0.88,0.93,0.88,0.87,0.93,0.9,0.91,0.91,0.96,0.92,0.91,0.91,0.91
time, 37.03932189941406
9, 10, 857
test,0.5034,0.5034,0.5034,0.5034,0.4966,0.4966,0.5034,0.4966,0.4966,0.5034,0.4966,0.4966,0.4966,0.5034,0.4966,0.4966,0.4966,0.5034,0.4966,0.4966,0.5034,0.5034,0.4966,0.4966,0.5034,0.5034,0.4966,0.4966,0.4966,0.4966,0.4966,0.5034,0.5034,0.4966,0.4966
train,0.51,0.52,0.51,0.52,0.45,0.43,0.48,0.48,0.46,0.55,0.59,0.47,0.38,0.55,0.53,0.47,0.58,0.53,0.51,0.48,0.62,0.45,0.56,0.44,0.53,0.51,0.5,0.52,0.49,0.65,0.43,0.57,0.5,0.43,0.51
time, 38.616302728652954
10, 1, 52
test,0.5034,0.5042,0.5104,0.5442,0.6031,0.5733,0.5779,0.6242,0.5446,0.6137,0.5975,0.5958,0.616,0.6244,0.6284,0.6151,0.6058,0.6239,0.6063,0.6217,0.6212,0.6252,0.6476,0.6406,0.6247,0.6406,0.6704,0.6566,0.6448,0.6366,0.6367,0.6426,0.6352,0.6416,0.6438
train,0.49,0.43,0.54,0.67,0.67,0.56,0.59,0.66,0.53,0.53,0.64,0.64,0.58,0.6,0.7,0.63,0.51,0.67,0.7,0.63,0.63,0.6,0.62,0.6,0.61,0.69,0.74,0.62,0.55,0.61,0.63,0.65,0.61,0.55,0.6
time, 28.15547275543213
10, 2, 162
test,0.4966,0.4966,0.5084,0.5239,0.647,0.6887,0.7166,0.6572,0.6866,0.7144,0.7063,0.7183,0.6894,0.6862,0.6892,0.6983,0.6872,0.6899,0.6967,0.7057,0.6978,0.7031,0.7049,0.7143,0.7148,0.7133,0.7273,0.716,0.7269,0.7281,0.7272,0.7316,0.7402,0.7443,0.752
train,0.58,0.48,0.58,0.51,0.55,0.76,0.77,0.68,0.72,0.72,0.76,0.71,0.68,0.74,0.74,0.64,0.73,0.64,0.72,0.71,0.67,0.66,0.7,0.7,0.76,0.77,0.73,0.7,0.71,0.75,0.77,0.71,0.78,0.72,0.74
time, 29.61559009552002
10, 3, 272
test,0.5034,0.5034,0.4966,0.5211,0.5034,0.637,0.7037,0.7235,0.7355,0.7911,0.7804,0.7939,0.7956,0.7982,0.8147,0.808,0.8179,0.8242,0.8271,0.8305,0.835,0.834,0.8348,0.8363,0.8388,0.8373,0.8378,0.8405,0.8354,0.8418,0.8403,0.8405,0.8432,0.8437,0.843
train,0.46,0.46,0.53,0.57,0.57,0.58,0.72,0.72,0.74,0.81,0.83,0.77,0.78,0.81,0.79,0.81,0.79,0.86,0.81,0.88,0.85,0.72,0.87,0.84,0.93,0.83,0.83,0.82,0.86,0.78,0.86,0.8,0.89,0.82,0.83
time, 31.013340950012207
10, 4, 382
test,0.4966,0.5034,0.4913,0.5658,0.6634,0.662,0.6868,0.7375,0.7604,0.7692,0.8149,0.8558,0.866,0.8711,0.8787,0.8807,0.8812,0.8867,0.8933,0.8987,0.9026,0.9015,0.905,0.9054,0.9044,0.9065,0.9091,0.9067,0.9064,0.9095,0.9105,0.9128,0.9128,0.9138,0.9134
train,0.46,0.54,0.49,0.47,0.76,0.67,0.7,0.71,0.8,0.87,0.76,0.89,0.84,0.82,0.77,0.85,0.94,0.82,0.9,0.94,0.87,0.88,0.89,0.89,0.89,0.9,0.89,0.93,0.89,0.92,0.89,0.92,0.9,0.89,0.9
time, 32.21585488319397
10, 5, 492
test,0.4966,0.4966,0.552,0.5713,0.5573,0.6321,0.5813,0.7456,0.7471,0.7729,0.7448,0.7775,0.7772,0.7796,0.7772,0.7889,0.8011,0.8272,0.8067,0.8432,0.8589,0.8586,0.8617,0.8611,0.8637,0.8626,0.8644,0.8327,0.8685,0.8664,0.8698,0.8671,0.8609,0.8651,0.8684
train,0.59,0.45,0.5,0.51,0.59,0.67,0.61,0.76,0.81,0.76,0.78,0.76,0.76,0.75,0.82,0.84,0.8,0.82,0.81,0.83,0.88,0.84,0.84,0.92,0.83,0.83,0.86,0.87,0.85,0.88,0.89,0.9,0.92,0.88,0.92
time, 33.26942324638367
10, 6, 602
test,0.4966,0.4966,0.6749,0.6571,0.7628,0.832,0.8537,0.8672,0.8802,0.9031,0.9162,0.9256,0.9404,0.9492,0.957,0.971,0.9857,0.9919,0.9917,0.9952,0.9972,0.9992,0.9992,1.0,1.0,0.9986,1.0,1.0,1.0,1.0,1.0,1.0,0.9999,0.9997,1.0
train,0.45,0.49,0.68,0.59,0.75,0.72,0.85,0.87,0.91,0.94,0.91,0.93,0.9,0.94,0.92,0.96,0.99,0.99,1.0,1.0,1.0,1.0,1.0,1.0,1.0,1.0,1.0,1.0,1.0,1.0,1.0,1.0,1.0,1.0,1.0
time, 34.308762550354004
10, 7, 712
test,0.4966,0.4966,0.4966,0.6187,0.7113,0.7797,0.7944,0.7977,0.7999,0.8278,0.8481,0.8514,0.8673,0.8756,0.8735,0.8802,0.8782,0.8823,0.9094,0.9132,0.9152,0.9168,0.9168,0.902,0.9204,0.9158,0.9193,0.9221,0.9199,0.9246,0.9232,0.9172,0.928,0.9267,0.9298
train,0.47,0.51,0.59,0.6,0.74,0.81,0.79,0.77,0.76,0.81,0.8,0.87,0.91,0.84,0.89,0.8,0.9,0.87,0.86,0.94,0.94,0.93,0.93,0.88,0.9,0.88,0.92,0.95,0.87,0.91,0.91,0.94,0.91,0.93,0.93
time, 35.32917523384094
10, 8, 822
test,0.5034,0.5034,0.4966,0.7026,0.7458,0.8411,0.9003,0.9296,0.9681,0.9871,0.9779,0.9928,0.9926,0.9977,0.9996,0.9978,0.9994,0.982,0.9988,1.0,0.9988,0.9979,0.9999,1.0,1.0,0.9995,0.994,0.9944,1.0,0.9997,0.9997,0.9992,0.9993,0.9999,1.0
train,0.5,0.56,0.52,0.7,0.75,0.77,0.9,0.92,0.99,0.99,0.95,1.0,0.98,1.0,1.0,1.0,1.0,0.99,1.0,1.0,0.98,1.0,1.0,1.0,1.0,1.0,1.0,1.0,1.0,1.0,1.0,1.0,0.99,1.0,1.0
time, 36.33607769012451
10, 9, 932
test,0.4966,0.4966,0.4966,0.4966,0.4966,0.4966,0.4966,0.4966,0.5034,0.5034,0.5034,0.5034,0.5034,0.5034,0.4966,0.4966,0.5034,0.5034,0.5034,0.4966,0.4966,0.5034,0.4966,0.4966,0.4966,0.4966,0.4966,0.4966,0.5034,0.4966,0.4966,0.4966,0.4966,0.4966,0.4966
train,0.55,0.54,0.37,0.5,0.5,0.53,0.44,0.51,0.54,0.4,0.42,0.48,0.49,0.48,0.52,0.43,0.36,0.52,0.44,0.55,0.53,0.53,0.57,0.5,0.54,0.44,0.52,0.48,0.48,0.58,0.58,0.37,0.41,0.44,0.47
time, 37.47045040130615
10, 10, 1042
test,0.4966,0.5034,0.5034,0.4966,0.4966,0.5034,0.4966,0.4966,0.6423,0.7312,0.7898,0.8196,0.7931,0.831,0.8331,0.8425,0.8431,0.8486,0.8505,0.8667,0.873,0.8709,0.8811,0.8852,0.8796,0.8918,0.8969,0.9014,0.9051,0.901,0.9073,0.8871,0.9105,0.9158,0.9183
train,0.6,0.49,0.45,0.5,0.57,0.5,0.48,0.44,0.6,0.76,0.76,0.85,0.83,0.81,0.85,0.81,0.84,0.9,0.88,0.91,0.78,0.9,0.89,0.94,0.82,0.87,0.89,0.9,0.86,0.9,0.9,0.88,0.92,0.91,0.91
time, 39.09317445755005
