1, 1, 7
test,0.4966,0.4966,0.4966,0.4966,0.4966,0.4966,0.4966,0.4966,0.4966,0.4966,0.4966,0.4966,0.4966,0.4966,0.4966,0.4966,0.4966,0.4966,0.4966,0.4966,0.4966,0.4966,0.4966,0.4966,0.4966,0.4966,0.4966,0.5034,0.5034,0.4966,0.5034,0.5034,0.5034,0.5034,0.5034
train,0.53,0.58,0.52,0.48,0.47,0.56,0.48,0.48,0.5,0.46,0.52,0.5,0.45,0.44,0.51,0.47,0.52,0.44,0.56,0.44,0.56,0.58,0.48,0.52,0.47,0.46,0.53,0.61,0.49,0.52,0.49,0.51,0.49,0.59,0.45
time, 29.086769342422485
1, 2, 9
test,0.5034,0.5034,0.5034,0.5034,0.5034,0.5034,0.5034,0.5034,0.5034,0.5034,0.5034,0.5034,0.5034,0.5034,0.5034,0.5034,0.5034,0.5034,0.5034,0.5034,0.5034,0.5034,0.5034,0.5034,0.4966,0.4966,0.4966,0.5034,0.4966,0.5034,0.4966,0.4966,0.4966,0.4966,0.4966
train,0.44,0.49,0.55,0.52,0.48,0.55,0.52,0.52,0.52,0.5,0.53,0.47,0.35,0.53,0.56,0.42,0.51,0.53,0.53,0.58,0.53,0.44,0.51,0.44,0.51,0.54,0.49,0.52,0.44,0.44,0.5,0.57,0.53,0.48,0.51
time, 29.275566339492798
1, 3, 11
test,0.4966,0.4966,0.4966,0.4966,0.4966,0.4966,0.4966,0.4966,0.4966,0.4966,0.4966,0.4966,0.4966,0.4966,0.4966,0.5034,0.5034,0.5034,0.5034,0.4966,0.5034,0.5034,0.5034,0.5034,0.5034,0.4966,0.4966,0.4966,0.5034,0.5034,0.5034,0.5034,0.4966,0.4966,0.4966
train,0.48,0.5,0.52,0.49,0.52,0.43,0.5,0.56,0.48,0.5,0.53,0.55,0.46,0.51,0.41,0.52,0.49,0.48,0.56,0.53,0.48,0.56,0.47,0.58,0.58,0.46,0.43,0.57,0.45,0.49,0.55,0.52,0.48,0.51,0.53
time, 30.166017770767212
1, 4, 13
test,0.4966,0.4966,0.4966,0.4966,0.4966,0.4966,0.4966,0.4966,0.4966,0.4966,0.4966,0.4966,0.4966,0.4966,0.4966,0.4966,0.4966,0.4966,0.4966,0.4966,0.4966,0.4966,0.5034,0.5034,0.5034,0.5034,0.4966,0.5034,0.5034,0.5034,0.4966,0.5034,0.5034,0.4966,0.4966
train,0.54,0.44,0.46,0.51,0.49,0.56,0.46,0.49,0.5,0.43,0.5,0.61,0.49,0.52,0.52,0.53,0.56,0.51,0.54,0.48,0.45,0.54,0.56,0.52,0.49,0.55,0.59,0.52,0.49,0.53,0.57,0.45,0.52,0.52,0.45
time, 30.30880880355835
1, 5, 15
test,0.4966,0.4966,0.4966,0.4966,0.4966,0.4966,0.4966,0.4966,0.4966,0.4966,0.4966,0.4966,0.4966,0.4966,0.4966,0.4966,0.4966,0.4966,0.5034,0.5034,0.5034,0.5034,0.4966,0.5034,0.5034,0.5034,0.5034,0.5034,0.5034,0.5034,0.4966,0.5034,0.5034,0.5034,0.5034
train,0.5,0.52,0.45,0.49,0.43,0.54,0.44,0.52,0.44,0.55,0.45,0.42,0.49,0.52,0.46,0.53,0.52,0.57,0.48,0.45,0.48,0.51,0.49,0.49,0.53,0.53,0.5,0.43,0.5,0.47,0.47,0.44,0.52,0.48,0.53
time, 31.73150897026062
1, 6, 17
test,0.5034,0.5034,0.5034,0.5034,0.5034,0.5034,0.5034,0.5034,0.5034,0.5034,0.5034,0.5034,0.4966,0.4966,0.4966,0.4966,0.4966,0.5034,0.5034,0.4966,0.5034,0.5034,0.5034,0.5034,0.5034,0.4966,0.4966,0.4966,0.4966,0.5034,0.5034,0.4966,0.4966,0.5034,0.4966
train,0.53,0.53,0.48,0.49,0.52,0.47,0.41,0.49,0.52,0.46,0.54,0.61,0.56,0.53,0.54,0.5,0.43,0.5,0.48,0.61,0.48,0.49,0.47,0.54,0.5,0.52,0.5,0.54,0.6,0.45,0.47,0.53,0.52,0.53,0.53
time, 34.03916072845459
1, 7, 19
test,0.5034,0.5034,0.5034,0.5034,0.5034,0.5034,0.5034,0.5034,0.5034,0.5034,0.5034,0.5034,0.5034,0.5034,0.5034,0.5034,0.5034,0.5034,0.4966,0.4966,0.4966,0.4966,0.5034,0.4966,0.4966,0.4966,0.4966,0.4966,0.5034,0.5034,0.4966,0.4966,0.5034,0.4966,0.4966
train,0.49,0.53,0.51,0.42,0.52,0.53,0.45,0.46,0.5,0.46,0.41,0.53,0.53,0.51,0.49,0.53,0.43,0.55,0.59,0.47,0.44,0.45,0.53,0.58,0.38,0.42,0.45,0.49,0.51,0.48,0.53,0.47,0.57,0.44,0.58
time, 32.31596922874451
1, 8, 21
test,0.5034,0.5034,0.5034,0.5034,0.5034,0.5034,0.5034,0.5034,0.5034,0.5034,0.5034,0.5034,0.5034,0.5034,0.5034,0.5034,0.5034,0.5034,0.5034,0.5034,0.5034,0.4966,0.5034,0.5034,0.5034,0.5034,0.5034,0.4966,0.5034,0.5034,0.5034,0.5034,0.5034,0.5034,0.4966
train,0.47,0.48,0.5,0.54,0.51,0.55,0.45,0.44,0.47,0.53,0.51,0.43,0.53,0.53,0.55,0.51,0.43,0.5,0.51,0.45,0.53,0.54,0.59,0.49,0.48,0.54,0.42,0.54,0.55,0.42,0.4,0.57,0.39,0.49,0.54
time, 33.384175300598145
1, 9, 23
test,0.4966,0.4966,0.4966,0.4966,0.4966,0.4966,0.4966,0.4966,0.4966,0.4966,0.4966,0.4966,0.4966,0.4966,0.4966,0.4966,0.4966,0.4966,0.4966,0.4966,0.4966,0.4966,0.4966,0.4966,0.4966,0.5034,0.5034,0.5034,0.5034,0.5034,0.5034,0.5034,0.4966,0.4966,0.4966
train,0.53,0.48,0.45,0.49,0.44,0.44,0.46,0.56,0.5,0.54,0.57,0.45,0.57,0.55,0.56,0.49,0.57,0.5,0.41,0.4,0.53,0.56,0.46,0.6,0.5,0.43,0.44,0.54,0.45,0.48,0.49,0.51,0.47,0.48,0.46
time, 32.917906761169434
1, 10, 25
test,0.4966,0.4966,0.4966,0.5034,0.4966,0.4966,0.4966,0.4966,0.4966,0.4966,0.4966,0.4966,0.4966,0.4966,0.4966,0.4966,0.4966,0.4966,0.5034,0.4966,0.4966,0.4966,0.5034,0.4966,0.4966,0.4966,0.5034,0.4966,0.4966,0.5034,0.5034,0.5034,0.4966,0.5034,0.5034
train,0.59,0.52,0.43,0.46,0.46,0.47,0.5,0.41,0.44,0.57,0.49,0.43,0.49,0.5,0.51,0.53,0.5,0.48,0.52,0.45,0.5,0.48,0.46,0.48,0.48,0.59,0.59,0.57,0.58,0.54,0.56,0.52,0.59,0.42,0.49
time, 35.39503574371338
2, 1, 12
test,0.5034,0.5034,0.503,0.5394,0.5628,0.5507,0.4733,0.4915,0.5284,0.5147,0.5306,0.4561,0.5438,0.5342,0.4923,0.5242,0.4888,0.4933,0.5317,0.4993,0.5669,0.4863,0.5143,0.4966,0.5034,0.5297,0.4571,0.4908,0.4758,0.5188,0.5501,0.5727,0.4984,0.4768,0.4355
train,0.51,0.52,0.52,0.57,0.53,0.57,0.51,0.46,0.58,0.56,0.62,0.58,0.51,0.52,0.5,0.48,0.5,0.48,0.63,0.48,0.49,0.5,0.49,0.54,0.56,0.4,0.45,0.47,0.53,0.45,0.56,0.53,0.49,0.48,0.48
time, 27.931446313858032
2, 2, 18
test,0.4966,0.4966,0.4966,0.5291,0.5315,0.5219,0.5193,0.5164,0.5267,0.525,0.5205,0.5192,0.5171,0.5132,0.5223,0.5384,0.5451,0.5246,0.5636,0.5998,0.5371,0.6,0.5898,0.5508,0.5534,0.5767,0.5996,0.5843,0.5706,0.6027,0.6445,0.6055,0.5424,0.5557,0.65
train,0.42,0.47,0.47,0.5,0.53,0.5,0.43,0.44,0.57,0.51,0.5,0.61,0.5,0.57,0.51,0.54,0.51,0.45,0.5,0.59,0.52,0.64,0.56,0.54,0.6,0.52,0.58,0.5,0.63,0.64,0.57,0.56,0.48,0.61,0.65
time, 28.94129467010498
2, 3, 24
test,0.5034,0.5034,0.5034,0.5034,0.5034,0.5034,0.5034,0.5034,0.5034,0.5034,0.5034,0.5034,0.5034,0.5034,0.5034,0.5034,0.5034,0.5034,0.5394,0.5558,0.5589,0.5546,0.562,0.5576,0.6044,0.6005,0.5895,0.5859,0.5796,0.5851,0.5836,0.6294,0.6662,0.6743,0.6773
train,0.48,0.52,0.43,0.57,0.49,0.44,0.46,0.44,0.55,0.55,0.5,0.53,0.46,0.58,0.57,0.51,0.47,0.53,0.65,0.58,0.53,0.56,0.52,0.53,0.57,0.67,0.59,0.55,0.49,0.57,0.61,0.66,0.69,0.7,0.72
time, 29.970105171203613
2, 4, 30
test,0.5034,0.5034,0.5034,0.5034,0.5034,0.5034,0.5034,0.5034,0.4966,0.5034,0.4966,0.5034,0.5034,0.4966,0.5034,0.5034,0.5034,0.5034,0.5034,0.5034,0.4966,0.4966,0.5034,0.5034,0.5034,0.4966,0.4966,0.4966,0.4966,0.4966,0.4966,0.4966,0.5034,0.4966,0.5034
train,0.42,0.54,0.54,0.56,0.54,0.52,0.44,0.56,0.4,0.44,0.49,0.54,0.55,0.61,0.56,0.51,0.51,0.54,0.51,0.49,0.51,0.47,0.6,0.45,0.51,0.52,0.52,0.45,0.47,0.5,0.46,0.42,0.55,0.53,0.5
time, 31.13611674308777
2, 5, 36
test,0.4966,0.4966,0.4966,0.4966,0.4966,0.4966,0.4966,0.4966,0.4966,0.4966,0.5034,0.5034,0.5034,0.5034,0.5034,0.5034,0.5034,0.4966,0.5034,0.5034,0.5034,0.5034,0.4966,0.4966,0.5034,0.4966,0.5034,0.5034,0.5034,0.5034,0.4966,0.4966,0.4966,0.5034,0.5034
train,0.49,0.48,0.52,0.52,0.48,0.52,0.45,0.57,0.53,0.53,0.48,0.42,0.53,0.46,0.43,0.52,0.51,0.42,0.53,0.56,0.49,0.49,0.53,0.54,0.44,0.52,0.52,0.6,0.43,0.42,0.54,0.49,0.52,0.49,0.54
time, 32.07743215560913
2, 6, 42
test,0.5034,0.5034,0.5034,0.5034,0.5034,0.5034,0.5034,0.5034,0.5034,0.5034,0.5034,0.5034,0.5034,0.5034,0.4966,0.5034,0.5034,0.4966,0.4966,0.4966,0.4966,0.5034,0.5034,0.4966,0.4966,0.4966,0.4966,0.5034,0.5034,0.5034,0.4966,0.5034,0.4966,0.4966,0.4966
train,0.55,0.41,0.52,0.52,0.44,0.53,0.52,0.51,0.37,0.44,0.46,0.48,0.5,0.48,0.5,0.59,0.49,0.57,0.44,0.54,0.47,0.48,0.55,0.51,0.49,0.52,0.53,0.54,0.44,0.48,0.46,0.42,0.54,0.5,0.45
time, 32.960880279541016
2, 7, 48
test,0.4966,0.4966,0.4966,0.4966,0.4966,0.5034,0.5034,0.4966,0.4966,0.4966,0.4966,0.4966,0.4966,0.4966,0.4966,0.4966,0.4966,0.4966,0.4966,0.4966,0.5034,0.5034,0.4966,0.4966,0.4966,0.4966,0.4966,0.4966,0.5034,0.5034,0.5034,0.5034,0.4966,0.4966,0.4966
train,0.51,0.5,0.56,0.57,0.62,0.59,0.63,0.46,0.58,0.54,0.5,0.51,0.54,0.46,0.6,0.48,0.56,0.57,0.43,0.44,0.46,0.53,0.5,0.52,0.51,0.56,0.42,0.52,0.53,0.56,0.46,0.51,0.54,0.44,0.56
time, 33.53460669517517
2, 8, 54
test,0.5034,0.5034,0.5034,0.4966,0.4966,0.4966,0.5034,0.4966,0.5034,0.5034,0.5034,0.5034,0.5034,0.5034,0.5034,0.5034,0.5034,0.4966,0.5034,0.4966,0.4966,0.4966,0.4966,0.5034,0.5034,0.4966,0.5034,0.4966,0.4966,0.4966,0.4966,0.4966,0.5034,0.4966,0.5034
train,0.48,0.51,0.54,0.46,0.48,0.46,0.57,0.51,0.45,0.5,0.43,0.51,0.56,0.46,0.44,0.57,0.52,0.5,0.47,0.5,0.48,0.55,0.58,0.61,0.46,0.55,0.53,0.52,0.5,0.45,0.49,0.5,0.55,0.57,0.48
time, 34.420515298843384
2, 9, 60
test,0.4966,0.5034,0.5034,0.5034,0.5034,0.5034,0.4966,0.5034,0.5034,0.5034,0.4966,0.4966,0.5034,0.4966,0.5034,0.5034,0.5034,0.4966,0.4966,0.4966,0.4966,0.5034,0.5034,0.5034,0.5034,0.4966,0.4966,0.4966,0.5034,0.5034,0.5034,0.5034,0.5034,0.5034,0.5034
train,0.53,0.51,0.5,0.54,0.54,0.44,0.46,0.55,0.56,0.49,0.54,0.48,0.42,0.47,0.52,0.48,0.43,0.47,0.57,0.45,0.53,0.43,0.49,0.41,0.42,0.51,0.47,0.51,0.52,0.43,0.51,0.55,0.55,0.51,0.51
time, 35.25382661819458
2, 10, 66
test,0.4966,0.4966,0.4966,0.4966,0.4966,0.5034,0.4966,0.4966,0.5034,0.5034,0.4966,0.4966,0.5034,0.4966,0.4966,0.4966,0.5034,0.5034,0.4966,0.5034,0.5034,0.4966,0.4966,0.4966,0.5034,0.5034,0.5034,0.4966,0.4966,0.4966,0.4966,0.4966,0.4966,0.4966,0.4966
train,0.52,0.53,0.56,0.5,0.51,0.51,0.5,0.52,0.51,0.46,0.48,0.46,0.47,0.56,0.42,0.44,0.47,0.59,0.6,0.51,0.45,0.47,0.5,0.43,0.48,0.43,0.54,0.52,0.58,0.47,0.4,0.53,0.56,0.39,0.49
time, 35.9446234703064
3, 1, 17
test,0.4966,0.4966,0.4966,0.4966,0.4966,0.4966,0.4898,0.4932,0.5034,0.5034,0.4765,0.5034,0.4966,0.4966,0.4966,0.4966,0.5034,0.5034,0.5034,0.5034,0.5034,0.5034,0.5034,0.5034,0.5034,0.5034,0.4966,0.5485,0.4966,0.5034,0.4289,0.4966,0.4966,0.4966,0.4966
train,0.54,0.54,0.38,0.49,0.54,0.5,0.41,0.51,0.5,0.47,0.45,0.5,0.52,0.57,0.45,0.58,0.53,0.48,0.43,0.47,0.53,0.47,0.5,0.53,0.55,0.5,0.55,0.59,0.55,0.47,0.39,0.48,0.52,0.49,0.48
time, 28.04847002029419
3, 2, 29
test,0.4966,0.4966,0.4966,0.4966,0.4966,0.4966,0.5064,0.5034,0.5034,0.4966,0.4658,0.4966,0.4966,0.4966,0.4966,0.5104,0.5034,0.5034,0.5034,0.5034,0.5034,0.4966,0.4966,0.4966,0.5034,0.4657,0.4966,0.4966,0.5034,0.5034,0.5034,0.5034,0.5438,0.5034,0.4966
train,0.6,0.6,0.49,0.56,0.54,0.56,0.55,0.54,0.44,0.57,0.39,0.53,0.48,0.48,0.54,0.5,0.45,0.52,0.59,0.41,0.56,0.51,0.53,0.46,0.5,0.48,0.51,0.44,0.56,0.49,0.45,0.54,0.69,0.46,0.52
time, 29.07368516921997
3, 3, 41
test,0.4966,0.4966,0.4966,0.5679,0.5709,0.555,0.5184,0.5667,0.5501,0.5428,0.5427,0.5258,0.5434,0.5459,0.548,0.5363,0.5665,0.5493,0.5467,0.5536,0.5698,0.5564,0.5742,0.5737,0.5569,0.5652,0.5764,0.5769,0.5708,0.594,0.5981,0.6125,0.6086,0.6126,0.6146
train,0.57,0.52,0.53,0.56,0.59,0.56,0.47,0.67,0.62,0.54,0.57,0.53,0.48,0.52,0.54,0.54,0.56,0.61,0.57,0.57,0.6,0.58,0.56,0.6,0.59,0.53,0.59,0.58,0.65,0.59,0.58,0.62,0.62,0.64,0.64
time, 29.965930700302124
3, 4, 53
test,0.4966,0.504,0.4458,0.4966,0.4647,0.469,0.5034,0.5317,0.4952,0.4966,0.4966,0.4966,0.4966,0.5017,0.5034,0.4969,0.4966,0.5063,0.4966,0.4951,0.5161,0.4829,0.4916,0.4966,0.4966,0.4968,0.5034,0.4823,0.5034,0.5034,0.5034,0.5034,0.5034,0.4901,0.4966
train,0.51,0.46,0.47,0.52,0.49,0.52,0.49,0.5,0.46,0.57,0.47,0.55,0.49,0.5,0.42,0.46,0.46,0.51,0.36,0.49,0.48,0.48,0.44,0.52,0.47,0.58,0.52,0.46,0.6,0.57,0.43,0.47,0.49,0.53,0.48
time, 31.250869512557983
3, 5, 65
test,0.4966,0.4966,0.4966,0.4966,0.5317,0.5347,0.5303,0.5408,0.5405,0.5336,0.5344,0.5297,0.5299,0.5334,0.5375,0.5325,0.5426,0.5373,0.5407,0.5518,0.5452,0.5631,0.5682,0.5674,0.575,0.5743,0.5818,0.6006,0.6601,0.6469,0.6652,0.6668,0.6649,0.6652,0.6706
train,0.55,0.47,0.53,0.54,0.55,0.6,0.5,0.55,0.44,0.52,0.56,0.48,0.56,0.55,0.56,0.56,0.63,0.5,0.43,0.57,0.57,0.58,0.54,0.52,0.57,0.59,0.55,0.69,0.59,0.69,0.7,0.69,0.59,0.63,0.63
time, 32.08853507041931
3, 6, 77
test,0.5034,0.5034,0.5034,0.5034,0.5034,0.5772,0.5922,0.581,0.5955,0.6064,0.6007,0.6016,0.63,0.65,0.6521,0.6553,0.657,0.6567,0.6587,0.6577,0.6595,0.6609,0.6593,0.6605,0.6624,0.6619,0.6619,0.6632,0.6624,0.6617,0.6601,0.6646,0.6675,0.6668,0.6668
train,0.49,0.47,0.53,0.46,0.53,0.6,0.55,0.56,0.7,0.68,0.58,0.66,0.57,0.61,0.68,0.68,0.74,0.61,0.69,0.57,0.67,0.66,0.63,0.66,0.53,0.73,0.62,0.75,0.68,0.65,0.72,0.66,0.77,0.67,0.74
time, 32.93303036689758
3, 7, 89
test,0.4966,0.5034,0.5034,0.5034,0.5034,0.5034,0.4966,0.5034,0.4966,0.4966,0.5034,0.4966,0.5034,0.5034,0.4966,0.5681,0.5506,0.5897,0.6202,0.633,0.6393,0.6386,0.6415,0.6394,0.6428,0.6429,0.6422,0.6466,0.6495,0.6507,0.6545,0.6529,0.6556,0.6566,0.657
train,0.45,0.45,0.54,0.44,0.5,0.53,0.49,0.4,0.47,0.52,0.47,0.55,0.49,0.44,0.53,0.59,0.54,0.55,0.62,0.59,0.65,0.58,0.65,0.57,0.7,0.71,0.68,0.6,0.72,0.68,0.66,0.59,0.67,0.66,0.56
time, 33.94003129005432
3, 8, 101
test,0.4966,0.4966,0.4966,0.4966,0.4966,0.4966,0.5034,0.5034,0.4966,0.5034,0.4966,0.4966,0.4966,0.5034,0.5034,0.5034,0.5034,0.5034,0.5034,0.4966,0.4966,0.5034,0.4966,0.5034,0.4966,0.4966,0.4966,0.4966,0.5034,0.5034,0.4966,0.4966,0.5034,0.4966,0.4966
train,0.43,0.45,0.55,0.59,0.41,0.53,0.55,0.45,0.44,0.57,0.51,0.43,0.52,0.51,0.53,0.46,0.55,0.53,0.48,0.5,0.52,0.52,0.49,0.47,0.43,0.53,0.47,0.61,0.59,0.53,0.48,0.61,0.5,0.58,0.52
time, 34.58421730995178
3, 9, 113
test,0.4966,0.4966,0.4966,0.5034,0.5034,0.5034,0.4966,0.4966,0.4966,0.4966,0.5034,0.4966,0.4966,0.4966,0.5034,0.4966,0.4966,0.5034,0.5034,0.5034,0.5034,0.4966,0.5034,0.5034,0.5034,0.4966,0.4966,0.4966,0.4966,0.4966,0.5034,0.4966,0.4966,0.4966,0.4966
train,0.5,0.5,0.39,0.53,0.49,0.46,0.52,0.54,0.56,0.59,0.62,0.53,0.46,0.51,0.45,0.55,0.48,0.5,0.54,0.45,0.52,0.55,0.51,0.48,0.49,0.55,0.43,0.49,0.54,0.44,0.49,0.49,0.43,0.44,0.53
time, 35.45190143585205
3, 10, 125
test,0.5034,0.5034,0.5034,0.5034,0.5034,0.5034,0.5034,0.4966,0.5034,0.4966,0.4966,0.5034,0.5034,0.4966,0.4966,0.5034,0.4966,0.4966,0.5034,0.4966,0.5034,0.5034,0.5034,0.4966,0.4966,0.5034,0.4966,0.4966,0.5034,0.4966,0.4966,0.4966,0.5034,0.4966,0.4966
train,0.52,0.51,0.6,0.52,0.5,0.52,0.5,0.51,0.47,0.58,0.45,0.4,0.46,0.49,0.48,0.51,0.53,0.45,0.48,0.5,0.54,0.43,0.57,0.53,0.47,0.51,0.55,0.53,0.46,0.48,0.52,0.38,0.44,0.54,0.47
time, 36.28862023353577
4, 1, 22
test,0.4966,0.4966,0.4966,0.4966,0.4966,0.5236,0.5509,0.5025,0.4928,0.5425,0.5349,0.491,0.4998,0.4972,0.5281,0.5728,0.5533,0.5257,0.5718,0.5433,0.5372,0.4919,0.4708,0.5072,0.487,0.4985,0.4924,0.4972,0.5538,0.5074,0.5435,0.5424,0.532,0.5428,0.5422
train,0.45,0.52,0.46,0.47,0.54,0.54,0.48,0.47,0.45,0.56,0.5,0.55,0.47,0.4,0.51,0.61,0.6,0.57,0.61,0.46,0.48,0.53,0.43,0.5,0.5,0.5,0.44,0.52,0.61,0.43,0.53,0.54,0.53,0.6,0.45
time, 28.0414719581604
4, 2, 42
test,0.4966,0.5229,0.5939,0.5304,0.5554,0.5151,0.4833,0.5565,0.6094,0.6036,0.5307,0.5633,0.5736,0.5295,0.5989,0.6005,0.5936,0.5934,0.5962,0.5992,0.5983,0.6042,0.6909,0.6702,0.6502,0.6035,0.703,0.706,0.6923,0.6864,0.6247,0.6126,0.6688,0.6808,0.6884
train,0.54,0.53,0.61,0.53,0.53,0.53,0.47,0.57,0.66,0.54,0.54,0.58,0.66,0.47,0.53,0.64,0.55,0.6,0.61,0.6,0.58,0.64,0.73,0.59,0.64,0.5,0.77,0.7,0.75,0.67,0.66,0.6,0.72,0.6,0.72
time, 28.948893547058105
4, 3, 62
test,0.5034,0.4966,0.4966,0.5342,0.5317,0.5222,0.519,0.5157,0.5287,0.5221,0.5034,0.5198,0.5057,0.5269,0.5034,0.5196,0.5146,0.5188,0.5313,0.5237,0.5179,0.5264,0.5292,0.5302,0.5271,0.5314,0.5283,0.5342,0.5298,0.531,0.5312,0.5345,0.5352,0.5333,0.5347
train,0.5,0.48,0.46,0.5,0.51,0.6,0.54,0.52,0.52,0.5,0.49,0.58,0.51,0.51,0.53,0.44,0.51,0.52,0.5,0.44,0.65,0.54,0.6,0.57,0.43,0.57,0.53,0.57,0.65,0.61,0.44,0.47,0.66,0.47,0.51
time, 30.115530729293823
4, 4, 82
test,0.4966,0.4966,0.4966,0.4966,0.5525,0.5642,0.5841,0.5887,0.5863,0.5851,0.601,0.6031,0.6051,0.6069,0.6065,0.6081,0.642,0.6481,0.6477,0.6317,0.6444,0.6423,0.6351,0.6335,0.638,0.6194,0.6395,0.6418,0.657,0.6632,0.6729,0.6984,0.716,0.7256,0.7062
train,0.52,0.49,0.42,0.53,0.52,0.58,0.57,0.67,0.61,0.63,0.59,0.62,0.63,0.66,0.58,0.57,0.54,0.69,0.68,0.66,0.66,0.66,0.6,0.63,0.74,0.66,0.69,0.67,0.58,0.61,0.7,0.65,0.69,0.79,0.81
time, 31.29952573776245
4, 5, 102
test,0.5034,0.5034,0.5034,0.5034,0.4966,0.4966,0.5034,0.5034,0.5034,0.5034,0.5034,0.5034,0.5034,0.5034,0.5034,0.4966,0.5034,0.5034,0.4966,0.4966,0.5034,0.5034,0.5034,0.4966,0.4966,0.4966,0.4966,0.4966,0.5034,0.4966,0.4966,0.4966,0.5034,0.5034,0.5034
train,0.5,0.52,0.46,0.53,0.44,0.44,0.48,0.52,0.53,0.48,0.39,0.52,0.49,0.53,0.54,0.49,0.48,0.45,0.47,0.51,0.45,0.48,0.46,0.52,0.51,0.53,0.54,0.48,0.63,0.46,0.47,0.54,0.51,0.45,0.58
time, 32.2255072593689
4, 6, 122
test,0.5034,0.5034,0.5034,0.5034,0.5034,0.5034,0.5034,0.5034,0.5034,0.5034,0.4966,0.4966,0.4966,0.4966,0.5034,0.4966,0.4966,0.4966,0.4966,0.4966,0.5034,0.5034,0.5034,0.5034,0.5034,0.5034,0.5034,0.4966,0.4966,0.4966,0.5034,0.5034,0.5034,0.5034,0.5034
train,0.53,0.47,0.46,0.52,0.54,0.54,0.56,0.39,0.42,0.52,0.5,0.52,0.43,0.49,0.49,0.42,0.53,0.43,0.55,0.56,0.49,0.42,0.6,0.55,0.48,0.51,0.48,0.49,0.56,0.55,0.43,0.44,0.5,0.54,0.46
time, 33.00619339942932
4, 7, 142
test,0.4966,0.4966,0.4966,0.5034,0.5034,0.5034,0.4966,0.4966,0.5034,0.5034,0.5034,0.5034,0.5034,0.4966,0.5034,0.4966,0.5034,0.5034,0.4966,0.5727,0.5667,0.6137,0.6412,0.6527,0.648,0.6468,0.6446,0.6475,0.648,0.6498,0.6481,0.6444,0.632,0.6228,0.618
train,0.6,0.58,0.41,0.54,0.5,0.6,0.54,0.42,0.48,0.49,0.45,0.5,0.41,0.53,0.46,0.52,0.5,0.42,0.54,0.56,0.61,0.61,0.64,0.66,0.66,0.64,0.64,0.69,0.66,0.67,0.66,0.71,0.71,0.59,0.53
time, 33.89992380142212
4, 8, 162
test,0.4966,0.4966,0.4966,0.4966,0.5034,0.4966,0.4966,0.5034,0.5034,0.5034,0.5034,0.4966,0.4966,0.4966,0.5034,0.4966,0.4966,0.4966,0.4966,0.4966,0.4966,0.4966,0.4966,0.5034,0.5034,0.4966,0.4966,0.5034,0.5034,0.5034,0.5034,0.4966,0.4966,0.5034,0.5034
train,0.43,0.44,0.52,0.47,0.57,0.49,0.52,0.47,0.58,0.43,0.47,0.52,0.44,0.46,0.46,0.52,0.4,0.54,0.6,0.51,0.52,0.47,0.41,0.51,0.44,0.52,0.53,0.48,0.51,0.49,0.39,0.48,0.5,0.5,0.51
time, 34.82286596298218
4, 9, 182
test,0.5034,0.5034,0.5034,0.5034,0.5034,0.4966,0.5034,0.5034,0.5034,0.4966,0.4966,0.5034,0.5034,0.5034,0.4966,0.4966,0.4966,0.5034,0.5034,0.5034,0.4966,0.4966,0.5034,0.4966,0.4966,0.4966,0.5034,0.5034,0.4966,0.5034,0.4966,0.4966,0.5034,0.4966,0.4966
train,0.48,0.53,0.52,0.48,0.58,0.45,0.45,0.52,0.48,0.51,0.52,0.43,0.51,0.4,0.54,0.56,0.51,0.57,0.62,0.53,0.48,0.5,0.51,0.56,0.4,0.55,0.46,0.44,0.52,0.43,0.51,0.45,0.46,0.44,0.49
time, 35.42400622367859
4, 10, 202
test,0.4966,0.4966,0.4966,0.4966,0.4966,0.4966,0.4966,0.4966,0.4966,0.4966,0.4966,0.5034,0.4966,0.5034,0.5034,0.4966,0.5034,0.5034,0.5034,0.4966,0.4966,0.4966,0.4966,0.4966,0.4966,0.5034,0.4966,0.4966,0.4966,0.5034,0.4966,0.4966,0.5034,0.5034,0.5034
train,0.51,0.51,0.45,0.47,0.41,0.46,0.45,0.53,0.56,0.45,0.46,0.51,0.46,0.56,0.48,0.44,0.53,0.52,0.47,0.47,0.47,0.55,0.58,0.35,0.55,0.49,0.43,0.42,0.52,0.49,0.42,0.47,0.56,0.38,0.52
time, 36.36944079399109
5, 1, 27
test,0.5034,0.551,0.5744,0.6019,0.568,0.602,0.5965,0.5864,0.586,0.5916,0.593,0.5814,0.5868,0.5977,0.5927,0.5988,0.5962,0.5926,0.5934,0.5934,0.5959,0.5947,0.5927,0.5848,0.5943,0.5954,0.5929,0.596,0.6161,0.6112,0.6063,0.6178,0.6175,0.6148,0.6131
train,0.53,0.61,0.5,0.57,0.48,0.62,0.55,0.64,0.62,0.52,0.64,0.55,0.7,0.61,0.62,0.51,0.57,0.61,0.58,0.63,0.59,0.6,0.55,0.55,0.72,0.62,0.6,0.58,0.59,0.62,0.64,0.63,0.59,0.62,0.59
time, 28.070699214935303
5, 2, 57
test,0.5034,0.5034,0.5034,0.5034,0.5808,0.5383,0.611,0.6106,0.6143,0.6104,0.6366,0.6494,0.6453,0.6372,0.6511,0.6434,0.6598,0.6485,0.6563,0.6495,0.6466,0.6486,0.6453,0.6538,0.6565,0.6472,0.6574,0.669,0.6474,0.6505,0.6603,0.6495,0.6499,0.6543,0.6544
train,0.53,0.49,0.48,0.6,0.59,0.55,0.62,0.5,0.61,0.57,0.67,0.64,0.65,0.65,0.64,0.62,0.63,0.59,0.63,0.69,0.68,0.63,0.66,0.69,0.63,0.67,0.67,0.71,0.68,0.67,0.64,0.64,0.7,0.68,0.68
time, 29.10703420639038
5, 3, 87
test,0.4966,0.4966,0.4966,0.4966,0.4966,0.4752,0.6407,0.6497,0.6657,0.6695,0.6769,0.669,0.6685,0.6712,0.6839,0.682,0.6949,0.6839,0.6939,0.7006,0.6955,0.7065,0.699,0.6995,0.6781,0.7126,0.7137,0.6561,0.7053,0.7093,0.7074,0.7086,0.7075,0.7151,0.7136
train,0.51,0.55,0.5,0.47,0.51,0.43,0.7,0.68,0.57,0.71,0.6,0.67,0.66,0.75,0.72,0.67,0.69,0.61,0.68,0.62,0.6,0.62,0.7,0.68,0.69,0.76,0.7,0.6,0.73,0.74,0.75,0.71,0.65,0.69,0.66
time, 30.09802794456482
5, 4, 117
test,0.5034,0.5034,0.5034,0.5034,0.4966,0.605,0.5467,0.5787,0.5457,0.5494,0.5658,0.5475,0.5737,0.6016,0.6489,0.6535,0.6484,0.6471,0.6638,0.647,0.6771,0.6502,0.6551,0.6598,0.6636,0.6491,0.6747,0.652,0.6653,0.687,0.6668,0.6838,0.684,0.6538,0.6785
train,0.5,0.45,0.5,0.5,0.56,0.69,0.59,0.48,0.51,0.56,0.46,0.57,0.54,0.55,0.67,0.6,0.6,0.64,0.65,0.61,0.72,0.63,0.65,0.73,0.74,0.62,0.65,0.68,0.64,0.56,0.62,0.63,0.69,0.64,0.6
time, 31.31332230567932
5, 5, 147
test,0.5034,0.5034,0.5034,0.5034,0.5493,0.5797,0.5821,0.5723,0.5975,0.6288,0.6425,0.633,0.6479,0.6541,0.655,0.6572,0.6555,0.6594,0.6612,0.6619,0.6598,0.6666,0.6478,0.6483,0.6523,0.6539,0.6633,0.6684,0.6806,0.6847,0.6752,0.6771,0.6709,0.6757,0.7184
train,0.56,0.51,0.55,0.56,0.57,0.57,0.6,0.55,0.61,0.6,0.65,0.69,0.61,0.67,0.64,0.64,0.69,0.65,0.66,0.71,0.74,0.63,0.73,0.64,0.7,0.63,0.7,0.6,0.66,0.73,0.63,0.61,0.73,0.69,0.69
time, 32.38701510429382
5, 6, 177
test,0.4966,0.4966,0.4966,0.4966,0.4968,0.5034,0.5713,0.5493,0.5981,0.6129,0.6658,0.6813,0.6845,0.6912,0.7406,0.7704,0.7721,0.7426,0.7584,0.7567,0.7694,0.7728,0.775,0.7737,0.7747,0.7734,0.7878,0.8031,0.812,0.7772,0.8067,0.8153,0.7941,0.8115,0.8107
train,0.55,0.47,0.52,0.49,0.4,0.44,0.58,0.54,0.53,0.56,0.61,0.73,0.73,0.69,0.78,0.78,0.83,0.79,0.74,0.75,0.74,0.77,0.7,0.82,0.75,0.74,0.74,0.79,0.79,0.77,0.76,0.8,0.72,0.85,0.83
time, 33.2661497592926
5, 7, 207
test,0.5034,0.5034,0.5034,0.5034,0.5765,0.5034,0.6485,0.6971,0.7033,0.7057,0.7039,0.7064,0.7053,0.7049,0.7035,0.7065,0.7058,0.7056,0.7074,0.7049,0.7033,0.7067,0.7064,0.7081,0.7096,0.7087,0.7064,0.7037,0.7083,0.7079,0.7061,0.7092,0.7094,0.7057,0.7072
train,0.47,0.53,0.49,0.5,0.6,0.48,0.64,0.65,0.76,0.74,0.74,0.71,0.72,0.78,0.69,0.68,0.78,0.67,0.74,0.67,0.77,0.73,0.64,0.72,0.72,0.75,0.69,0.66,0.72,0.7,0.73,0.64,0.71,0.74,0.67
time, 34.14930176734924
5, 8, 237
test,0.4966,0.4966,0.5034,0.5034,0.5034,0.4966,0.4966,0.5737,0.4966,0.5811,0.6198,0.5787,0.5966,0.6294,0.6764,0.6889,0.6923,0.6954,0.6986,0.7007,0.6995,0.704,0.7072,0.7044,0.708,0.7071,0.7088,0.707,0.7083,0.7091,0.7086,0.7088,0.71,0.7103,0.7108
train,0.53,0.47,0.47,0.5,0.52,0.51,0.51,0.58,0.53,0.68,0.76,0.49,0.59,0.5,0.65,0.58,0.78,0.58,0.73,0.72,0.68,0.68,0.7,0.79,0.75,0.68,0.71,0.68,0.7,0.69,0.66,0.69,0.72,0.65,0.67
time, 35.101738691329956
5, 9, 267
test,0.5034,0.5034,0.5034,0.5034,0.4966,0.5034,0.5034,0.5034,0.5034,0.5034,0.5034,0.5034,0.4966,0.4966,0.4966,0.5034,0.5034,0.4966,0.5034,0.5034,0.4966,0.4966,0.4966,0.4966,0.4966,0.4966,0.5034,0.5034,0.5034,0.4966,0.4966,0.4966,0.4966,0.5034,0.5034
train,0.55,0.53,0.54,0.48,0.53,0.52,0.54,0.51,0.48,0.53,0.49,0.56,0.59,0.48,0.51,0.57,0.55,0.51,0.57,0.5,0.47,0.56,0.57,0.44,0.53,0.57,0.54,0.51,0.44,0.49,0.48,0.51,0.4,0.52,0.54
time, 36.073906898498535
5, 10, 297
test,0.5034,0.5034,0.5034,0.5034,0.5034,0.4966,0.5034,0.4966,0.4966,0.6289,0.6308,0.6298,0.6345,0.6436,0.6476,0.6484,0.6534,0.6542,0.6522,0.6529,0.6552,0.6568,0.6968,0.6919,0.7012,0.7016,0.7007,0.7013,0.7034,0.7025,0.7026,0.7033,0.7023,0.7023,0.7011
train,0.56,0.52,0.54,0.48,0.45,0.5,0.55,0.45,0.45,0.59,0.56,0.6,0.55,0.68,0.67,0.74,0.65,0.63,0.8,0.53,0.69,0.68,0.68,0.76,0.76,0.67,0.78,0.65,0.75,0.68,0.72,0.65,0.72,0.74,0.68
time, 37.0962438583374
6, 1, 32
test,0.5034,0.5034,0.5034,0.5034,0.5036,0.4955,0.5202,0.4978,0.5476,0.5193,0.5405,0.5239,0.5562,0.4847,0.5406,0.5232,0.5622,0.5374,0.5141,0.5244,0.4606,0.4787,0.4557,0.5312,0.4626,0.4797,0.514,0.5296,0.536,0.513,0.5112,0.5062,0.5252,0.4791,0.5104
train,0.6,0.47,0.54,0.47,0.5,0.5,0.6,0.48,0.51,0.52,0.58,0.49,0.58,0.46,0.59,0.54,0.59,0.46,0.47,0.56,0.47,0.52,0.42,0.51,0.39,0.39,0.6,0.47,0.47,0.55,0.48,0.5,0.51,0.46,0.54
time, 28.169387578964233
6, 2, 74
test,0.4966,0.5274,0.5356,0.5149,0.52,0.5656,0.5479,0.5523,0.5917,0.5158,0.4763,0.5374,0.5173,0.5594,0.563,0.578,0.5631,0.566,0.554,0.5641,0.5532,0.5573,0.5489,0.5536,0.5609,0.5492,0.5513,0.5551,0.5629,0.5804,0.5613,0.5793,0.5793,0.5756,0.5902
train,0.61,0.44,0.57,0.54,0.47,0.6,0.49,0.53,0.72,0.48,0.47,0.56,0.55,0.54,0.6,0.57,0.63,0.61,0.62,0.57,0.65,0.56,0.46,0.58,0.49,0.51,0.49,0.51,0.49,0.59,0.62,0.61,0.61,0.5,0.56
time, 29.3008816242218
6, 3, 116
test,0.4966,0.4966,0.4966,0.4966,0.4966,0.4966,0.4966,0.5542,0.5787,0.5866,0.6117,0.6029,0.6187,0.6054,0.6218,0.6228,0.6188,0.6279,0.6045,0.626,0.6214,0.6292,0.6273,0.6289,0.6359,0.6305,0.6368,0.6369,0.6388,0.6402,0.6405,0.6416,0.6429,0.6438,0.6428
train,0.45,0.5,0.58,0.48,0.43,0.6,0.5,0.46,0.62,0.54,0.56,0.67,0.65,0.6,0.56,0.66,0.63,0.63,0.66,0.68,0.57,0.68,0.66,0.6,0.62,0.58,0.67,0.69,0.62,0.67,0.65,0.66,0.62,0.54,0.67
time, 30.28910994529724
6, 4, 158
test,0.5034,0.5034,0.5034,0.5034,0.5034,0.5034,0.5034,0.5034,0.5034,0.4966,0.5034,0.5034,0.5034,0.5034,0.5034,0.5034,0.4966,0.4966,0.5034,0.4966,0.4966,0.5034,0.5034,0.5034,0.5034,0.4966,0.5034,0.5034,0.4966,0.4966,0.4966,0.4966,0.5034,0.5034,0.5034
train,0.45,0.46,0.56,0.48,0.41,0.46,0.47,0.49,0.55,0.52,0.42,0.52,0.44,0.47,0.48,0.55,0.51,0.46,0.56,0.55,0.51,0.59,0.52,0.5,0.53,0.57,0.45,0.48,0.6,0.44,0.5,0.52,0.46,0.54,0.52
time, 31.207902193069458
6, 5, 200
test,0.5034,0.4966,0.4966,0.4966,0.5428,0.6114,0.6407,0.7106,0.6993,0.6997,0.6847,0.7015,0.7027,0.7129,0.7255,0.7102,0.7129,0.7176,0.7322,0.7369,0.7402,0.7399,0.7427,0.7658,0.7682,0.7833,0.7729,0.7694,0.7711,0.7725,0.7714,0.7735,0.7721,0.7755,0.7794
train,0.43,0.55,0.53,0.53,0.54,0.65,0.57,0.73,0.71,0.72,0.74,0.64,0.63,0.67,0.79,0.55,0.7,0.65,0.82,0.78,0.83,0.78,0.68,0.81,0.79,0.81,0.79,0.79,0.83,0.77,0.77,0.84,0.77,0.81,0.75
time, 32.380433559417725
6, 6, 242
test,0.4966,0.4966,0.5034,0.5034,0.5034,0.5826,0.628,0.6541,0.6523,0.7173,0.7125,0.7388,0.7484,0.7797,0.7819,0.7719,0.7788,0.7937,0.7764,0.7737,0.7952,0.7962,0.8138,0.8003,0.815,0.7986,0.8245,0.8267,0.8314,0.8368,0.8265,0.833,0.8332,0.8371,0.8392
train,0.41,0.56,0.48,0.48,0.51,0.6,0.61,0.64,0.6,0.7,0.65,0.65,0.79,0.76,0.72,0.76,0.76,0.8,0.78,0.77,0.76,0.8,0.79,0.79,0.81,0.73,0.76,0.8,0.81,0.82,0.82,0.85,0.87,0.85,0.81
time, 33.161970138549805
6, 7, 284
test,0.5034,0.5034,0.5034,0.5034,0.4966,0.4966,0.5764,0.4966,0.6017,0.6011,0.5886,0.6094,0.623,0.6301,0.6468,0.6349,0.6284,0.6285,0.6318,0.6776,0.7186,0.7577,0.7614,0.7684,0.7659,0.7708,0.7771,0.7822,0.779,0.7848,0.7745,0.7844,0.7875,0.79,0.7867
train,0.64,0.5,0.5,0.38,0.62,0.56,0.61,0.45,0.55,0.66,0.55,0.59,0.63,0.57,0.66,0.65,0.64,0.62,0.64,0.65,0.76,0.77,0.73,0.73,0.74,0.83,0.84,0.77,0.77,0.76,0.72,0.78,0.81,0.81,0.79
time, 34.277687072753906
6, 8, 326
test,0.4966,0.4966,0.4966,0.5536,0.5034,0.5263,0.5816,0.6829,0.6836,0.6834,0.6826,0.6834,0.6804,0.7203,0.7157,0.718,0.7173,0.7227,0.722,0.7213,0.7215,0.7227,0.7252,0.7238,0.7235,0.7232,0.7219,0.7256,0.7208,0.7226,0.7229,0.7271,0.7228,0.7252,0.7265
train,0.55,0.47,0.44,0.55,0.58,0.56,0.59,0.69,0.62,0.68,0.53,0.68,0.73,0.72,0.71,0.65,0.78,0.7,0.74,0.77,0.75,0.7,0.73,0.72,0.78,0.7,0.67,0.83,0.78,0.72,0.72,0.74,0.73,0.76,0.63
time, 35.06617498397827
6, 9, 368
test,0.5034,0.5034,0.5034,0.4966,0.5034,0.5034,0.6371,0.6383,0.6429,0.6475,0.6476,0.6493,0.651,0.6502,0.6505,0.6456,0.6516,0.6485,0.6515,0.6528,0.653,0.6521,0.6533,0.6524,0.6519,0.6534,0.6521,0.6545,0.6549,0.6573,0.6547,0.6555,0.6544,0.6562,0.6578
train,0.47,0.43,0.53,0.53,0.54,0.4,0.64,0.63,0.6,0.63,0.68,0.76,0.58,0.66,0.62,0.73,0.64,0.64,0.64,0.63,0.68,0.67,0.65,0.65,0.64,0.63,0.62,0.58,0.72,0.62,0.65,0.6,0.65,0.74,0.65
time, 36.08271527290344
6, 10, 410
test,0.5034,0.5034,0.5034,0.5034,0.5034,0.5034,0.4966,0.4966,0.4966,0.5034,0.4966,0.5034,0.5034,0.5034,0.5034,0.5034,0.5034,0.4966,0.4966,0.5034,0.5034,0.5034,0.5034,0.5034,0.5034,0.5034,0.4966,0.4966,0.4966,0.4966,0.5034,0.4966,0.5034,0.5034,0.5034
train,0.47,0.62,0.53,0.5,0.51,0.48,0.55,0.33,0.55,0.48,0.51,0.44,0.51,0.48,0.43,0.5,0.47,0.5,0.53,0.43,0.51,0.55,0.46,0.41,0.58,0.47,0.51,0.54,0.45,0.47,0.55,0.51,0.54,0.35,0.51
time, 37.09766697883606
7, 1, 37
test,0.5293,0.4691,0.4609,0.5121,0.5191,0.5848,0.6006,0.6023,0.5729,0.5721,0.5601,0.5887,0.5825,0.6101,0.5378,0.6085,0.5812,0.6656,0.6382,0.6627,0.6656,0.6622,0.6008,0.5737,0.5921,0.6364,0.6518,0.6503,0.6069,0.668,0.5559,0.6312,0.6459,0.6625,0.6594
train,0.52,0.61,0.41,0.49,0.54,0.61,0.56,0.61,0.61,0.61,0.55,0.5,0.68,0.6,0.55,0.54,0.52,0.73,0.62,0.6,0.62,0.7,0.64,0.62,0.57,0.56,0.7,0.69,0.64,0.69,0.48,0.66,0.72,0.67,0.66
time, 28.16893696784973
7, 2, 93
test,0.4966,0.5119,0.4853,0.5318,0.5316,0.5449,0.5423,0.5402,0.5154,0.5234,0.5545,0.6318,0.6221,0.6487,0.6567,0.6673,0.6803,0.6985,0.7113,0.7098,0.7132,0.7167,0.7142,0.7181,0.7211,0.7226,0.7223,0.7244,0.7238,0.7203,0.7255,0.7271,0.7275,0.7261,0.7294
train,0.47,0.58,0.56,0.51,0.58,0.53,0.51,0.52,0.55,0.54,0.6,0.54,0.59,0.72,0.67,0.63,0.74,0.67,0.66,0.64,0.77,0.8,0.76,0.75,0.7,0.77,0.72,0.69,0.71,0.71,0.7,0.75,0.8,0.7,0.77
time, 29.122692584991455
7, 3, 149
test,0.5034,0.5034,0.5207,0.5441,0.5029,0.5516,0.5907,0.526,0.6089,0.646,0.6165,0.6387,0.609,0.6112,0.6313,0.6183,0.6193,0.6322,0.6472,0.6367,0.6264,0.6556,0.648,0.664,0.6635,0.676,0.6769,0.6874,0.6896,0.6928,0.7168,0.719,0.7572,0.7376,0.7352
train,0.41,0.43,0.47,0.57,0.6,0.58,0.62,0.5,0.63,0.58,0.6,0.57,0.62,0.58,0.66,0.67,0.66,0.66,0.58,0.66,0.58,0.7,0.64,0.74,0.71,0.61,0.65,0.66,0.62,0.69,0.7,0.67,0.7,0.79,0.69
time, 30.39189124107361
7, 4, 205
test,0.4966,0.4966,0.4966,0.5991,0.5797,0.633,0.6419,0.6882,0.73,0.7344,0.7321,0.7478,0.7549,0.7663,0.7524,0.7854,0.7898,0.7837,0.7883,0.7969,0.8073,0.8099,0.812,0.8227,0.8134,0.8142,0.8364,0.8403,0.8447,0.8549,0.8556,0.8609,0.8647,0.8622,0.8694
train,0.47,0.51,0.47,0.62,0.57,0.53,0.68,0.74,0.71,0.63,0.79,0.74,0.73,0.8,0.8,0.78,0.79,0.8,0.81,0.8,0.8,0.82,0.82,0.86,0.8,0.78,0.81,0.82,0.85,0.87,0.86,0.85,0.85,0.93,0.91
time, 31.591008186340332
7, 5, 261
test,0.4966,0.5034,0.5034,0.4966,0.4966,0.4966,0.4966,0.4966,0.4966,0.5169,0.5904,0.5145,0.5726,0.6309,0.6439,0.6786,0.6919,0.7508,0.7381,0.7397,0.7317,0.7282,0.7378,0.7351,0.7318,0.7451,0.7371,0.746,0.74,0.7457,0.7477,0.7636,0.7454,0.7869,0.7422
train,0.49,0.54,0.52,0.43,0.47,0.46,0.48,0.54,0.44,0.57,0.64,0.53,0.56,0.6,0.64,0.67,0.68,0.74,0.7,0.7,0.79,0.75,0.69,0.73,0.77,0.74,0.71,0.79,0.74,0.78,0.77,0.76,0.73,0.79,0.76
time, 32.64439511299133
7, 6, 317
test,0.5034,0.5034,0.4966,0.5034,0.4586,0.5034,0.5863,0.659,0.688,0.7317,0.7435,0.7513,0.7582,0.7596,0.7861,0.7962,0.851,0.8534,0.8612,0.8597,0.8665,0.8668,0.868,0.8712,0.8753,0.8773,0.8782,0.8777,0.8879,0.8887,0.8874,0.8891,0.8981,0.8981,0.8988
train,0.55,0.51,0.54,0.45,0.44,0.49,0.53,0.62,0.7,0.75,0.81,0.76,0.78,0.84,0.74,0.84,0.88,0.83,0.89,0.82,0.83,0.93,0.86,0.93,0.85,0.9,0.92,0.86,0.85,0.86,0.86,0.86,0.91,0.88,0.89
time, 33.63931083679199
7, 7, 373
test,0.4966,0.4966,0.4966,0.4966,0.4966,0.4966,0.5034,0.5693,0.7362,0.772,0.7737,0.7669,0.7756,0.7719,0.776,0.7783,0.7738,0.7756,0.7744,0.776,0.7735,0.771,0.7767,0.776,0.7779,0.7802,0.7777,0.7764,0.7754,0.7731,0.7782,0.7792,0.7788,0.7799,0.777
train,0.44,0.48,0.54,0.47,0.57,0.44,0.53,0.55,0.67,0.71,0.79,0.83,0.76,0.87,0.78,0.75,0.84,0.8,0.82,0.77,0.79,0.8,0.82,0.75,0.81,0.77,0.71,0.81,0.73,0.82,0.85,0.72,0.72,0.73,0.75
time, 34.58071303367615
7, 8, 429
test,0.4966,0.4966,0.4966,0.6661,0.7329,0.7564,0.7629,0.7619,0.7659,0.7906,0.7972,0.8004,0.801,0.7963,0.7993,0.7972,0.8001,0.8458,0.8358,0.8514,0.8442,0.8517,0.8487,0.8577,0.8568,0.8646,0.8612,0.871,0.8681,0.8772,0.8794,0.8839,0.8839,0.8902,0.8902
train,0.52,0.43,0.52,0.71,0.66,0.76,0.76,0.8,0.73,0.79,0.77,0.82,0.84,0.8,0.8,0.79,0.78,0.77,0.85,0.87,0.8,0.81,0.82,0.86,0.79,0.85,0.87,0.92,0.88,0.89,0.87,0.87,0.87,0.86,0.91
time, 35.45998954772949
7, 9, 485
test,0.5034,0.5034,0.5034,0.4925,0.4966,0.4966,0.4781,0.4703,0.5341,0.5652,0.7413,0.7638,0.8201,0.7868,0.8339,0.785,0.8259,0.7809,0.8332,0.7974,0.8503,0.8263,0.8433,0.8246,0.8564,0.7685,0.8567,0.8343,0.84,0.8456,0.8586,0.8491,0.86,0.8427,0.8395
train,0.53,0.55,0.55,0.58,0.45,0.5,0.44,0.56,0.49,0.64,0.77,0.74,0.79,0.82,0.78,0.8,0.84,0.82,0.8,0.8,0.89,0.78,0.83,0.8,0.82,0.79,0.82,0.78,0.83,0.81,0.87,0.87,0.83,0.87,0.81
time, 36.43566274642944
7, 10, 541
test,0.5034,0.5034,0.5034,0.5034,0.5034,0.5034,0.4966,0.4966,0.4966,0.4966,0.4966,0.5034,0.5034,0.5034,0.5034,0.5034,0.4966,0.4966,0.4966,0.4966,0.5034,0.5034,0.5034,0.5034,0.5034,0.4966,0.5034,0.5034,0.5034,0.5034,0.4966,0.4966,0.5034,0.5034,0.5034
train,0.45,0.46,0.51,0.42,0.44,0.55,0.48,0.49,0.43,0.52,0.49,0.6,0.52,0.44,0.43,0.6,0.49,0.45,0.49,0.52,0.5,0.51,0.49,0.44,0.42,0.45,0.49,0.49,0.5,0.4,0.45,0.5,0.61,0.49,0.51
time, 37.40097618103027
8, 1, 42
test,0.4753,0.5324,0.5011,0.4992,0.5801,0.5423,0.5529,0.5585,0.5388,0.526,0.5247,0.5377,0.5359,0.5594,0.5398,0.546,0.5437,0.5443,0.5527,0.5577,0.5489,0.5584,0.5464,0.5635,0.5657,0.5616,0.5558,0.5596,0.5597,0.5359,0.5575,0.5708,0.5683,0.5618,0.563
train,0.36,0.55,0.47,0.41,0.64,0.59,0.62,0.65,0.58,0.48,0.45,0.61,0.47,0.53,0.49,0.63,0.46,0.48,0.61,0.44,0.6,0.55,0.52,0.51,0.53,0.53,0.62,0.55,0.53,0.59,0.53,0.61,0.62,0.62,0.7
time, 28.225311756134033
8, 2, 114
test,0.5034,0.5288,0.4986,0.5399,0.6385,0.546,0.5941,0.5792,0.6075,0.5774,0.6299,0.632,0.6079,0.6443,0.6493,0.6644,0.6898,0.6987,0.711,0.7317,0.7379,0.7479,0.7623,0.7581,0.7632,0.7649,0.7676,0.77,0.772,0.7712,0.7764,0.7751,0.776,0.7743,0.7763
train,0.52,0.5,0.47,0.53,0.61,0.55,0.57,0.54,0.62,0.57,0.69,0.58,0.62,0.63,0.68,0.73,0.7,0.65,0.73,0.76,0.77,0.73,0.77,0.76,0.74,0.77,0.73,0.8,0.81,0.73,0.82,0.82,0.77,0.8,0.72
time, 29.28628444671631
8, 3, 186
test,0.4966,0.4966,0.4607,0.439,0.4734,0.4984,0.5096,0.6274,0.5448,0.5894,0.6294,0.6353,0.6343,0.6368,0.6928,0.6827,0.6917,0.7009,0.7115,0.7233,0.7222,0.7232,0.723,0.7259,0.7192,0.7263,0.7274,0.7279,0.7348,0.7553,0.759,0.762,0.7733,0.773,0.7767
train,0.57,0.36,0.45,0.51,0.45,0.48,0.53,0.64,0.54,0.66,0.67,0.71,0.59,0.67,0.67,0.75,0.74,0.71,0.65,0.68,0.71,0.79,0.72,0.69,0.76,0.75,0.69,0.72,0.67,0.79,0.77,0.73,0.81,0.72,0.75
time, 30.637384176254272
8, 4, 258
test,0.5034,0.5034,0.5015,0.5954,0.609,0.5332,0.5989,0.6438,0.7073,0.7145,0.7475,0.7313,0.7377,0.7372,0.7463,0.7489,0.7561,0.7896,0.7989,0.8042,0.8089,0.8111,0.8163,0.8163,0.8328,0.8299,0.8399,0.8447,0.8454,0.844,0.8478,0.8525,0.8514,0.8523,0.8547
train,0.55,0.54,0.54,0.64,0.64,0.5,0.62,0.64,0.66,0.74,0.73,0.63,0.72,0.76,0.72,0.77,0.74,0.79,0.79,0.81,0.82,0.86,0.81,0.86,0.8,0.85,0.9,0.87,0.87,0.79,0.87,0.85,0.79,0.82,0.86
time, 31.742588758468628
8, 5, 330
test,0.4966,0.4966,0.4966,0.5034,0.5776,0.6069,0.6264,0.6386,0.6469,0.6957,0.7326,0.7565,0.7808,0.8271,0.8351,0.8505,0.858,0.8694,0.8661,0.8737,0.879,0.8908,0.8829,0.8992,0.8987,0.9084,0.9066,0.9093,0.9076,0.9105,0.9135,0.9132,0.9112,0.9114,0.9211
train,0.49,0.45,0.57,0.51,0.56,0.57,0.6,0.65,0.68,0.57,0.79,0.76,0.77,0.86,0.84,0.88,0.84,0.89,0.82,0.82,0.89,0.87,0.9,0.92,0.87,0.93,0.89,0.95,0.91,0.92,0.95,0.94,0.92,0.89,0.9
time, 32.62016248703003
8, 6, 402
test,0.4966,0.4966,0.5376,0.5626,0.5913,0.6629,0.7444,0.7476,0.7623,0.7787,0.8014,0.7968,0.8068,0.807,0.8256,0.8192,0.8288,0.8325,0.8421,0.8493,0.8503,0.8422,0.8527,0.8564,0.8638,0.8639,0.8484,0.8735,0.8756,0.875,0.8829,0.8828,0.89,0.9012,0.9153
train,0.52,0.5,0.58,0.58,0.64,0.67,0.76,0.77,0.74,0.78,0.73,0.76,0.83,0.78,0.8,0.76,0.86,0.82,0.82,0.82,0.86,0.84,0.8,0.86,0.84,0.9,0.83,0.9,0.88,0.88,0.88,0.88,0.94,0.89,0.97
time, 33.657583236694336
8, 7, 474
test,0.4966,0.5034,0.5034,0.4966,0.5421,0.7093,0.7546,0.7775,0.7953,0.7975,0.8002,0.8045,0.8054,0.8122,0.8222,0.8246,0.8176,0.821,0.8231,0.8312,0.828,0.8172,0.8224,0.8336,0.8387,0.839,0.8363,0.8382,0.8407,0.846,0.8477,0.8428,0.8493,0.8487,0.8498
train,0.53,0.44,0.59,0.44,0.61,0.69,0.77,0.78,0.76,0.74,0.84,0.79,0.75,0.84,0.82,0.85,0.84,0.84,0.82,0.88,0.88,0.83,0.81,0.84,0.81,0.89,0.86,0.89,0.9,0.85,0.85,0.85,0.86,0.8,0.84
time, 34.31023144721985
8, 8, 546
test,0.4966,0.4966,0.4966,0.4966,0.4966,0.6501,0.7469,0.7833,0.7817,0.7987,0.8069,0.8129,0.8177,0.8185,0.8181,0.8274,0.8306,0.8358,0.8364,0.8368,0.8328,0.8367,0.8346,0.8706,0.8824,0.8797,0.8898,0.8983,0.8938,0.8927,0.9004,0.8916,0.9042,0.9074,0.9115
train,0.47,0.5,0.57,0.45,0.49,0.68,0.76,0.78,0.8,0.74,0.81,0.74,0.84,0.8,0.84,0.78,0.82,0.88,0.78,0.85,0.86,0.82,0.83,0.88,0.86,0.83,0.89,0.87,0.88,0.81,0.97,0.91,0.92,0.87,0.95
time, 35.43156123161316
8, 9, 618
test,0.4966,0.5034,0.4966,0.5898,0.6029,0.6022,0.6846,0.7154,0.7542,0.7605,0.7679,0.7554,0.7617,0.7427,0.7595,0.7717,0.7749,0.7782,0.7724,0.7717,0.7772,0.7773,0.7786,0.7834,0.7826,0.7804,0.7812,0.7835,0.7821,0.7824,0.783,0.778,0.7833,0.8007,0.814
train,0.45,0.51,0.47,0.57,0.6,0.7,0.74,0.71,0.71,0.76,0.76,0.66,0.8,0.72,0.72,0.78,0.84,0.74,0.73,0.78,0.8,0.77,0.76,0.8,0.79,0.77,0.81,0.72,0.77,0.72,0.82,0.78,0.78,0.81,0.86
time, 36.89086556434631
8, 10, 690
test,0.4966,0.4966,0.4966,0.4966,0.5034,0.7248,0.7571,0.7633,0.7985,0.8055,0.8082,0.8126,0.8066,0.8157,0.822,0.8234,0.8295,0.8317,0.8332,0.8291,0.835,0.8326,0.8355,0.8308,0.8327,0.8351,0.8359,0.8372,0.8293,0.8404,0.8347,0.8391,0.8378,0.8406,0.8414
train,0.48,0.53,0.49,0.56,0.57,0.76,0.8,0.76,0.8,0.75,0.82,0.82,0.93,0.78,0.79,0.83,0.85,0.78,0.84,0.78,0.81,0.76,0.86,0.86,0.89,0.9,0.83,0.82,0.81,0.76,0.84,0.9,0.76,0.76,0.88
time, 37.56339621543884
9, 1, 47
test,0.5257,0.5312,0.5247,0.6178,0.5974,0.6349,0.5871,0.5714,0.5553,0.5881,0.5583,0.5536,0.5941,0.5853,0.6169,0.6097,0.611,0.6135,0.6264,0.6247,0.6117,0.6315,0.6339,0.6402,0.6478,0.6176,0.6275,0.6293,0.6271,0.638,0.6588,0.6608,0.6644,0.6537,0.6471
train,0.44,0.54,0.52,0.6,0.59,0.54,0.56,0.6,0.55,0.64,0.64,0.52,0.65,0.61,0.55,0.54,0.66,0.64,0.54,0.64,0.71,0.65,0.64,0.58,0.66,0.55,0.66,0.68,0.54,0.65,0.72,0.72,0.63,0.73,0.64
time, 28.07762122154236
9, 2, 137
test,0.5034,0.5078,0.5454,0.5663,0.5985,0.6044,0.6268,0.6568,0.6691,0.6659,0.6684,0.6731,0.6843,0.6742,0.6898,0.6908,0.6941,0.6991,0.701,0.7118,0.7077,0.7141,0.7112,0.7132,0.7287,0.7213,0.7282,0.7621,0.7369,0.7741,0.7852,0.7942,0.8077,0.8146,0.8189
train,0.56,0.47,0.49,0.64,0.56,0.59,0.67,0.69,0.74,0.65,0.66,0.58,0.62,0.7,0.72,0.71,0.67,0.72,0.7,0.74,0.61,0.69,0.7,0.7,0.72,0.7,0.75,0.77,0.76,0.78,0.78,0.83,0.81,0.79,0.85
time, 29.326451778411865
9, 3, 227
test,0.4966,0.4966,0.4884,0.5535,0.5681,0.5964,0.598,0.6081,0.6539,0.6978,0.6978,0.7102,0.7288,0.7092,0.7321,0.7331,0.7496,0.7763,0.8032,0.8072,0.8263,0.8309,0.833,0.828,0.8357,0.829,0.8355,0.8425,0.8437,0.8448,0.8449,0.8459,0.8466,0.851,0.8505
train,0.52,0.49,0.43,0.59,0.6,0.58,0.57,0.58,0.68,0.72,0.71,0.67,0.7,0.72,0.8,0.73,0.86,0.76,0.81,0.76,0.82,0.86,0.87,0.89,0.79,0.79,0.83,0.88,0.84,0.84,0.82,0.86,0.89,0.83,0.88
time, 30.3476619720459
9, 4, 317
test,0.5034,0.5034,0.5034,0.5168,0.5781,0.6223,0.6133,0.6384,0.63,0.6855,0.775,0.7781,0.8123,0.8211,0.8322,0.8338,0.8469,0.8519,0.8616,0.8657,0.8743,0.8787,0.8824,0.8804,0.881,0.8964,0.898,0.891,0.8982,0.8988,0.9031,0.9028,0.9037,0.904,0.9047
train,0.48,0.37,0.52,0.56,0.6,0.59,0.54,0.62,0.62,0.69,0.75,0.75,0.74,0.79,0.79,0.86,0.78,0.89,0.82,0.88,0.87,0.86,0.82,0.83,0.9,0.87,0.9,0.86,0.9,0.85,0.92,0.9,0.94,0.91,0.91
time, 31.766874074935913
9, 5, 407
test,0.5034,0.5034,0.4966,0.5595,0.6199,0.613,0.6519,0.7604,0.8023,0.8198,0.8357,0.8447,0.8476,0.8477,0.8544,0.8546,0.8597,0.8628,0.863,0.8616,0.8731,0.875,0.8715,0.8788,0.8807,0.8684,0.8853,0.887,0.8757,0.8851,0.9005,0.8851,0.8851,0.8927,0.9143
train,0.56,0.51,0.47,0.46,0.66,0.59,0.74,0.74,0.78,0.88,0.82,0.86,0.85,0.85,0.84,0.9,0.8,0.86,0.89,0.8,0.88,0.88,0.88,0.9,0.87,0.86,0.93,0.93,0.88,0.91,0.92,0.91,0.89,0.91,0.92
time, 33.014339208602905
9, 6, 497
test,0.4966,0.5427,0.5034,0.4966,0.4966,0.4406,0.5319,0.5717,0.5968,0.6045,0.6069,0.7182,0.7899,0.7986,0.798,0.8043,0.8017,0.8099,0.8035,0.8122,0.8169,0.8217,0.8288,0.8319,0.8363,0.8408,0.8436,0.8451,0.8516,0.852,0.8584,0.8603,0.8595,0.8614,0.8634
train,0.51,0.6,0.44,0.52,0.37,0.5,0.62,0.61,0.6,0.56,0.66,0.65,0.85,0.76,0.81,0.81,0.72,0.79,0.84,0.85,0.81,0.86,0.84,0.84,0.83,0.83,0.81,0.86,0.84,0.84,0.87,0.81,0.79,0.85,0.91
time, 33.849608182907104
9, 7, 587
test,0.4966,0.4966,0.5034,0.5034,0.6023,0.7694,0.7902,0.7954,0.8017,0.8014,0.8029,0.8101,0.8127,0.8021,0.8246,0.8338,0.841,0.8478,0.855,0.8532,0.8554,0.8653,0.8683,0.8733,0.8761,0.8804,0.885,0.8787,0.8735,0.8827,0.8898,0.8963,0.8981,0.8983,0.8986
train,0.52,0.55,0.53,0.59,0.55,0.76,0.85,0.81,0.77,0.82,0.79,0.78,0.81,0.77,0.82,0.87,0.86,0.83,0.84,0.82,0.87,0.84,0.91,0.81,0.88,0.85,0.91,0.87,0.91,0.88,0.9,0.91,0.95,0.95,0.88
time, 34.92509603500366
9, 8, 677
test,0.4966,0.4966,0.4966,0.5034,0.5034,0.5695,0.62,0.6385,0.7434,0.7811,0.8233,0.8337,0.8306,0.8414,0.8382,0.8322,0.8438,0.8423,0.8503,0.8467,0.8464,0.8514,0.8458,0.8478,0.8509,0.8547,0.8462,0.857,0.8492,0.8598,0.8595,0.8612,0.8649,0.8647,0.8582
train,0.55,0.52,0.49,0.47,0.63,0.49,0.62,0.56,0.79,0.86,0.81,0.82,0.82,0.87,0.9,0.84,0.84,0.83,0.87,0.85,0.86,0.76,0.75,0.88,0.9,0.71,0.9,0.86,0.89,0.79,0.81,0.91,0.84,0.85,0.88
time, 36.161845207214355
9, 9, 767
test,0.4966,0.4966,0.4966,0.4966,0.4966,0.4966,0.4966,0.6565,0.7047,0.7626,0.7708,0.7693,0.7677,0.7757,0.7718,0.7759,0.7715,0.773,0.781,0.7897,0.7994,0.7806,0.8015,0.7974,0.7941,0.8043,0.8042,0.8065,0.8123,0.8127,0.8112,0.8071,0.8165,0.8165,0.8173
train,0.54,0.54,0.47,0.49,0.61,0.51,0.53,0.72,0.73,0.71,0.73,0.81,0.78,0.78,0.73,0.71,0.81,0.8,0.67,0.7,0.78,0.8,0.79,0.86,0.75,0.82,0.87,0.83,0.79,0.77,0.78,0.81,0.83,0.91,0.81
time, 37.14682936668396
9, 10, 857
test,0.5034,0.5034,0.5034,0.5034,0.6084,0.4966,0.6255,0.6815,0.6889,0.786,0.774,0.7848,0.7992,0.7967,0.8112,0.8152,0.8132,0.817,0.8205,0.8154,0.8201,0.8184,0.8215,0.862,0.8557,0.8618,0.86,0.8611,0.8611,0.8603,0.8606,0.8553,0.8599,0.8609,0.8612
train,0.48,0.58,0.5,0.48,0.56,0.53,0.59,0.65,0.73,0.76,0.78,0.87,0.79,0.73,0.82,0.79,0.91,0.8,0.86,0.83,0.79,0.86,0.9,0.87,0.88,0.94,0.89,0.81,0.84,0.82,0.85,0.83,0.85,0.85,0.89
time, 38.81643748283386
10, 1, 52
test,0.5541,0.4964,0.4679,0.4837,0.5089,0.5355,0.5836,0.4996,0.5196,0.5104,0.4979,0.5398,0.5383,0.5401,0.5667,0.575,0.6185,0.6069,0.5886,0.6086,0.5831,0.6172,0.6529,0.6956,0.6367,0.666,0.6479,0.6596,0.6595,0.6288,0.6579,0.6336,0.6395,0.6531,0.6196
train,0.52,0.54,0.56,0.53,0.49,0.51,0.55,0.51,0.52,0.49,0.52,0.62,0.52,0.5,0.58,0.61,0.64,0.62,0.63,0.6,0.61,0.65,0.7,0.71,0.67,0.71,0.74,0.63,0.79,0.54,0.73,0.61,0.7,0.63,0.61
time, 28.18747353553772
10, 2, 162
test,0.5034,0.534,0.6346,0.64,0.66,0.6715,0.6583,0.6565,0.6594,0.6711,0.6864,0.6922,0.681,0.6903,0.6843,0.6873,0.6889,0.6932,0.6822,0.7266,0.6988,0.7097,0.694,0.708,0.7014,0.7069,0.7167,0.7,0.7257,0.7348,0.7133,0.7506,0.743,0.7337,0.7574
train,0.45,0.52,0.61,0.67,0.63,0.65,0.64,0.71,0.8,0.71,0.74,0.72,0.71,0.74,0.67,0.69,0.68,0.69,0.77,0.78,0.68,0.72,0.7,0.71,0.78,0.64,0.79,0.79,0.76,0.7,0.75,0.78,0.67,0.78,0.8
time, 29.33013343811035
10, 3, 272
test,0.4966,0.4811,0.5357,0.6101,0.6162,0.6412,0.6489,0.6535,0.6799,0.7239,0.7642,0.7794,0.7807,0.7872,0.7935,0.8067,0.8269,0.8313,0.8307,0.844,0.8451,0.8427,0.8535,0.8419,0.8759,0.8738,0.8702,0.8731,0.8784,0.8822,0.8852,0.8877,0.8866,0.8887,0.8958
train,0.47,0.43,0.57,0.59,0.69,0.68,0.61,0.69,0.67,0.69,0.76,0.77,0.83,0.81,0.75,0.83,0.74,0.83,0.78,0.84,0.84,0.84,0.95,0.85,0.9,0.85,0.85,0.83,0.87,0.9,0.96,0.89,0.89,0.87,0.9
time, 30.96155333518982
10, 4, 382
test,0.5034,0.5034,0.5306,0.5883,0.5954,0.6009,0.6578,0.7371,0.7522,0.7689,0.7936,0.8069,0.8268,0.8477,0.8582,0.8583,0.8696,0.8628,0.8749,0.8737,0.8857,0.8887,0.8995,0.9131,0.9137,0.9147,0.9188,0.917,0.9176,0.9149,0.9141,0.9168,0.916,0.9232,0.9243
train,0.51,0.47,0.57,0.6,0.63,0.57,0.6,0.67,0.73,0.81,0.75,0.83,0.83,0.82,0.89,0.82,0.86,0.86,0.92,0.88,0.89,0.91,0.84,0.94,0.97,0.91,0.98,0.9,0.94,0.84,0.94,0.88,0.89,0.88,0.91
time, 32.0642409324646
10, 5, 492
test,0.5034,0.4966,0.4966,0.5813,0.6455,0.6821,0.6795,0.7374,0.6879,0.7829,0.7873,0.843,0.7917,0.8454,0.8507,0.8824,0.8615,0.9,0.9132,0.9227,0.9145,0.9413,0.9425,0.9239,0.9541,0.955,0.9319,0.9463,0.9599,0.9712,0.9713,0.9773,0.9793,0.9802,0.9795
train,0.49,0.57,0.38,0.6,0.58,0.64,0.67,0.71,0.71,0.78,0.73,0.86,0.81,0.79,0.84,0.89,0.84,0.9,0.88,0.95,0.9,0.9,0.92,0.96,0.97,0.93,0.94,0.87,0.95,0.97,0.98,0.98,0.98,0.98,0.95
time, 33.16382956504822
10, 6, 602
test,0.5034,0.5034,0.5872,0.5953,0.6555,0.7356,0.8179,0.822,0.8266,0.8419,0.8437,0.8551,0.868,0.8693,0.8742,0.8834,0.89,0.8948,0.8934,0.9003,0.9056,0.9044,0.9042,0.903,0.9022,0.9062,0.9073,0.9079,0.9057,0.9094,0.9063,0.91,0.9073,0.9051,0.9109
train,0.56,0.49,0.57,0.6,0.5,0.74,0.81,0.83,0.78,0.9,0.83,0.86,0.92,0.86,0.86,0.9,0.89,0.88,0.95,0.9,0.92,0.94,0.85,0.91,0.92,0.92,0.88,0.86,0.92,0.94,0.96,0.94,0.93,0.88,0.91
time, 34.259982109069824
10, 7, 712
test,0.5034,0.5034,0.4786,0.4966,0.4966,0.5669,0.6158,0.6936,0.7041,0.7528,0.7359,0.7618,0.7398,0.7582,0.7443,0.7633,0.7599,0.7658,0.7632,0.7872,0.7933,0.7968,0.8024,0.8165,0.8208,0.8223,0.8278,0.8186,0.8348,0.8117,0.8451,0.8561,0.8477,0.8494,0.8439
train,0.49,0.48,0.44,0.48,0.51,0.62,0.64,0.7,0.74,0.81,0.71,0.78,0.79,0.7,0.74,0.79,0.74,0.74,0.79,0.83,0.71,0.81,0.8,0.85,0.74,0.85,0.88,0.78,0.78,0.87,0.78,0.87,0.83,0.89,0.9
time, 35.17052626609802
10, 8, 822
test,0.4966,0.4966,0.4966,0.5034,0.5034,0.583,0.6191,0.6272,0.7508,0.725,0.7466,0.7509,0.7756,0.8175,0.8381,0.8069,0.8526,0.8586,0.8542,0.8055,0.8718,0.7995,0.8686,0.8674,0.8716,0.9106,0.9028,0.913,0.9231,0.923,0.9386,0.9587,0.9434,0.9624,0.96
train,0.54,0.47,0.57,0.5,0.46,0.52,0.57,0.7,0.72,0.74,0.76,0.78,0.79,0.84,0.78,0.85,0.83,0.92,0.81,0.75,0.93,0.86,0.88,0.85,0.87,0.89,0.88,0.94,0.89,0.89,0.91,1.0,0.95,0.95,0.97
time, 36.34713053703308
10, 9, 932
test,0.5034,0.4966,0.4966,0.6658,0.7275,0.6958,0.7874,0.8132,0.776,0.8254,0.8332,0.8444,0.8585,0.8732,0.8797,0.8861,0.888,0.8888,0.9006,0.9049,0.9073,0.9073,0.8937,0.9047,0.9153,0.9104,0.9123,0.9157,0.9188,0.9156,0.9197,0.9202,0.9102,0.9251,0.9188
train,0.45,0.52,0.5,0.71,0.73,0.72,0.77,0.79,0.83,0.79,0.87,0.87,0.91,0.88,0.86,0.91,0.88,0.95,0.9,0.96,0.86,0.93,0.92,0.9,0.97,0.92,0.94,0.93,0.9,0.91,0.94,0.92,0.9,0.93,0.98
time, 37.48083567619324
10, 10, 1042
test,0.4966,0.4966,0.5034,0.4966,0.5916,0.7453,0.7589,0.7732,0.7976,0.7995,0.8082,0.8237,0.8386,0.8594,0.8725,0.8528,0.8794,0.8833,0.8838,0.8755,0.8814,0.8867,0.8784,0.886,0.8911,0.8915,0.8881,0.8934,0.8946,0.8959,0.8923,0.8952,0.8861,0.8927,0.894
train,0.49,0.44,0.55,0.54,0.56,0.77,0.8,0.82,0.8,0.8,0.86,0.79,0.84,0.88,0.9,0.86,0.92,0.94,0.91,0.81,0.93,0.89,0.94,0.86,0.88,0.92,0.92,0.9,0.91,0.88,0.88,0.97,0.92,0.85,0.93
time, 39.05265808105469
